Date,Last Traded Price,High,Low,Opening Price,Closing Price,Yesterday Closing,Trade,Value MN,Volume
12/28/2017,27,27.7,27,27.3,27.2,27,336,12.667,464781
12/27/2017,27.2,27.3,27,27.2,27,27,253,7.123,262730
12/26/2017,26.9,27.5,26.9,27.3,27,27.2,244,9.845,362744
12/24/2017,27.3,27.6,27,27.6,27.2,27.6,221,6.282,230765
12/21/2017,27.6,28.1,27.6,27.7,27.6,27.6,274,8.369,300750
12/20/2017,27.6,27.6,27.1,27.2,27.6,27.2,253,7.862,286716
12/19/2017,27.2,28,27.1,27.9,27.2,27.7,457,12.6,459530
12/18/2017,27.7,28.3,27.6,28,27.7,28,229,7.45,267575
12/17/2017,27.8,28.5,27.8,28.4,28,28.3,327,9.754,348101
12/14/2017,28.2,28.9,28.1,28.4,28.3,28.2,311,8.385,295284
12/13/2017,28.2,28.6,28,28.3,28.2,28.4,441,22.682,804049
12/12/2017,28.6,28.8,28.1,28.5,28.4,28.6,437,20.627,725526
12/11/2017,28.6,29.2,28.5,29,28.6,28.6,656,23.794,826577
12/10/2017,28.4,29.2,28,28,28.6,28,1201,54.311,1885630
12/07/2017,28.1,28.3,27.7,27.7,28,27.6,469,16.776,598105
12/06/2017,27.8,28.4,27.5,28.3,27.6,28.3,532,20.555,736153
12/05/2017,28.6,29.2,28.2,28.8,28.3,28.8,618,25.176,878864
12/04/2017,28.8,29.1,27.5,27.5,28.8,27.4,1575,76.664,2697287
12/03/2017,27.5,27.6,27.1,27.4,27.4,27.1,235,9.931,363416
11/30/2017,27,27.5,27,27.5,27.1,27.2,328,10.255,376283
11/29/2017,27.3,27.7,27.1,27.5,27.2,27.1,387,13.019,474551
11/28/2017,27.2,27.9,26.9,27.6,27.1,27.3,521,15.657,574799
11/27/2017,27.1,27.9,27.1,27.9,27.3,27.6,486,19.734,719549
11/26/2017,27.7,28.6,27.4,28.4,27.6,28.1,735,30.156,1076650
11/23/2017,27.8,28.5,27.7,28.2,28.1,28.1,799,46.931,1669935
11/22/2017,28.4,28.7,27.5,28.3,28.1,28.1,820,35.71,1269067
11/21/2017,28.1,28.1,25.7,25.9,28.1,25.6,1521,78.411,2868698
11/20/2017,25.6,26,25.5,25.9,25.6,25.8,390,14.568,567505
11/19/2017,25.8,26.3,25.4,25.9,25.8,26.7,583,26.524,1023899
11/15/2017,26.8,26.9,25.6,25.6,26.7,25.8,629,26.895,1011146
11/14/2017,25.9,27,25.6,27,25.8,27,784,38.252,1466881
11/13/2017,27,28.5,26.8,28.2,27,28,884,38.96,1431746
11/12/2017,28,29.1,27.7,29,28,28.9,658,28.914,1021921
11/09/2017,29,29.5,28.8,29.2,28.9,29.1,400,13.456,463675
11/08/2017,29.2,29.5,28.9,29.3,29.1,29,643,22.686,778900
11/07/2017,29.4,30.6,28.8,30.6,29,30.3,1317,70.02,2376280
11/06/2017,30.4,30.9,30.2,30.3,30.3,30.5,490,18.521,607211
11/05/2017,30.6,31.4,30.3,31.2,30.5,31.1,662,29.399,950776
11/02/2017,31.2,31.9,31,31.5,31.1,31.3,818,45.206,1441452
11/01/2017,31.3,32.3,31.1,31.8,31.3,31.6,887,35.267,1113303
10/31/2017,31.7,31.9,30.7,31.3,31.6,31.3,1115,47.708,1526544
10/30/2017,31.2,31.9,30.5,31.2,31.3,30.4,471,14.68,471637
10/29/2017,30.9,34,30,34,30.4,36,1270,106.897,3424744
10/26/2017,36.2,37.5,35.6,37.5,36,37,195,9.104,251391
10/25/2017,37,37.5,36.8,37.1,37,37.1,156,5.023,135596
10/24/2017,37.7,38.2,36.8,38.2,37.1,37.7,215,11.281,303394
10/23/2017,37.3,38.3,37,37.4,37.7,37,323,13.18,349504
10/22/2017,37,39.1,36.9,39.1,37,38.4,268,14.961,400581
10/19/2017,38.6,39.7,38.1,38.6,38.4,38.5,227,9.484,246115
10/18/2017,38.7,40.8,38.2,40.4,38.5,39.9,312,18.432,469906
10/17/2017,40.4,40.4,38.2,38.8,39.9,38.3,265,11.728,296982
10/16/2017,37.6,39.9,37.1,39.4,38.3,39.5,439,21.107,545681
10/15/2017,39,42,39,42,39.5,41.7,317,18,446317
10/12/2017,42,43.5,41.4,42.3,41.7,42.3,485,38.3,903542
10/11/2017,42.3,43.1,42.3,43,42.3,42.9,256,21.895,513991
10/10/2017,42.3,43.7,42.3,42.6,42.9,42.6,189,12.51,290351
10/09/2017,43,43.5,42.5,43,42.6,43.2,210,12.983,302471
10/08/2017,43.7,43.7,42.6,42.6,43.2,43,292,24.778,576570
10/05/2017,43.5,43.9,42.6,42.8,43,42.5,292,18.394,424665
10/04/2017,42.9,43,41.9,42.5,42.5,42.6,182,9.224,218300
10/03/2017,43,43,41.6,42,42.6,41.7,178,7.899,186968
10/02/2017,41.9,43.8,41.5,42.7,41.7,42.8,138,10.976,261525
9/28/2017,42.7,43.4,41.7,43,42.8,43,189,11.37,268402
9/27/2017,43,44,43,43.5,43,43.6,156,5.929,137120
9/26/2017,43.6,44.1,43,43,43.6,43,407,37.012,849602
9/25/2017,43.3,43.7,42.9,43.5,43,43.5,217,12.359,285963
9/24/2017,43.7,43.7,43,43.2,43.5,42.9,328,15.467,356842
9/21/2017,43.3,43.5,42.8,43.4,42.9,43.5,180,10.197,236325
9/20/2017,43.5,43.6,42.1,42.4,43.5,42.1,207,15.869,370995
9/19/2017,42.2,43,42.1,43,42.1,42.8,216,20.855,493845
9/18/2017,42.9,43.8,42.7,43.8,42.8,43.5,165,9.604,223408
9/17/2017,43.8,44,42.8,44,43.5,43.8,222,14.377,331166
9/14/2017,44,44,43.3,43.4,43.8,42.9,266,20.674,472425
9/13/2017,42.9,43.7,42.5,43.6,42.9,43.1,511,64.051,1482266
09/12/2017,42.9,43.9,42.9,43.8,43.1,43.8,265,18.387,423706
09/11/2017,44.1,44.4,42.6,43,43.8,42.7,302,26.553,605991
09/10/2017,43.1,43.1,42,43,42.7,43.1,502,32.277,757643
09/07/2017,43.4,44,42.9,43.5,43.1,43.5,283,23.611,546386
09/06/2017,43.8,44.7,43.2,44.5,43.5,44.6,478,40.319,920650
09/05/2017,44.5,45.2,44.4,44.8,44.6,44.9,378,36.444,815415
09/04/2017,45.5,46.1,44.6,46.1,44.9,45.8,354,37.362,827158
8/31/2017,45.6,46.7,45.6,46.7,45.8,46.3,335,23.432,509475
8/30/2017,46,47.5,45.8,45.9,46.3,45.4,965,129.948,2792327
8/29/2017,45.4,45.8,45,45.1,45.4,45.1,353,40.374,889034
8/28/2017,45.1,46.1,44.8,45.1,45.1,45.1,711,88.497,1943377
8/27/2017,45.4,45.8,44.5,45.8,45.1,45.7,501,57.843,1280247
8/24/2017,45.8,46.3,45.3,45.5,45.7,45.4,963,115.763,2526302
8/23/2017,45.6,46.1,44.2,45,45.4,44.8,1114,166.952,3702923
8/22/2017,44.8,45.1,42.7,42.7,44.8,42.2,1089,118.437,2679402
8/21/2017,42.5,42.7,41.7,42.1,42.2,42.2,476,44.92,1067903
8/20/2017,42.3,43,41.7,43,42.2,42.9,446,48.705,1151870
8/17/2017,43.1,43.2,41.5,42,42.9,41.9,285,24.831,584429
8/16/2017,42.3,42.5,41.4,42,41.9,42,276,20.701,495195
8/13/2017,41.7,43.9,41.6,43.6,42,43.7,450,29.057,685094
08/10/2017,43.8,44.6,43.6,44.1,43.7,43.7,507,52.392,1189097
08/09/2017,44.2,44.8,43.4,44.6,43.7,44.3,637,67.655,1535271
08/08/2017,44.5,44.6,43.6,44.3,44.3,44.2,634,58.777,1331715
08/07/2017,43.9,44.5,43.1,43.5,44.2,43.3,1419,135.53,3081828
08/06/2017,43.6,43.6,42.4,42.4,43.3,42.3,781,83.446,1933800
08/03/2017,42.5,42.7,41.6,42.3,42.3,42.3,555,49.364,1169422
08/02/2017,42,43.6,42,43.1,42.3,43.1,834,74.471,1742502
08/01/2017,43.4,44.2,43,43,43.1,42.9,1094,114.468,2629891
7/31/2017,43,43.6,42.3,42.5,42.9,42.4,1294,112.752,2620528
7/30/2017,42.5,42.6,41.8,42.1,42.4,41.8,1103,94.073,2221490
7/27/2017,41.9,42,40.3,40.7,41.8,40.8,1300,97.922,2360951
7/26/2017,40.7,41.3,40.3,41.2,40.8,40.7,374,18.345,450157
7/25/2017,41,41.5,40.4,40.7,40.7,40.4,668,47.636,1166985
7/24/2017,40.5,40.7,39,39.4,40.4,39.2,601,35.822,900154
7/23/2017,39,40.4,39,40.4,39.2,40.2,904,47.026,1189578
7/20/2017,40.5,41.5,40,41,40.2,40.8,812,47.712,1180334
7/19/2017,40.8,42.6,40.5,42.1,40.8,41.6,1060,88.697,2135126
7/18/2017,41.5,42.6,41.4,41.7,41.6,41.5,753,56.612,1355840
7/17/2017,41.4,42.7,41,42.4,41.5,42.4,1256,96.819,2316893
7/16/2017,42.1,43.4,41.7,43,42.4,42.7,1051,91.632,2149112
7/13/2017,42.7,43.2,40.3,41,42.7,40.5,1700,128.114,3039261
07/12/2017,40.3,42,40.2,41.9,40.5,41.7,733,32.48,791547
07/11/2017,41.2,42.4,40.7,40.8,41.7,40.3,1508,114.351,2744613
07/10/2017,41,42.2,40,42,40.3,41.1,1279,58.821,1440973
07/09/2017,41.6,43,40,43,41.1,42.6,2033,141.755,3441857
07/06/2017,42.8,44,42.3,43.9,42.6,43.9,983,84.29,1961002
07/05/2017,44,45.2,43.2,44.4,43.9,44.4,1098,83.347,1878485
07/04/2017,44.1,45.3,44,45.2,44.4,44.9,670,46.251,1038447
07/03/2017,45.2,45.4,44.4,44.8,44.9,44,777,81.006,1801037
07/02/2017,44,46,43.6,45.8,44,45.5,972,70.18,1569001
6/29/2017,45.2,46.5,45.1,45.9,45.5,45.9,481,37.241,812597
6/28/2017,45.8,46.9,45.5,46.5,45.9,46.8,616,45.296,984806
6/22/2017,46.3,47.8,46,47.3,46.8,47.3,803,83.426,1775261
6/21/2017,47.4,47.7,46.1,46.4,47.3,46.6,1137,149.011,3176101
6/20/2017,46.9,46.9,45.2,45.2,46.6,45,1001,113.023,2442405
6/19/2017,45.3,45.7,43.2,44,45,43.8,1070,118.774,2684020
6/18/2017,43.8,44.9,43.6,44.9,43.8,44.7,608,49.39,1122832
6/15/2017,44.8,45,44,44.3,44.7,44,845,101.145,2268164
6/14/2017,44.4,44.4,42.6,42.6,44,42.4,681,60.869,1401038
6/13/2017,42.8,42.9,41.7,42.1,42.4,42.4,377,25.574,604323
06/12/2017,42.5,43.5,42.2,42.6,42.4,42.7,451,22.181,519435
06/11/2017,42.6,44.2,42.5,43.8,42.7,43.8,627,43.127,997944
06/08/2017,43.7,44.5,43.7,44.1,43.8,44.1,469,33.56,762189
06/07/2017,44,44.7,43.7,44,44.1,43.4,717,70.137,1590150
06/06/2017,43.7,44.5,43.1,43.9,43.4,43.5,775,74.012,1689683
06/05/2017,43.3,43.9,42.2,42.6,43.5,42.5,784,87.38,2031227
06/04/2017,42.7,43.1,41.9,42.2,42.5,42.4,861,68.72,1614510
06/01/2017,42.5,42.7,40.7,40.7,42.4,40.3,1484,119.675,2859796
5/31/2017,40.4,41,38.2,38.6,40.3,38.3,1299,128.647,3215794
5/30/2017,38.2,39.2,37.9,39,38.3,38.8,442,29.574,771503
5/29/2017,38.8,39,38.2,38.9,38.8,38.5,398,20.318,525768
5/28/2017,38.9,40.4,38.4,39.5,38.5,39.4,743,54.399,1395605
5/25/2017,39.5,40.9,39.1,40.3,39.4,40.1,701,57.372,1435011
5/24/2017,40.3,40.8,38.9,38.9,40.1,38.8,1487,157.518,3949654
5/23/2017,38.8,39.5,38.1,39.2,38.8,39.2,1107,96.352,2482307
5/22/2017,38,41,38,39.8,39.2,39.5,1319,128.405,3207141
5/21/2017,39.8,39.8,38,38,39.5,38,957,76.028,1951836
5/18/2017,38,38.9,37.7,38.3,38,38,1670,129.077,3384331
5/17/2017,37.9,38.4,35.8,36.1,38,35.6,1535,145.204,3912602
5/16/2017,35.9,36.1,34.6,36.1,35.6,35.6,816,85.169,2408823
5/15/2017,36,36.4,35.1,35.9,35.6,35.7,778,64.059,1789206
5/14/2017,35.7,36.9,35.6,36.7,35.7,36.7,599,43.716,1210515
05/11/2017,36.5,36.9,34.9,34.9,36.7,34.9,1086,76.725,2129595
05/09/2017,34.9,36,34.8,35.9,34.9,35.8,939,88.429,2516367
05/08/2017,35.6,36.5,35.4,36.1,35.8,36,726,52.002,1451245
05/07/2017,36.1,36.9,35.6,36.2,36,36,887,73.284,2020517
05/04/2017,36.5,37.7,35.5,36.7,36,36.4,1002,73.299,2008440
05/03/2017,36.7,37.1,34.4,34.9,36.4,34.6,1558,142.109,3963657
05/02/2017,34.7,36.4,34.4,35.4,34.6,35.7,1070,77.345,2192612
4/30/2017,35.2,36.4,33.1,33.9,35.7,33.8,1654,144.118,4150972
4/27/2017,33.9,34.2,32,32,33.8,31.1,1417,172.937,5114295
4/26/2017,31.5,32.9,30.7,32.3,31.1,32.1,1100,86.786,2753023
4/25/2017,32.3,32.4,30.7,31.4,32.1,31.1,1025,69.156,2172875
4/24/2017,30.8,33.1,30.8,32.6,31.1,32.5,1199,90.144,2806621
4/23/2017,32.6,34.4,31.5,33.2,32.5,33.3,1596,139.117,4211911
4/20/2017,33.5,34,32.5,33.2,33.3,33,1853,138.03,4146918
4/19/2017,33.2,33.2,29.9,30.2,33,30.2,2101,178.137,5674598
4/18/2017,30,30.6,28,28.1,30.2,28,2152,192.184,6511558
4/17/2017,28,28.7,27.4,27.5,28,27.3,1773,169.153,6012914
4/16/2017,27.2,27.4,26.5,26.7,27.3,26.5,1151,84.031,3105400
4/13/2017,26.6,26.9,26.4,26.7,26.5,26.7,518,38.681,1452100
04/12/2017,26.8,26.8,26.1,26.2,26.7,26.2,975,57.599,2175251
04/11/2017,26.2,26.2,25.4,25.5,26.2,25.4,610,23.052,886936
04/10/2017,25.5,25.5,25,25,25.4,25,237,4.918,194785
04/09/2017,24.9,25.2,24.9,25.1,25,25.1,96,2.113,84567
04/06/2017,25.1,25.2,25,25.2,25.1,25.2,104,2.244,89535
04/05/2017,25.3,25.3,25.1,25.1,25.2,25.2,97,2.353,93347
04/04/2017,25.2,25.5,25.2,25.4,25.2,25.3,120,2.631,104119
04/03/2017,25.2,25.5,25.2,25.3,25.3,25.2,117,3.051,120365
04/02/2017,25.3,25.3,25.1,25.2,25.2,25.1,95,2.066,82024
3/30/2017,25.2,25.4,25,25.3,25.1,25.3,151,3.68,146318
3/29/2017,25.2,25.7,25.2,25.3,25.3,25.5,140,3.795,149783
3/28/2017,25.4,25.8,25.4,25.7,25.5,25.8,119,3.739,146384
3/27/2017,25.7,26,25.5,25.5,25.8,25.7,201,7.194,279429
3/23/2017,25.7,25.9,25.2,25.3,25.7,25.4,212,8.426,328594
3/22/2017,25.4,25.6,25.1,25.3,25.4,25.2,221,8.18,322813
3/21/2017,25.1,25.7,25.1,25.7,25.2,25.5,342,11.236,444500
3/20/2017,25.5,25.7,25.4,25.5,25.5,25.6,273,8.877,347681
3/19/2017,25.5,25.9,25.5,25.9,25.6,25.7,166,4.028,156701
3/16/2017,25.6,26,25.5,25.8,25.7,25.7,230,8.458,328915
3/15/2017,25.7,25.9,25.6,25.9,25.7,25.9,197,5.683,220523
3/14/2017,25.8,26.2,25.8,26.1,25.9,26.1,259,8.203,315635
3/13/2017,26.2,26.5,26.1,26.5,26.1,26.4,283,9.083,346840
03/12/2017,26.3,26.9,26.3,26.9,26.4,26.6,348,15.467,583834
03/09/2017,26.5,26.8,26.3,26.4,26.6,26.2,447,18.014,679166
03/08/2017,26.2,26.4,26.1,26.3,26.2,26.4,180,8.645,329615
03/07/2017,26.2,26.6,26,26,26.4,25.9,572,24.861,943485
03/06/2017,25.9,26,25.5,26,25.9,25.6,151,4.5,174170
03/05/2017,25.6,25.9,25.5,25.6,25.6,25.6,105,2.724,106333
03/02/2017,25.6,26,25.5,25.8,25.6,25.8,142,4.627,180334
03/01/2017,25.9,26.3,25.8,26.1,25.8,26,175,6.977,268444
2/28/2017,26.1,26.3,25.9,26.2,26,25.9,295,16.302,625172
2/27/2017,25.9,26,25.5,25.9,25.9,25.9,255,10.588,409839
2/26/2017,25.8,26.3,25.7,25.7,25.9,25.5,518,20.038,770471
2/23/2017,25.6,25.8,25.3,25.6,25.5,25.6,251,11.966,470297
2/22/2017,25.5,25.8,25.3,25.3,25.6,25.3,174,6.172,241511
2/20/2017,25.2,25.7,25.2,25.3,25.3,25.3,229,8.982,354976
2/19/2017,25.2,25.5,25.2,25.4,25.3,25.3,188,8.118,320815
2/16/2017,25.5,25.6,25.2,25.6,25.3,25.5,281,10.985,432841
2/15/2017,25.6,26,25.4,25.7,25.5,25.5,328,15.219,592355
2/14/2017,25.6,25.8,24.9,25.1,25.5,24.9,297,17.039,673892
2/13/2017,24.8,25.2,24.8,25.2,24.9,25.2,349,14.152,567254
02/12/2017,25.1,25.5,25,25.2,25.2,25.1,226,8.829,350856
02/09/2017,25,25.6,25,25.6,25.1,25.4,243,6.503,258145
02/08/2017,25.6,25.7,24.7,24.8,25.4,24.5,338,8.75,349236
02/07/2017,24.4,24.8,24.2,24.2,24.5,24.6,185,6.003,244609
02/06/2017,24.6,24.8,24.3,24.4,24.6,24.4,198,6.803,277467
02/05/2017,24.3,24.8,24,24.1,24.4,24.2,290,8.365,343684
02/02/2017,24.3,24.9,24.1,24.6,24.2,24.6,277,10.97,450388
02/01/2017,24.7,25.2,24.5,24.7,24.6,24.5,297,7.175,289177
1/31/2017,24.4,25.1,24.4,25,24.5,25.4,472,20.153,818959
1/30/2017,25.5,26,25.2,26,25.4,25.5,220,9.004,353446
1/29/2017,25.7,26.5,25.4,26.5,25.5,26,255,9.869,382788
1/26/2017,26.1,26.8,25.9,26.1,26,26.2,395,17.609,671007
1/25/2017,26.2,27.1,26.1,26.4,26.2,26.4,448,21.76,823686
1/24/2017,26.4,27.5,26.3,27,26.4,27.2,640,34.472,1286198
1/23/2017,27,27.9,27,27.3,27.2,27.2,901,55.74,2029964
1/22/2017,27.3,27.4,26.9,27.1,27.2,26.9,751,43.354,1593264
1/19/2017,26.9,27.2,26.5,26.5,26.9,26.7,639,37.369,1389013
1/18/2017,26.6,27.2,26.4,26.6,26.7,26.7,736,45.187,1689415
1/17/2017,26.7,27.1,26.6,27,26.7,26.9,619,34.067,1270323
1/16/2017,26.5,27.3,26.3,27,26.9,26.6,879,52.435,1947211
1/15/2017,26.9,26.9,26.2,26.6,26.6,26.5,626,32.269,1218814
01/12/2017,26.4,26.8,26.3,26.5,26.5,26.6,550,28.008,1054928
01/11/2017,26.6,27.7,26.5,27.5,26.6,27.3,803,44.909,1667031
01/10/2017,27.3,27.4,26.4,26.5,27.3,26.3,1785,101.409,3754514
01/09/2017,26.2,26.4,25.6,25.6,26.3,25.6,693,33.408,1283766
01/08/2017,25.5,26.4,25.4,26.4,25.6,26.1,1010,49.06,1895038
01/05/2017,26.2,26.7,25.9,26.5,26.1,26.5,809,30.229,1152764
01/04/2017,26.5,27,25.5,25.6,26.5,25.7,1430,75.682,2838192
01/03/2017,25.5,25.8,25.4,25.7,25.7,25.7,756,30.023,1172051
01/02/2017,25.7,26.1,25.6,26,25.7,25.8,565,26.444,1026317
01/01/2017,25.7,26.2,25.6,25.9,25.8,25.7,443,22.274,860359
12/29/2016,25.8,26.2,25.6,25.8,25.7,25.7,387,15.027,581763
12/28/2016,25.9,26.2,25.6,25.8,25.7,25.7,528,25.35,979015
12/27/2016,25.6,26.6,25.5,26.4,25.7,26.2,838,41.056,1575313
12/26/2016,26.3,26.8,26.1,26.5,26.2,26.5,814,40.43,1533971
12/22/2016,26.5,27.2,26.3,26.8,26.5,26.7,895,62.295,2321352
12/21/2016,26.9,26.9,26,26.4,26.7,26,741,40.701,1535996
12/20/2016,26,27.2,25.9,26.3,26,25.9,1084,67.384,2529904
12/19/2016,26.1,26.4,25.8,26.1,25.9,25.8,608,28.709,1100389
12/18/2016,25.7,26.1,25.5,26,25.8,25.6,530,29.04,1125682
12/15/2016,25.6,26.4,25.5,25.8,25.6,25.7,693,37.798,1464953
12/14/2016,25.6,26.4,25.6,26.2,25.7,25.8,1092,62.039,2386982
12/12/2016,25.8,26.7,25.5,26.4,25.8,26.5,1019,49.227,1888853
12/11/2016,26.4,27.5,26.3,27.4,26.5,27.2,819,47.145,1749956
12/08/2016,27,28.1,27,28,27.2,27.9,1069,61.601,2249639
12/07/2016,27.9,28.4,26.2,26.5,27.9,26.5,1771,140.864,5132329
12/06/2016,26.5,27.1,26.2,26.5,26.5,26.2,1490,120.793,4529422
12/05/2016,26.3,26.3,25.4,25.8,26.2,25.8,1144,77.8,3008988
12/04/2016,25.9,26.3,25.3,25.3,25.8,25.1,1489,119.095,4599234
12/01/2016,25.1,25.5,24.2,24.4,25.1,24.3,1354,116.661,4662355
11/30/2016,24.3,24.4,23.5,23.9,24.3,23.6,447,27.3,1132222
11/29/2016,23.6,24.4,23.4,24.1,23.6,24.1,426,24.673,1029302
11/28/2016,23.9,24.4,23.7,24,24.1,23.9,562,21.72,901423
11/27/2016,24,24,23.2,23.3,23.9,23.3,571,23.148,982164
11/24/2016,23.4,23.7,23.2,23.4,23.3,23.4,345,14.906,636711
11/23/2016,23.3,24,23.1,23.8,23.4,23.6,600,24.875,1064530
11/22/2016,23.7,24.3,23.4,24,23.6,24,490,18.571,780853
11/21/2016,24.1,24.6,23.5,23.5,24,23.3,637,32.577,1354380
11/20/2016,23.3,23.5,23.1,23.4,23.3,24.9,361,14.089,604249
11/16/2016,24.9,25,24.5,25,24.9,24.6,471,24.56,992416
11/15/2016,24.8,25,24,24.3,24.6,24.2,273,11.152,452471
11/14/2016,24.1,25.3,23.9,25.3,24.2,25.1,391,16.1,658614
11/13/2016,25,25.7,24.7,24.7,25.1,24.5,697,32.748,1297065
11/10/2016,24.7,24.7,24,24.2,24.5,24,499,20.878,854281
11/09/2016,23.9,24.3,23.7,24,24,24,291,13.82,576937
11/08/2016,23.9,24.5,23.9,24.2,24,24.1,370,11.752,487206
11/07/2016,24.4,24.6,24,24.3,24.1,24.4,393,12.4,512285
11/06/2016,24.4,24.9,24.1,24.2,24.4,24.5,299,11.612,475433
11/03/2016,24.5,25.2,24.1,25,24.5,24.6,422,17.968,733879
11/02/2016,24.6,25,24.3,24.9,24.6,24.2,315,12.523,506068
11/01/2016,24.4,24.7,24.1,24.5,24.2,24.5,290,9.287,381438
10/31/2016,24.4,25.2,23.9,23.9,24.5,23.4,377,14.629,593807
10/30/2016,23.5,24.9,23,24.9,23.4,25.4,605,23.18,980198
10/27/2016,25.1,26.5,25,25.9,25.4,26.1,426,14.119,547972
10/26/2016,25.9,27.2,25.8,27.2,26.1,27.1,427,19.987,758789
10/25/2016,27,27.3,26.5,26.7,27.1,26.6,692,37.271,1384385
10/24/2016,26.7,27.4,26.4,27.4,26.6,27.2,536,21.226,793416
10/23/2016,27.1,27.7,27.1,27.2,27.2,27.2,446,25.637,939146
10/20/2016,27,28,26.9,27.1,27.2,27.6,484,29.171,1066919
10/19/2016,27.7,29.1,27.2,28.6,27.6,28.6,537,47.711,1694593
10/18/2016,28.4,28.7,27.8,28.2,28.6,28.1,721,66.613,2357921
10/17/2016,27.9,28.8,27.8,27.8,28.1,27.5,929,95.255,3372689
10/16/2016,27.4,27.8,27.3,27.3,27.5,27.2,699,49.807,1807038
10/13/2016,27,27.5,27,27.2,27.2,26.9,305,26.638,977968
10/10/2016,27,27.3,26.7,26.9,26.9,26.8,459,35.081,1300798
10/09/2016,26.7,27.6,26.6,27.4,26.8,27.3,547,30.375,1124595
10/06/2016,27.1,27.5,26.6,26.8,27.3,26.6,743,48.784,1800617
10/05/2016,26.4,27.1,26.3,26.5,26.6,26.1,640,46.911,1753170
10/04/2016,26.1,26.6,25.9,26.3,26.1,26.4,413,29.924,1138327
10/03/2016,26.3,27.4,26.3,27.1,26.4,27.1,506,37.695,1417061
10/02/2016,27.2,27.4,26.7,27.2,27.1,26.9,769,57.785,2136804
9/29/2016,26.8,27.1,26.1,26.3,26.9,26.3,958,79.342,2971042
9/28/2016,26.4,26.5,26.1,26.1,26.3,26,647,27.115,1033385
9/27/2016,26.2,26.4,25.8,25.8,26,25.7,824,71.5,2736551
9/26/2016,25.6,25.8,25.4,25.6,25.7,25.6,439,25.44,995115
9/25/2016,25.8,26,25.4,26,25.6,25.7,478,29.658,1158301
9/24/2016,25.9,26,25.3,25.7,25.7,25.6,520,30.549,1189958
9/22/2016,25.7,26.1,25.5,26.1,25.6,25.9,344,17.323,675699
9/21/2016,25.9,26.5,25.7,26.2,25.9,26,607,40.398,1548779
9/20/2016,26,26.2,25.7,25.9,26,25.7,502,35.484,1368193
9/19/2016,25.7,25.9,25.1,25.1,25.7,25.3,549,30.275,1187348
9/18/2016,25.2,25.7,25.1,25.6,25.3,25.7,385,18.85,741277
09/08/2016,25.6,26.5,25.5,26.5,25.7,25.9,520,35.535,1374476
09/07/2016,26.2,26.2,25.5,26,25.9,26,584,43.863,1702593
09/06/2016,26,27,25.8,26.4,26,26.3,771,57.275,2183850
09/05/2016,26.3,26.6,25.5,25.7,26.3,25.6,803,66.143,2533285
09/04/2016,25.7,25.8,25.3,25.7,25.6,25.7,601,44.729,1752342
09/01/2016,25.6,26.2,25.2,25.4,25.7,25.3,957,82.126,3195975
8/31/2016,25.5,25.5,24.8,24.8,25.3,24.6,1141,97.543,3875787
8/30/2016,24.4,24.7,24,24.1,24.6,23.9,675,48.114,1965500
8/29/2016,24,24.2,23.7,24.1,23.9,24.1,239,4.842,202547
8/28/2016,24.1,24.3,23.7,23.7,24.1,23.7,309,11.361,471252
8/24/2016,23.7,24,23.3,23.7,23.7,23.8,349,10.023,424976
8/23/2016,23.7,24.2,23.6,23.8,23.8,23.6,329,10.835,454478
8/22/2016,23.7,23.9,23.5,23.8,23.6,23.8,205,7.613,320917
8/21/2016,23.9,24.5,23.7,24.5,23.8,24.3,333,13.788,574670
8/18/2016,24.3,24.4,24,24.3,24.3,24.1,241,11.266,466670
8/17/2016,24.2,24.4,24,24.3,24.1,24.3,222,10.571,438100
8/16/2016,24.4,24.5,24.2,24.4,24.3,24.4,181,7.853,322877
8/14/2016,24.5,24.5,24.2,24.5,24.4,24.4,168,4.583,188144
08/11/2016,24.5,24.8,24.2,24.4,24.4,24.3,282,13.437,548891
08/10/2016,24.4,24.7,24.2,24.7,24.3,24.6,291,14.811,608244
08/09/2016,24.7,24.8,24.3,24.4,24.6,24.4,246,13.28,541244
08/08/2016,24.3,25,24.3,25,24.4,25,473,22.34,908889
08/07/2016,25,25.3,24.8,25.1,25,24.9,450,19.137,764793
08/04/2016,24.7,25.1,24.3,24.4,24.9,24.3,725,45.917,1853342
08/03/2016,24.2,24.9,24.2,24.8,24.3,24.5,295,13.741,560510
08/02/2016,24.6,24.7,24.2,24.6,24.5,24.4,334,17.874,732535
08/01/2016,24.3,24.5,24,24,24.4,23.8,257,9.121,375604
7/31/2016,23.7,24.2,23.7,24.1,23.8,24.1,202,10.119,423725
7/28/2016,24.2,24.7,24,24.7,24.1,24.5,227,10.111,417048
7/27/2016,24.5,24.7,24.1,24.1,24.5,24.1,409,18.194,746136
7/26/2016,24,24.9,23.9,24.6,24.1,24.7,264,10.57,432924
7/25/2016,24.9,25,24.1,24.6,24.7,24.3,495,22.37,911810
7/24/2016,24.3,24.4,23.7,24,24.3,24,358,15.946,662814
7/21/2016,24.1,24.4,23.9,24.1,24,24.5,397,19.845,823179
7/20/2016,24.4,24.8,24.3,24.3,24.5,24.3,667,41.246,1682924
7/19/2016,24.3,24.4,23.1,23.1,24.3,23.2,1019,55.586,2311520
7/18/2016,23.4,23.5,23.1,23.3,23.2,23.4,283,12.051,516947
7/17/2016,23.4,23.8,23.2,23.5,23.4,23.8,247,10.094,431768
7/16/2016,23.8,23.9,22.7,22.7,23.8,22.6,909,37.101,1580477
7/14/2016,22.7,22.8,22.5,22.5,22.6,22.5,209,9.56,422522
7/13/2016,22.4,22.8,22.4,22.8,22.5,22.7,166,8.049,357619
07/12/2016,22.7,22.8,22.2,22.2,22.7,22.3,230,7.244,320934
07/11/2016,22.4,22.4,22.1,22.1,22.3,22.2,76,1.172,52488
07/10/2016,22.3,22.3,22.1,22.2,22.2,22.3,94,2.692,121406
6/30/2016,22.3,22.5,22.2,22.3,22.3,22.3,131,4.348,194889
6/29/2016,22.2,22.7,22.2,22.3,22.3,22.5,218,4.568,204140
6/28/2016,22.7,22.9,22.4,22.7,22.5,22.8,254,7.246,320663
6/27/2016,22.8,23,22.5,22.9,22.8,22.8,267,6.416,281763
6/26/2016,22.9,22.9,22.1,22.4,22.8,22.5,273,6.068,268644
6/23/2016,22.6,22.7,22.3,22.6,22.5,22.3,146,2.764,122762
6/22/2016,22.5,22.6,22.1,22.2,22.3,22.3,90,1.888,84389
6/21/2016,22.2,22.6,22.2,22.6,22.3,22.4,101,1.853,82973
6/20/2016,22.7,22.7,22.1,22.2,22.4,22.2,89,2.705,121814
6/19/2016,22.2,22.4,22.1,22.3,22.2,22.3,146,2.926,131878
6/16/2016,22.2,22.9,22.2,22.5,22.3,22.6,236,5.397,241017
6/15/2016,22.7,23.1,22.5,22.5,22.6,22.4,264,7.596,332440
6/14/2016,22.5,22.6,22.2,22.5,22.4,22.2,120,3.945,175934
6/13/2016,22.1,22.5,22,22.2,22.2,22.5,126,3.739,168408
06/12/2016,22.3,22.7,22.3,22.6,22.5,22.6,136,4.901,217365
06/09/2016,22.8,22.9,22.4,22.6,22.6,22.7,175,5.272,233845
06/08/2016,22.6,22.8,22.4,22.6,22.7,22.3,189,3.338,147528
06/07/2016,22.5,22.7,22.1,22.7,22.3,22.9,237,8.43,375575
06/06/2016,23,23,22.7,22.7,22.9,22.9,130,3.815,167161
06/05/2016,23,23.6,22.8,23.6,22.9,23.4,233,5.849,254000
06/02/2016,23.4,23.9,23.3,23.6,23.4,23.8,404,11.892,504164
06/01/2016,23.6,23.9,23.4,23.5,23.8,23.3,467,21.058,888015
5/31/2016,23.2,23.6,23.1,23.5,23.3,23.4,357,11.063,474508
5/30/2016,23.5,24.3,23.3,24.1,23.4,23.9,462,15.238,641619
5/29/2016,23.8,24.2,23.2,23.2,23.9,23,924,38.13,1600611
5/26/2016,23.2,23.3,22.8,23.1,23,23.1,355,13.668,591836
5/25/2016,23.3,23.6,22.8,23.4,23.1,23.6,506,16.053,691977
5/24/2016,23.6,23.7,22.5,22.6,23.6,22.5,738,30.556,1322314
5/22/2016,22.6,22.9,22.4,22.9,22.5,23,290,7.857,349058
5/19/2016,23.1,23.2,22.5,22.6,23,22.7,415,13.919,609992
5/18/2016,22.7,22.8,21.7,22,22.7,21.7,465,17.366,786005
5/17/2016,21.8,21.9,21.7,21.7,21.7,21.6,64,1.916,87959
5/16/2016,21.8,21.9,21.6,21.9,21.6,21.7,108,3.558,164033
5/15/2016,21.8,22,21.6,22,21.7,21.9,96,1.657,76320
05/12/2016,22,22.4,21.8,22,21.9,22.1,145,4.004,182121
05/11/2016,22.2,22.2,21.7,21.7,22.1,21.7,120,3.382,154077
05/10/2016,21.7,22,21.7,22,21.7,21.7,55,0.917,42030
05/09/2016,21.7,22,21.6,21.9,21.7,21.9,77,1.709,78394
05/08/2016,21.8,22.4,21.8,22.3,21.9,22.1,127,3.309,149815
05/05/2016,22,22.4,21.9,22.2,22.1,22.1,111,3.145,142500
05/04/2016,22,22.3,21.9,22.3,22.1,22.2,88,1.731,78355
05/03/2016,22.2,22.6,22.1,22.3,22.2,22,139,3.167,141982
05/02/2016,22.2,22.3,21.5,22.3,22,22.2,107,2.458,112175
4/28/2016,22.4,22.5,21.8,22.2,22.2,22.2,210,3.733,168640
4/27/2016,22.1,22.3,22.1,22.2,22.2,22.4,72,1.748,78945
4/26/2016,22.5,22.6,22.2,22.6,22.4,22.5,98,3.248,145354
4/25/2016,22.6,22.7,22.4,22.4,22.5,22.6,60,2.237,99450
4/24/2016,22.7,22.7,22.3,22.5,22.6,22.4,97,2.002,88968
4/21/2016,22.5,22.5,22.2,22.5,22.4,22.1,148,5.39,241478
4/20/2016,22.2,22.5,22,22.4,22.1,22.4,90,2.787,125297
4/19/2016,22.3,22.7,22.3,22.7,22.4,22.6,97,3.648,162485
4/18/2016,22.4,22.7,22.3,22.3,22.6,22.3,98,4.12,182801
4/17/2016,22.3,22.4,22.1,22.1,22.3,22.3,58,0.974,43714
4/13/2016,22.3,22.4,22.2,22.2,22.3,22.3,83,2.47,111098
04/12/2016,22.3,22.7,22.2,22.5,22.3,22.4,181,3.91,174655
04/11/2016,22.4,22.7,22.3,22.3,22.4,22.5,128,2.446,108768
04/10/2016,22.4,23,22.3,23,22.5,22.8,116,2.421,107237
04/07/2016,22.8,23.3,22.7,23.2,22.8,22.8,186,5.137,224714
04/06/2016,23.4,23.4,22.7,23,22.8,22.8,267,4.283,186477
04/05/2016,22.9,23.3,22.7,23.3,22.8,23.3,270,7.715,336296
04/04/2016,23.3,23.5,23.1,23.4,23.3,23.3,157,4.705,201229
04/03/2016,23.1,23.7,22.9,22.9,23.3,22.8,310,9.455,405168
3/31/2016,22.8,22.9,22.6,22.8,22.8,22.7,106,2.814,123959
3/30/2016,22.8,23,22.5,22.6,22.7,22.7,117,3.398,149746
3/29/2016,22.8,22.8,22.5,22.5,22.7,22.6,198,5.183,229629
3/28/2016,22.5,22.7,22.5,22.7,22.6,22.6,196,3.588,159063
3/27/2016,22.7,23,22.5,22.7,22.6,22.8,93,3.553,156639
3/24/2016,22.7,23.1,22.6,23.1,22.8,22.8,154,3.829,168024
3/23/2016,22.6,23.4,22.6,23.4,22.8,23.1,225,5.071,221732
3/22/2016,23.4,23.6,23.1,23.5,23.1,23.3,163,4.902,211292
3/21/2016,23.4,23.5,23.2,23.2,23.3,23.2,92,1.637,70153
3/20/2016,23.1,23.3,23,23.3,23.2,23.4,297,5.867,253377
3/16/2016,23.4,23.7,23.3,23.6,23.4,23.5,97,3.641,155311
3/15/2016,23.6,23.7,23.4,23.4,23.5,23.3,163,4.127,175259
3/14/2016,23.5,23.5,23.1,23.3,23.3,23.4,176,4.589,197191
3/13/2016,23.5,23.6,23.2,23.6,23.4,23.5,163,5.113,218726
03/10/2016,23.5,24.1,23,23.5,23.5,23.3,452,19.09,812123
03/09/2016,23.6,24,23.1,24,23.3,23.7,186,6.035,258128
03/08/2016,23.8,24.5,23.4,23.8,23.7,23.6,434,12.837,534199
03/07/2016,23.6,23.9,22.9,23.3,23.6,22.9,293,5.842,250145
03/06/2016,22.8,23.2,22.8,23.1,22.9,23.1,197,5.231,227512
03/03/2016,23,23.7,23,23.4,23.1,23.5,316,9.735,419852
03/02/2016,23.4,23.9,23.2,23.8,23.5,23.5,272,18.452,783551
03/01/2016,23.7,23.9,23.5,23.6,23.5,23.7,136,6.499,275380
2/29/2016,23.7,23.9,23.6,23.8,23.7,23.8,164,5.758,242888
2/28/2016,23.6,23.9,23.6,23.7,23.8,23.7,162,6.444,271015
2/25/2016,23.7,24.1,23.6,23.8,23.7,23.8,319,9.297,390975
2/24/2016,23.8,24.2,23.7,24.1,23.8,24.2,233,9.595,400768
2/23/2016,24.1,24.4,24.1,24.4,24.2,24.3,222,8.226,340347
2/22/2016,24.4,24.5,23.7,24.2,24.3,24.6,530,16.663,696602
2/18/2016,24.7,25.2,24.5,24.6,24.6,24.8,212,6.747,272353
2/17/2016,24.7,25.2,24.7,24.9,24.8,24.9,320,10.272,412956
2/16/2016,25,25,24.2,24.2,24.9,24.1,214,4.516,182746
2/15/2016,24.1,24.8,24,24.8,24.1,24.9,404,18.552,766200
2/14/2016,24.8,25.4,24.8,25.3,24.9,25.2,304,15.635,624513
02/11/2016,25.3,26.2,25,26.2,25.2,26.2,588,28.552,1121168
02/10/2016,26.2,26.4,25.9,26.4,26.2,25.9,688,29.57,1128206
02/09/2016,25.9,26.1,25,25.7,25.9,25.2,823,38.301,1496100
02/08/2016,25.4,25.4,24.3,24.3,25.2,24.2,677,20.93,838463
02/07/2016,24.3,24.4,23.9,24,24.2,24.2,293,6.78,281596
02/04/2016,24.3,24.6,24,24.3,24.2,24.2,338,11.381,470966
02/03/2016,24.3,24.9,23.4,24.6,24.2,24.6,476,13.244,554352
02/02/2016,24.3,25.8,24.1,25.8,24.6,25.5,842,40.004,1601565
02/01/2016,25.4,26.4,25.2,25.4,25.5,25.3,359,8.686,338034
1/31/2016,25.6,26.5,25.1,26,25.3,26.5,331,14.743,577408
1/28/2016,26.4,27.8,25.7,27.8,26.5,27,359,10.214,386645
1/27/2016,27,27,26,26.4,27,26.6,388,18.474,692368
1/26/2016,26.5,27.7,26.3,27.7,26.6,27.6,511,19.15,714201
1/25/2016,27.5,28.7,27,28.2,27.6,28.1,806,35.614,1286178
1/24/2016,27.8,28.3,25.5,25.5,28.1,26.1,1431,70.093,2535877
1/21/2016,25.7,26.4,25.1,25.9,26.1,25.1,580,20.921,807508
1/20/2016,25.2,26,25,26,25.1,26.3,516,15.165,599010
1/19/2016,26,27,25.8,27,26.3,26.8,509,20.857,790849
1/18/2016,26.9,27.2,25.6,26.1,26.8,25.8,743,34.408,1292535
1/17/2016,25.8,25.9,25,25.2,25.8,25.2,599,29.624,1161336
1/14/2016,25.6,26.3,24.9,26.1,25.2,25.8,527,24.239,945402
1/13/2016,25.9,25.9,24.3,24.3,25.8,23.7,1242,53.073,2107383
01/12/2016,23.9,24.3,23.5,23.7,23.7,23.3,455,12.445,520300
01/11/2016,23.4,23.9,23.2,23.9,23.3,23.5,271,7.432,316571
01/10/2016,23.8,24.5,23.2,24.4,23.5,24.2,614,19.51,813956
01/07/2016,24.5,24.5,23.9,24.5,24.2,24.3,483,22.226,920040
01/06/2016,24.4,24.5,23.8,24.2,24.3,24,619,23.225,962633
01/05/2016,23.9,24.5,23.6,24.2,24,24,426,14.679,613576
01/04/2016,24,24.2,23.1,23.1,24,22.9,910,25.786,1083920
01/03/2016,22.9,23.2,22.7,22.9,22.9,22.6,251,7.24,315156
31/12/2015 00:00,22.6,23,22.6,23,22.6,22.7,146,3.116,137014
30/12/2015 00:00,22.9,23.1,22.6,23,22.7,22.7,219,6.275,275121
29/12/2015 00:00,22.6,23.2,22.6,22.8,22.7,22.9,231,4.545,199754
28/12/2015 00:00,23,23.6,22.8,23.6,22.9,23.3,161,3.438,149665
27/12/2015 00:00,23.2,23.7,23.2,23.7,23.3,23.4,115,2.034,86867
24/12/2015 00:00,23.3,23.7,23.2,23.6,23.4,23.3,194,7.053,301037
23/12/2015 00:00,23.5,23.9,23,23.4,23.3,23,231,8.949,382609
22/12/2015 00:00,23.2,23.5,23,23.4,23,23.3,164,2.967,128368
21/12/2015 00:00,23.1,23.5,23,23.4,23.3,22.9,126,2.422,104174
20/12/2015 00:00,23,23.7,22.7,22.8,22.9,22.9,276,7.735,334558
17/12/2015 00:00,22.9,23.1,22.8,23.1,22.9,23,157,2.221,96903
15/12/2015 00:00,22.9,23.3,22.8,23.3,23,23,116,2.879,125173
14/12/2015 00:00,22.9,23.3,22.8,23.1,23,23.1,110,2.802,121594
13/12/2015 00:00,23,23.6,23,23.5,23.1,23.5,141,2.417,104232
10/12/2015 00:00,23.3,23.9,23.2,23.9,23.5,23.4,196,7.702,328077
09/12/2015 00:00,23.8,23.8,23.2,23.2,23.4,23.5,143,4.651,198647
08/12/2015 00:00,23.7,23.9,23.2,23.8,23.5,23.4,114,7.087,299100
07/12/2015 00:00,23.3,24,23.3,23.5,23.4,23.7,383,10.406,437132
06/12/2015 00:00,23.9,24.5,23.2,23.2,23.7,22.8,537,16.624,695905
03/12/2015 00:00,23,23.4,22.6,23.3,22.8,23,290,6.816,296726
02/12/2015 00:00,23.3,23.8,22.9,23,23,23,324,7.517,322689
01/12/2015 00:00,23,23.3,22.8,23.1,23,22.9,105,3.062,133204
30/11/2015 00:00,23.3,24,22.8,24,22.9,23.6,308,9.336,399335
29/11/2015 00:00,23.5,24.4,23.5,23.8,23.6,24.1,212,6.324,264601
26/11/2015 00:00,23.9,24.4,23.1,23.2,24.1,23,782,27.318,1138809
25/11/2015 00:00,23,23,22.2,22.3,23,22.5,206,7.922,348063
24/11/2015 00:00,22.4,22.8,22.3,22.8,22.5,22.8,133,2.155,95432
23/11/2015 00:00,22.7,23.5,22.7,23.4,22.8,23.1,166,5.745,249055
22/11/2015 00:00,23.3,23.3,22.6,23.1,23.1,24.2,260,6.78,293780
18/11/2015 00:00,24.2,24.4,24,24.1,24.2,24.3,256,7.584,313038
17/11/2015 00:00,24.3,24.4,24,24.4,24.3,24.2,279,9.391,387937
16/11/2015 00:00,24.2,24.4,23.5,23.6,24.2,23.2,270,6.146,256453
15/11/2015 00:00,23.4,23.5,23,23,23.2,22.8,166,3.987,171942
12/11/2015 00:00,23.1,23.2,22.7,23.1,22.8,22.7,177,3.888,170011
11/11/2015 00:00,22.6,23.5,22.6,23.4,22.7,23.1,119,1.728,75557
10/11/2015 00:00,23.4,23.9,22.6,23.7,23.1,23.6,150,3.926,168033
09/11/2015 00:00,23.5,24.1,23.5,24,23.6,23.9,185,2.954,124213
08/11/2015 00:00,23.8,24.7,23.8,24.1,23.9,23.8,286,5.8,240308
05/11/2015 00:00,23.9,24.1,23.7,24,23.8,23.9,83,2.378,99502
04/11/2015 00:00,23.9,24.1,23.8,24.1,23.9,24.3,109,1.848,77397
03/11/2015 00:00,24.1,24.5,24,24.2,24.3,23.8,280,4.8,197782
02/11/2015 00:00,24,24.4,23.5,23.5,23.8,23.5,126,1.74,73263
01/11/2015 00:00,23.6,23.9,23.4,23.7,23.5,24,97,3.042,129141
29/10/2015 00:00,24,24.7,23.9,24.3,24,24.1,108,2.901,119967
28/10/2015 00:00,24.5,24.5,23.9,24.2,24.1,24.2,116,2.244,93327
27/10/2015 00:00,24.4,25.2,24,25.2,24.2,25.2,112,2.34,96203
26/10/2015 00:00,24.8,25.5,24.8,25.5,25.2,25.4,138,6.866,273448
25/10/2015 00:00,25.4,25.8,25.2,25.5,25.4,25.4,140,4.417,173088
21/10/2015 00:00,25.5,25.5,24.5,24.9,25.4,24.7,215,9.596,383240
20/10/2015 00:00,24.8,24.8,24.1,24.1,24.7,24.1,179,4.891,199219
19/10/2015 00:00,24.2,24.2,23.5,23.6,24.1,23.6,78,5.287,222890
18/10/2015 00:00,23.4,24.2,23.4,23.9,23.6,24.1,101,2.525,106472
15/10/2015 00:00,24.2,24.8,24,24.7,24.1,24.5,106,1.89,77876
14/10/2015 00:00,24.5,25.4,24.5,25.4,24.5,25,83,1.967,79765
13/10/2015 00:00,25.3,25.3,24.6,25.3,25,25,127,4.641,186777
12/10/2015 00:00,25,25.8,25,25.3,25,25.2,181,4.923,195943
11/10/2015 00:00,25,25.4,25,25.4,25.2,25.5,190,5.439,216180
08/10/2015 00:00,25.6,25.8,25.4,25.7,25.5,25.7,124,5.243,205182
07/10/2015 00:00,25.7,25.8,25.4,25.6,25.7,25.6,109,4.137,161563
06/10/2015 00:00,25.5,26,25.5,25.9,25.6,25.9,201,6.591,256639
05/10/2015 00:00,25.9,26,25.6,25.8,25.9,25.9,145,4.019,155740
04/10/2015 00:00,26,26.3,25.6,26.3,25.9,26.4,132,3.998,153740
01/10/2015 00:00,26.2,26.6,25.8,25.8,26.4,26,211,8.639,328150
30/09/2015 00:00,26.1,26.2,25.7,26.1,26,26.2,100,2.27,87708
29/09/2015 00:00,26.1,26.4,25.6,25.8,26.2,25.8,126,4.97,190816
28/09/2015 00:00,25.7,26,25.7,26,25.8,26.1,96,2.471,95785
22/09/2015 00:00,26,26.1,25.9,26,26.1,26,75,2.354,90569
21/09/2015 00:00,26.2,26.2,25.7,25.9,26,25.9,182,6.001,231496
20/09/2015 00:00,25.8,26.1,25.8,25.9,25.9,26,106,3.75,144627
17/09/2015 00:00,26.1,26.1,25.6,25.7,26,25.7,155,8.056,310880
16/09/2015 00:00,25.9,25.9,25.6,25.9,25.7,25.7,106,2.427,94324
15/09/2015 00:00,25.7,26,25.6,25.9,25.7,25.9,152,3.754,145714
14/09/2015 00:00,25.9,26.4,25.8,26.3,25.9,26.2,146,3.594,138378
13/09/2015 00:00,26.1,26.5,25.7,25.7,26.2,25.8,296,9.871,375393
10/09/2015 00:00,26,26,25.6,26,25.8,25.8,134,5.325,206406
09/09/2015 00:00,25.7,26.2,25.7,26,25.8,26,161,4.178,161588
08/09/2015 00:00,26.1,26.4,25.9,26.4,26,26.3,140,2.32,88830
07/09/2015 00:00,26.3,26.7,26.1,26.7,26.3,26.5,184,4.594,174102
06/09/2015 00:00,26.4,26.8,26.1,26.1,26.5,26,232,6.441,243136
03/09/2015 00:00,25.9,26.2,25.8,25.8,26,25.8,161,5.943,228792
02/09/2015 00:00,25.9,26.4,25.7,26.2,25.8,25.9,218,6.627,255412
01/09/2015 00:00,26,26.5,25.7,26.3,25.9,26.1,128,3.483,134366
31/08/2015 00:00,26,26.4,26,26.2,26.1,26.3,90,2.318,88467
30/08/2015 00:00,26.5,26.7,26.1,26.3,26.3,26.3,133,3.928,149770
27/08/2015 00:00,26.2,26.9,26.2,26.5,26.3,26.7,185,6.504,245568
26/08/2015 00:00,26.7,27.1,26.4,26.8,26.7,26.8,137,7.287,272291
25/08/2015 00:00,26.9,26.9,26.5,26.7,26.8,26.5,235,10.573,395236
24/08/2015 00:00,26.5,26.7,26.3,26.3,26.5,26.4,253,11.007,415123
23/08/2015 00:00,26.6,26.6,26,26.4,26.4,26.2,253,15.309,582857
20/08/2015 00:00,26.4,26.5,25.8,26.2,26.2,26.2,347,24.108,923847
19/08/2015 00:00,26.4,26.9,25.5,26,26.2,26.3,226,8.607,330729
18/08/2015 00:00,26,27.1,25.8,26.7,26.3,26.7,223,8.414,319727
17/08/2015 00:00,26.7,27.5,26.5,27.3,26.7,27.2,248,8.939,330194
16/08/2015 00:00,27.3,27.4,26.6,27,27.2,26.9,394,17.729,653320
13/08/2015 00:00,27,27.1,26,26.1,26.9,26.4,357,15.569,583154
12/08/2015 00:00,26.5,26.9,25.9,26.2,26.4,25.5,307,15.501,590025
11/08/2015 00:00,25.7,26.3,25.4,25.8,25.5,26.2,276,7.618,296502
10/08/2015 00:00,26.2,26.6,26.1,26.5,26.2,26.5,181,4.505,171188
09/08/2015 00:00,26.6,26.8,26.4,26.4,26.5,26.7,219,7.504,282916
06/08/2015 00:00,26.9,27.3,26.4,27.3,26.7,27.3,328,8.773,328419
05/08/2015 00:00,27.6,28.3,26.7,28.1,27.3,27.9,466,17.481,640800
04/08/2015 00:00,27.4,28,26.3,26.4,27.9,26.2,1071,50.312,1843318
03/08/2015 00:00,26.5,26.5,25.6,25.8,26.2,25.7,354,11.833,454517
02/08/2015 00:00,25.9,25.9,25.5,25.7,25.7,25.6,292,9.697,378619
30/07/2015 00:00,25.7,25.7,25.4,25.6,25.6,25.5,306,8.246,322704
29/07/2015 00:00,25.8,26,25.5,26,25.5,25.8,226,5.652,220631
28/07/2015 00:00,25.9,26,25.5,25.7,25.8,25.3,225,6.154,238965
27/07/2015 00:00,25.7,25.8,25.2,25.6,25.3,25.7,315,8.333,327959
26/07/2015 00:00,25.7,25.9,25.5,25.6,25.7,25.8,224,5.835,227533
23/07/2015 00:00,25.7,26.4,25.7,26,25.8,26.1,237,6.469,248404
22/07/2015 00:00,26,26.2,25.5,25.7,26.1,26.3,230,7.512,289509
21/07/2015 00:00,26.2,26.4,25.6,25.6,26.3,25.6,304,11.435,439344
14/07/2015 00:00,25.4,25.9,25.3,25.5,25.6,25.4,141,4.007,157013
13/07/2015 00:00,26,26.2,25.3,26.2,25.4,25.7,201,5.647,221453
12/07/2015 00:00,25.6,26.6,25.5,26.6,25.7,26.1,234,5.266,205194
09/07/2015 00:00,26.3,26.4,25.7,26.1,26.1,26.1,158,3.905,150244
08/07/2015 00:00,26,26.5,25.6,26,26.1,25.9,417,11.062,422837
07/07/2015 00:00,25.9,26,25.2,25.4,25.9,25,198,4.937,192279
06/07/2015 00:00,25.1,25.5,24.9,25.5,25,25.4,304,8.998,358564
05/07/2015 00:00,25.4,26.5,25.3,26.5,25.4,26.2,232,5.439,213002
02/07/2015 00:00,26.4,26.5,25.7,25.9,26.2,25.8,346,9.665,370342
30/06/2015 00:00,25.6,26.7,25.5,26.4,25.8,26,417,13.865,528031
29/06/2015 00:00,26.3,26.3,25.4,26,26,25.8,242,7.39,285335
28/06/2015 00:00,25.9,25.9,25,25,25.8,25.4,198,4.888,190128
25/06/2015 00:00,25.7,25.8,25.1,25.8,25.4,25.4,132,3.138,123732
24/06/2015 00:00,25.2,25.8,25.1,25.1,25.4,25.3,144,2.773,108841
23/06/2015 00:00,25.7,26.2,25,25.7,25.3,25.7,291,9.107,358221
22/06/2015 00:00,25.9,26.8,25.6,26.8,25.7,26.4,231,6.29,241262
21/06/2015 00:00,26.3,27.1,26.1,26.5,26.4,26.5,213,6.703,251608
18/06/2015 00:00,26.8,27.1,26.3,26.7,26.5,26.4,278,11.006,414558
17/06/2015 00:00,26.5,26.6,26,26,26.4,25.7,366,10.406,394601
16/06/2015 00:00,25.8,26.3,25,25.2,25.7,25.7,179,5.488,215051
15/06/2015 00:00,26.1,26.3,24.8,24.8,25.7,24.7,210,5.094,198547
14/06/2015 00:00,25.3,25.8,24.6,25.2,24.7,25.7,346,8.018,319192
11/06/2015 00:00,25.7,26.3,25.5,26.2,25.7,26.2,230,8.04,311775
10/06/2015 00:00,26.1,27.6,25.5,27.5,26.2,26.8,449,11.713,444699
09/06/2015 00:00,26.8,27.7,26.5,27.5,26.8,27.1,313,12.446,460702
08/06/2015 00:00,26.5,28.9,26.5,28.9,27.1,28.8,446,15.021,536682
07/06/2015 00:00,29,31.5,28.5,30.9,28.8,30.5,815,36.234,1205550
04/06/2015 00:00,30.6,30.6,28.7,29.3,30.5,28.9,999,47.813,1596041
02/06/2015 00:00,28.8,30,28.8,30,28.9,29.2,534,27.356,936653
01/06/2015 00:00,29,30.7,28.8,29.4,29.2,29.1,1227,60.369,2015221
31/05/2015 00:00,28.8,29.4,28,28.2,29.1,27.6,1197,47.476,1644664
28/05/2015 00:00,27.8,28.4,26.7,26.7,27.6,26.4,1148,47.843,1726002
27/05/2015 00:00,26.6,27.2,26.1,27.1,26.4,26.9,406,15.82,591171
26/05/2015 00:00,26.9,27.7,26.8,27,26.9,26.6,831,30.102,1104557
25/05/2015 00:00,26.8,26.9,25.9,26,26.6,25.8,503,17.684,670229
24/05/2015 00:00,26.2,26.2,25.5,25.6,25.8,25.6,122,3.363,130755
21/05/2015 00:00,25.5,27.1,25.4,26.7,25.6,26.8,838,24.959,957239
20/05/2015 00:00,26.7,27.3,25.1,27,26.8,26.8,851,32.482,1223573
19/05/2015 00:00,26.8,27.7,26,26,26.8,25.5,747,25.764,954813
18/05/2015 00:00,25.6,26.2,25.3,25.7,25.5,25.4,593,22.081,859658
17/05/2015 00:00,25.4,26.2,25.3,25.8,25.4,25.8,459,17.065,666292
14/05/2015 00:00,26.2,26.5,25.6,26,25.8,26.1,413,13.744,527434
13/05/2015 00:00,26.3,27.8,26,26.5,26.1,25.5,628,24.182,908937
12/05/2015 00:00,25.7,26.8,25.3,26,25.5,26,595,21.823,840701
11/05/2015 00:00,25.6,29,25.6,28.9,26,26.8,404,10.416,384521
10/05/2015 00:00,26.8,26.8,25.3,25.3,26.8,24.4,532,35.901,1349211
07/05/2015 00:00,24.7,25.5,24.2,24.8,24.4,24.8,356,6.737,271850
06/05/2015 00:00,24.6,25.5,24.6,24.8,24.8,24.7,185,2.913,116400
05/05/2015 00:00,24.7,25.4,23.7,24.5,24.7,23.5,359,7.316,300393
04/05/2015 00:00,23.7,24.2,23.1,23.1,23.5,23,217,3.411,143901
30/04/2015 00:00,23,23.8,22.8,23,23,23.2,156,2.015,87126
29/04/2015 00:00,23.7,23.9,23.1,23.5,23.2,23.8,193,4.053,173150
27/04/2015 00:00,23.7,24.5,23.6,24.5,23.8,24.3,158,1.778,74277
26/04/2015 00:00,24.4,24.6,24,24.2,24.3,24.2,178,6.187,254495
23/04/2015 00:00,23.9,25.2,23.9,24.6,24.2,24.6,257,7.888,321525
22/04/2015 00:00,24.3,26,24.2,26,24.6,25.5,354,11.435,454366
21/04/2015 00:00,25.2,26.3,24.5,24.8,25.5,24.3,878,29.615,1162709
20/04/2015 00:00,24.5,25.5,24.1,24.5,24.3,24.3,348,11.397,460938
19/04/2015 00:00,24.1,24.8,24.1,24.5,24.3,24.1,309,9.326,381049
16/04/2015 00:00,24,24.8,24,24.7,24.1,24.3,302,5.282,216688
15/04/2015 00:00,24.6,24.6,23.5,23.5,24.3,23.1,311,8.342,346090
13/04/2015 00:00,23.3,24,23,23.4,23.1,23,245,5.356,229667
12/04/2015 00:00,23.1,23.6,22.9,23.5,23,23.5,186,3.137,135457
09/04/2015 00:00,23.9,24.5,23.4,24,23.5,24.1,244,5.482,230188
08/04/2015 00:00,23.9,24.4,23.6,24,24.1,24.1,153,2.884,120781
07/04/2015 00:00,24,24.3,23.8,24.2,24.1,24.3,155,3.937,163891
06/04/2015 00:00,24.5,25,24.2,24.5,24.3,24.3,158,2.531,104031
05/04/2015 00:00,24.4,25.1,24.1,24.7,24.3,24.7,104,1.588,64807
02/04/2015 00:00,24.6,25.4,24.6,24.9,24.7,24.9,185,6.147,246575
01/04/2015 00:00,24.8,25.9,24.6,25.7,24.9,25.6,272,7.326,290718
31/03/2015 00:00,25.9,26,24.5,24.6,25.6,24.3,457,17.365,690511
30/03/2015 00:00,24.3,24.8,23.8,24,24.3,23.9,197,4.41,181386
29/03/2015 00:00,24.1,24.6,23.8,24.6,23.9,24,164,3.822,157878
25/03/2015 00:00,24.1,24.7,22.9,23.9,24,24,165,4.693,197090
24/03/2015 00:00,23.8,25.2,23.8,25.2,24,24.6,168,3.998,165150
23/03/2015 00:00,24.5,25.7,24.5,25.7,24.6,25.1,196,4.086,163656
22/03/2015 00:00,25.1,25.4,24.4,24.4,25.1,24.3,311,9.305,373382
19/03/2015 00:00,24.7,24.7,23.7,23.7,24.3,23.6,133,2.778,114879
18/03/2015 00:00,23.6,23.8,23.3,23.5,23.6,23.6,159,1.995,84603
16/03/2015 00:00,23.9,24.4,23.1,23.1,23.6,24.2,180,4.314,181842
15/03/2015 00:00,24.2,24.8,24,24.8,24.2,24.7,184,3.169,130258
12/03/2015 00:00,24.6,25.1,24.4,24.4,24.7,25,133,2.292,92476
11/03/2015 00:00,24.9,25.7,24.9,25.5,25,25.1,306,7.087,280163
10/03/2015 00:00,25.2,25.5,24.8,25.3,25.1,24.9,269,7.433,294890
09/03/2015 00:00,24.8,25.3,24.8,24.8,24.9,24.5,271,6.008,239912
08/03/2015 00:00,24.5,25,24.4,24.6,24.5,24.4,154,3.862,157521
05/03/2015 00:00,24.6,25,24.3,24.8,24.4,24.7,201,4.49,183287
04/03/2015 00:00,24.8,25.4,24.6,25.2,24.7,25,289,6.979,279955
03/03/2015 00:00,25,25.3,24.7,24.7,25,25.6,133,3.58,143238
02/03/2015 00:00,25.8,25.9,24.6,25.4,25.6,24.7,316,9.308,368736
01/03/2015 00:00,24.6,26.2,24.6,26.2,24.7,25.8,261,6.646,262766
26/02/2015 00:00,25.5,26.7,25.5,26.3,25.8,26.1,220,5.509,212587
25/02/2015 00:00,26.2,27.1,26,26.8,26.1,26.5,486,15.039,565348
24/02/2015 00:00,26.6,27.4,26.3,26.7,26.5,26.7,339,8.781,327328
23/02/2015 00:00,26.3,27.7,26.2,27.5,26.7,27.2,389,19.029,713417
22/02/2015 00:00,26.6,28.2,26.6,27.9,27.2,27.7,517,21.355,779470
19/02/2015 00:00,28,28.6,27.3,28,27.7,27.5,323,11.255,400120
18/02/2015 00:00,28.3,29.1,27.1,28.7,27.5,28.4,637,24.449,865177
17/02/2015 00:00,28.4,29.4,28,28.3,28.4,28.2,817,35.74,1241298
16/02/2015 00:00,28.4,28.6,27.1,27.1,28.2,27.1,530,23.222,826929
15/02/2015 00:00,26.8,28.1,26.8,27.1,27.1,27.2,515,17.071,622872
12/02/2015 00:00,27,28.3,26.5,26.6,27.2,26.2,695,25.755,938503
11/02/2015 00:00,26.2,26.5,24.7,24.7,26.2,24.4,563,18.597,723347
10/02/2015 00:00,24.5,25,24,24,24.4,24,336,8.785,356694
09/02/2015 00:00,23.8,24.2,23.6,23.6,24,23.9,109,1.719,71686
08/02/2015 00:00,24,24.2,23.8,24,23.9,23.8,77,2.226,92716
05/02/2015 00:00,23.9,24.2,23.2,23.2,23.8,23.9,57,2.62,109578
04/02/2015 00:00,23.7,24.6,23,23,23.9,23.7,156,5.04,208260
03/02/2015 00:00,23.8,24.1,23.2,23.8,23.7,22.9,191,6.331,264772
02/02/2015 00:00,22.7,23.5,22.1,22.1,22.9,23.1,129,2.947,127195
01/02/2015 00:00,23,23.8,23,23.3,23.1,23.6,80,2.257,96600
29/01/2015 00:00,23.3,24.2,23.2,23.2,23.6,23.6,126,4.035,171010
28/01/2015 00:00,23.8,24.3,22.6,23.3,23.6,24.1,173,3.518,150347
27/01/2015 00:00,24.2,24.5,23.2,23.9,24.1,23.7,224,6.254,261899
26/01/2015 00:00,23.9,23.9,22.4,22.4,23.7,23.5,184,11.807,503630
25/01/2015 00:00,23.7,24,23.1,23.3,23.5,23.7,89,2.507,106075
22/01/2015 00:00,24.2,24.8,23.3,23.7,23.7,24.1,227,8.287,345071
21/01/2015 00:00,24,24.3,23.2,23.8,24.1,24,210,5.21,217141
20/01/2015 00:00,23.8,24.9,22.8,24.5,24,24.1,203,6.811,285183
19/01/2015 00:00,24.1,25,24.1,24.5,24.1,24.7,167,3.486,143113
18/01/2015 00:00,25,25.5,24.4,25.1,24.7,25.5,179,4.876,196389
15/01/2015 00:00,25.5,26.8,25.3,26.8,25.5,25.9,238,7.792,304209
14/01/2015 00:00,25.8,26.5,25.5,26.5,25.9,26.5,353,21.745,831675
13/01/2015 00:00,26.5,26.8,25.7,26.6,26.5,26.5,437,16.791,640351
12/01/2015 00:00,26.8,26.8,24.9,25.2,26.5,25,716,37.829,1466316
11/01/2015 00:00,25.2,25.2,23.8,24,25,24,690,34.726,1413585
08/01/2015 00:00,24,24.3,23.9,24,24,24,119,4.887,203258
07/01/2015 00:00,24,24.3,23.9,24,24,24.5,67,3.934,163779
06/01/2015 00:00,24.5,24.5,23.7,24,24.5,23.6,67,2.367,97274
05/01/2015 00:00,24.1,24.1,23.5,23.6,23.6,24,53,1.723,72647
01/01/2015 00:00,24,24.5,23.8,24,24,24,108,2.38,98456
30/12/2014 00:00,24,24.4,23.4,24,24,24,86,2.823,118480
29/12/2014 00:00,24.1,24.1,23,23.9,24,24.1,68,1.925,80351
28/12/2014 00:00,24,24.7,22.3,24.7,24.1,24.3,44,0.976,41323
24/12/2014 00:00,24.2,24.7,24,24,24.3,24.3,76,0.83,34172
23/12/2014 00:00,24.1,24.9,23.6,24.9,24.3,24.2,107,5.266,217796
22/12/2014 00:00,24,25,23.6,25,24.2,24.8,135,2.526,103202
21/12/2014 00:00,25.1,26.2,22.8,22.8,24.8,24.6,190,4.407,177855
18/12/2014 00:00,24.8,25.5,24.5,25.2,24.6,25.3,108,1.419,56661
17/12/2014 00:00,25.3,25.5,24,24,25.3,24.1,237,6.22,247659
15/12/2014 00:00,24.1,24.9,23.2,23.2,24.1,23.8,113,1.498,61697
14/12/2014 00:00,22.9,24.5,22.9,24,23.8,24.1,161,2.02,84081
11/12/2014 00:00,24.2,24.2,23,23,24.1,23.8,76,0.741,31026
10/12/2014 00:00,23.7,24.4,23.7,24.2,23.8,23.7,55,1.8239,76000
09/12/2014 00:00,23.6,24,23.4,23.4,23.7,23.3,59,1.8742,78500
08/12/2014 00:00,23.5,23.9,23.2,23.2,23.3,23.2,22,0.9805,42000
07/12/2014 00:00,23.1,24.7,23,24.7,23.2,23.3,46,3.4934,150500
04/12/2014 00:00,23.3,24,23.2,23.7,23.3,23.7,55,1.5957,67500
03/12/2014 00:00,23.6,24.5,23.1,23.1,23.7,24,63,2.4743,103500
02/12/2014 00:00,24.1,24.7,23.7,23.8,24,23.9,124,4.9586,205000
01/12/2014 00:00,24,24.5,23.2,23.5,23.9,23,114,4.0723,170000
30/11/2014 00:00,23.1,23.5,22.4,22.4,23,21.9,126,5.0954,221000
27/11/2014 00:00,21.9,22,21.7,21.7,21.9,22,32,1.216,55500
26/11/2014 00:00,21.9,23.8,21.9,22.9,22,22,50,1.1864,52500
25/11/2014 00:00,22.2,23.3,21.5,23.3,22,21.6,51,1.4442,66000
24/11/2014 00:00,21.7,22.3,20.7,20.7,21.6,22.2,53,1.8939,88000
23/11/2014 00:00,21.9,23.5,21.5,23.5,22.2,22.8,66,3.0811,137000
20/11/2014 00:00,23.5,23.6,22.6,23.6,22.8,23.6,73,2.3093,100000
19/11/2014 00:00,23.5,24,23.3,23.3,23.6,23.3,64,1.3967,59000
18/11/2014 00:00,24,24.9,23.2,23.2,23.3,28.5,115,2.9645,125500
16/11/2014 00:00,28.5,29.1,28,28,28.5,28.5,311,14.8618,519000
13/11/2014 00:00,28.5,29.4,27.8,27.8,28.5,27.4,299,15.2164,532500
12/11/2014 00:00,27,27.9,27,27.1,27.4,27.5,164,5.7416,209000
11/11/2014 00:00,27.8,28.5,27.1,27.9,27.5,26.9,201,7.2759,261500
10/11/2014 00:00,27.1,27.8,26.6,26.8,26.9,26.5,237,8.1269,297500
09/11/2014 00:00,26.5,26.9,25.8,25.8,26.5,26,154,4.4837,169000
06/11/2014 00:00,26,26.6,25.9,26.1,26,26,60,2.295,88000
05/11/2014 00:00,26.7,26.8,25.9,26.5,26,26.5,90,5.6303,215000
03/11/2014 00:00,26.8,27.3,26.1,26.1,26.5,26.7,89,4.2554,159500
02/11/2014 00:00,26.3,28,25.5,25.5,26.7,27.6,77,2.8148,105500
30/10/2014 00:00,27.5,28.9,27,27.7,27.6,27.1,295,10.0192,358500
29/10/2014 00:00,27.3,27.4,25.4,25.4,27.1,25.4,244,11.4661,425500
28/10/2014 00:00,25.7,27,24.9,24.9,25.4,24.9,56,1.7152,66500
27/10/2014 00:00,24.9,25.3,24.9,24.9,24.9,25.2,24,0.637,25500
26/10/2014 00:00,25.3,25.7,24.9,24.9,25.2,25.1,36,0.744,29500
23/10/2014 00:00,25,25.3,25,25.1,25.1,25.3,48,1.3699,54500
22/10/2014 00:00,25.1,26.2,25.1,26.2,25.3,25.8,65,2.2015,86500
21/10/2014 00:00,26,26.4,25.6,26.4,25.8,25.6,57,1.7691,68500
20/10/2014 00:00,25.8,27,25.5,25.8,25.6,25.4,65,2.3064,89000
19/10/2014 00:00,25.4,25.9,25.4,25.8,25.4,25.7,76,3.3073,129000
16/10/2014 00:00,25.9,26.8,25.5,26.8,25.7,26.5,148,4.0434,155500
15/10/2014 00:00,26.6,27.1,26.1,26.1,26.5,26.1,232,7.5643,283500
14/10/2014 00:00,26.3,26.7,25.9,26.2,26.1,25.8,172,4.66,177000
13/10/2014 00:00,26,26.4,25,25,25.8,24.8,197,6.2566,243000
12/10/2014 00:00,24.8,25.5,24.6,25.5,24.8,25.2,151,5.7858,231000
02/10/2014 00:00,25.2,25.4,25,25,25.2,25,66,1.7772,70500
01/10/2014 00:00,25.3,25.5,25,25.4,25,24.9,40,1.0832,43000
30/09/2014 00:00,24.9,25.3,24.7,25,24.9,24.8,59,3.1929,128000
29/09/2014 00:00,25,25,24.6,24.6,24.8,24.8,90,2.667,107500
28/09/2014 00:00,24.9,25.2,24.5,24.5,24.8,24.9,61,2.3,93000
25/09/2014 00:00,25.1,25.7,24.7,25.7,24.9,24.7,72,1.8169,73000
24/09/2014 00:00,25,25.2,24.7,25,24.7,25,77,2.0021,80500
23/09/2014 00:00,25.1,25.4,24.8,25.2,25,25.2,109,4.5903,183500
22/09/2014 00:00,25,25.9,25,25.7,25.2,25.7,87,2.4056,94000
21/09/2014 00:00,25.6,25.9,24.8,24.9,25.7,24.7,181,4.9996,196000
18/09/2014 00:00,24.7,25.3,24.7,25,24.7,25,116,3.0417,122000
17/09/2014 00:00,25.2,26.2,25,25.4,25,25.5,181,9.192,363000
16/09/2014 00:00,25.4,26.4,25.1,25.6,25.5,25.9,146,5.3942,209500
15/09/2014 00:00,26,26,25.8,25.9,25.9,26.2,51,1.6323,63000
14/09/2014 00:00,25.9,27.1,25.7,25.7,26.2,25.5,192,7.0709,265500
11/09/2014 00:00,25.4,26.4,25.4,26.4,25.5,26.5,107,3.0253,117500
10/09/2014 00:00,26.8,27.1,25,25,26.5,24.9,171,6.4324,241500
09/09/2014 00:00,24.8,26,24.8,25.4,24.9,25,69,1.6489,65500
08/09/2014 00:00,25,25.8,25,25.8,25,25.8,85,3.0368,120000
07/09/2014 00:00,25.6,27.5,25.6,27.5,25.8,26.9,109,4.0408,152500
04/09/2014 00:00,27.3,27.3,25.9,27.1,26.9,26.9,152,5.895,221500
03/09/2014 00:00,27.2,28.5,26.8,27.6,26.9,27.4,214,8.0748,292000
02/09/2014 00:00,27.6,28,26.7,26.7,27.4,26.1,213,6.37,231000
01/09/2014 00:00,26,26.7,25.2,25.2,26.1,24.5,294,10.2423,392500
31/08/2014 00:00,24.3,25.5,24.3,25.4,24.5,25.8,64,1.8805,75500
28/08/2014 00:00,25.8,26.9,25.5,26.6,25.8,26,239,7.9686,303000
27/08/2014 00:00,26,27.1,25.8,25.9,0,26.2,154,4.9184,187500
26/08/2014 00:00,26,27.4,25.7,26,26.2,25.6,154,4.8977,184000
25/08/2014 00:00,25.5,26.9,25.4,26.5,25.6,26.4,113,2.8647,110000
24/08/2014 00:00,26.5,26.5,24.4,24.8,26.4,24.7,294,10.4156,405500
21/08/2014 00:00,24.2,25,24.1,24.6,24.7,24.1,72,2.7327,111000
20/08/2014 00:00,24.1,24.8,23.9,23.9,24.1,23.9,68,2.7557,112500
19/08/2014 00:00,24,24.5,23.9,24.5,23.9,24.5,84,2.9873,124500
18/08/2014 00:00,24.5,25.2,24.5,24.7,24.5,24.7,55,3.221,130500
14/08/2014 00:00,24.8,24.9,24.2,24.2,24.7,24.2,57,2.5229,102000
13/08/2014 00:00,24.2,24.5,23.1,23.1,24.2,24.1,46,1.4109,58500
12/08/2014 00:00,24,24.8,23.3,23.3,24.1,24.2,55,1.8358,75500
11/08/2014 00:00,24,25,23.9,24.1,24.2,24.3,108,6.4006,264000
10/08/2014 00:00,24.6,25.5,24.1,24.1,24.3,24.1,139,6.2035,250000
07/08/2014 00:00,23.9,24.5,23.6,23.6,24.1,23.6,189,5.3596,223000
06/08/2014 00:00,23.9,24,23.5,24,23.6,23.9,81,1.7271,72500
05/08/2014 00:00,23.8,24.9,23.7,24,23.9,23.6,120,4.3035,177500
04/08/2014 00:00,23.7,24,22.5,22.5,23.6,22.1,95,2.1571,93500
03/08/2014 00:00,22,22.6,22,22.5,22.1,22.5,59,1.7894,80500
24/07/2014 00:00,22.7,22.7,22.4,22.6,22.5,22.6,11,0.192,8500
23/07/2014 00:00,22.6,22.7,22.5,22.5,22.6,22.4,27,0.8136,36000
22/07/2014 00:00,22.5,22.5,22.3,22.3,22.4,22.3,12,0.3362,15000
21/07/2014 00:00,22.3,22.4,22,22,22.3,22.3,30,0.799,36000
20/07/2014 00:00,22.3,22.5,22,22.3,22.3,22.3,30,0.5347,24000
17/07/2014 00:00,22.4,22.6,22.2,22.5,22.3,22.6,41,1.2076,54000
16/07/2014 00:00,22.6,22.9,22.6,22.9,22.6,22.8,17,0.8032,35500
15/07/2014 00:00,23,23,22.7,22.7,22.8,22.6,40,0.6276,27500
14/07/2014 00:00,22.6,22.8,22.5,22.5,22.6,22.4,19,0.4644,20500
13/07/2014 00:00,22.5,22.5,22.4,22.4,22.4,22.7,8,0.2924,13000
10/07/2014 00:00,22.5,23,22.5,22.8,22.7,22.7,33,1.4118,62000
09/07/2014 00:00,22.7,23,22.5,22.7,22.7,22.5,38,1.5586,68500
08/07/2014 00:00,22.5,22.8,22.1,22.1,22.5,22.5,14,0.3493,15500
07/07/2014 00:00,22.3,23.3,22.3,23,22.5,22.8,52,1.8086,79500
06/07/2014 00:00,22.6,23.3,22.6,22.6,22.8,22.3,29,0.6044,26500
03/07/2014 00:00,22.3,22.8,22.2,22.5,22.3,22.7,57,1.7928,79500
02/07/2014 00:00,22.2,23.1,22.2,23,22.7,23,32,1.2903,56500
30/06/2014 00:00,22.9,23.5,22.7,23,23,23,73,2.4276,105000
29/06/2014 00:00,23,23.3,22.4,22.5,23,22,88,2.443,106500
26/06/2014 00:00,21.9,22.5,21.9,22.3,22,22.2,51,2.2845,103000
25/06/2014 00:00,21.8,22.5,21,21,22.2,21.9,28,0.7122,32000
24/06/2014 00:00,21.9,22.2,21.9,22.1,21.9,22,54,1.9724,89500
23/06/2014 00:00,21.9,22.4,21.9,22.1,22,22.4,14,0.5187,23500
22/06/2014 00:00,22.3,22.5,22.3,22.3,22.4,22.5,12,0.9188,41000
19/06/2014 00:00,22.5,22.6,22.1,22.6,22.5,22.5,50,1.0001,44500
18/06/2014 00:00,22.5,22.7,22.5,22.7,22.5,22.5,24,1.2082,53500
17/06/2014 00:00,22.8,22.8,22.1,22.1,22.5,22.4,44,1.2367,55500
16/06/2014 00:00,22.4,22.9,22.2,22.9,22.4,22.8,36,1.1435,51000
15/06/2014 00:00,22.7,23.2,22.6,23.1,22.8,23.4,26,0.6053,26500
12/06/2014 00:00,23.3,23.9,23.3,23.5,23.4,23,128,3.613,153000
11/06/2014 00:00,23.3,23.7,22.7,23.5,23,23.1,73,3.4342,148500
10/06/2014 00:00,23.2,23.3,22.7,23,23.1,23,98,3.2585,141500
09/06/2014 00:00,22.7,23.1,21.5,21.5,23,21,105,4.6827,205000
08/06/2014 00:00,21.2,21.7,21,21.1,21,21.6,33,1.038,49000
05/06/2014 00:00,21.6,22,20.4,20.4,21.6,22,28,0.7189,33000
04/06/2014 00:00,21.9,22.2,21.9,22.2,22,22.2,51,1.2568,57000
03/06/2014 00:00,22.2,22.6,22.1,22.2,22.2,22.4,50,1.8346,82500
02/06/2014 00:00,22.3,22.8,22.3,22.8,22.4,22.3,18,0.281,12500
01/06/2014 00:00,22.6,22.9,22.2,22.9,22.3,22.9,82,2.6049,115500
29/05/2014 00:00,22.9,23,22.8,23,22.9,22.8,17,0.2408,10500
28/05/2014 00:00,22.7,23.3,22.7,23.1,22.8,23.2,27,0.6756,29500
27/05/2014 00:00,23.1,23.5,23,23,23.2,22.9,47,1.0346,44500
26/05/2014 00:00,23.1,23.1,22.5,22.6,22.9,22.5,69,2.567,113000
25/05/2014 00:00,22.5,22.7,22.5,22.7,22.5,22.4,47,1.3111,58000
22/05/2014 00:00,22.4,22.9,22.4,22.7,22.4,22.5,61,2.2237,98500
21/05/2014 00:00,22.6,22.9,22.5,22.6,22.5,22.6,73,1.9316,85000
20/05/2014 00:00,22.3,23.4,22.3,23.4,22.6,22.4,19,0.3288,14500
19/05/2014 00:00,22.1,23.2,22.1,23,22.4,22.6,66,1.4856,65500
18/05/2014 00:00,22.5,23.6,22.5,23.6,22.6,22.6,37,1.8394,81000
15/05/2014 00:00,22.7,23.2,22.5,23,22.6,22.8,72,1.7711,78000
14/05/2014 00:00,22.9,23.5,22.7,23.3,22.8,23.3,94,4.6825,201500
12/05/2014 00:00,23.3,24.4,23,24,23.3,23.4,76,2.7586,117500
11/05/2014 00:00,23.6,23.9,22.5,23.7,23.4,23.3,91,2.3497,101500
08/05/2014 00:00,23.5,23.6,23.2,23.3,23.3,23.5,36,1.0481,45000
07/05/2014 00:00,23.3,24.3,23.3,24.2,23.5,23.5,47,0.9458,40000
06/05/2014 00:00,23.5,24.3,23.2,23.3,23.5,23,101,3.2265,137000
05/05/2014 00:00,23.4,23.7,22.9,23.4,23,23.5,46,1.3859,60000
04/05/2014 00:00,23.4,24.5,23.4,24,23.5,24.1,105,2.484,104000
04/05/2014 00:00,23.4,24.5,23.4,24,23.5,24.1,105,2.484,104000
30/04/2014 00:00,24.7,25.9,23.5,25.8,24.1,26.1,159,5.4093,225000
29/04/2014 00:00,26.4,26.4,25.9,26.2,26.1,26.5,39,1.0317,39500
28/04/2014 00:00,26.4,26.9,26.4,26.8,26.5,27,23,1.1435,43000
27/04/2014 00:00,27,27.6,27,27.6,27,27.6,40,1.5751,58000
24/04/2014 00:00,27.8,27.8,27.1,27.4,27.6,27,66,2.0989,76500
23/04/2014 00:00,27.1,27.5,27,27.5,27,27.3,60,2.2229,82000
22/04/2014 00:00,27.2,28,27,27.8,27.3,27.7,108,3.6079,132000
21/04/2014 00:00,27.8,28.8,27.5,28.8,27.7,28.3,55,1.5652,56000
20/04/2014 00:00,27.9,28.7,27.1,27.6,28.3,27.1,159,4.5533,163000
17/04/2014 00:00,27.1,27.6,25.7,25.7,27.1,25.8,58,1.2466,46500
16/04/2014 00:00,25.7,26.4,25.7,25.7,25.8,25.9,36,1.1139,43000
15/04/2014 00:00,26,26.5,25.8,26.5,25.9,26.9,110,3.4439,132000
13/04/2014 00:00,26.8,29.5,26.8,29.5,26.9,27,27,0.5056,18500
10/04/2014 00:00,27,27.1,26.9,27,27,27.2,25,0.567,21000
09/04/2014 00:00,27.4,27.7,26.6,27.7,27.2,26.4,120,3.9211,144000
08/04/2014 00:00,26.7,27.6,26,27.6,26.4,27.6,104,2.9227,109500
07/04/2014 00:00,27.7,28.9,27.6,28.6,27.6,28.7,121,3.6601,131500
06/04/2014 00:00,28.5,29.8,28.5,29,28.7,29.1,69,2.3475,81000
03/04/2014 00:00,29.3,30.1,29,30.1,29.1,29.9,83,3.6913,125500
02/04/2014 00:00,29.6,30.5,29.6,29.7,29.9,29.5,141,4.3891,146500
01/04/2014 00:00,29.6,30,29.1,29.7,29.5,29.8,70,3.1181,105000
31/03/2014 00:00,30,30.2,29.5,29.9,29.8,30.2,88,2.7836,93000
30/03/2014 00:00,30,31,29.4,29.5,30.2,29.7,74,1.9467,64500
27/03/2014 00:00,29.2,31,29.2,30.2,29.7,31,102,5.4089,180000
25/03/2014 00:00,31,31.4,31,31.4,31,31.1,42,3.6739,118000
24/03/2014 00:00,30.8,31.5,30.8,31.3,31.1,31.6,63,1.8202,58500
23/03/2014 00:00,31.5,31.9,31.5,31.6,31.6,31.6,79,4.1016,129500
20/03/2014 00:00,31.5,32,31.5,32,31.6,31.6,40,1.6626,52500
19/03/2014 00:00,32,32,31.2,31.3,31.6,31.7,86,3.0866,98000
18/03/2014 00:00,31.5,32.2,31.4,32,31.7,31.7,126,4.9867,157000
16/03/2014 00:00,31.6,32.1,31.6,32,31.7,31.8,127,5.6443,177500
13/03/2014 00:00,32,32.1,31.5,31.5,31.8,31.6,252,8.7917,276500
12/03/2014 00:00,31.6,32.6,31.5,31.6,31.6,31.6,149,6.1531,194000
11/03/2014 00:00,31.7,31.9,31.4,31.4,31.6,31.6,119,5.9938,189000
10/03/2014 00:00,31.6,32.3,31.4,31.4,31.6,31.9,191,8.1992,258500
09/03/2014 00:00,32.1,32.6,31.6,31.9,31.9,32.2,120,4.4074,138000
06/03/2014 00:00,32.3,33.3,32,32.8,32.2,33.3,151,13.9672,434500
05/03/2014 00:00,33.5,33.8,32.8,33.5,33.3,32.9,284,12.3204,371000
04/03/2014 00:00,33.2,33.3,31,31,32.9,31.1,221,9.3594,289000
03/03/2014 00:00,31.3,32.7,31,32.7,31.1,31.4,378,14.4082,459500
02/03/2014 00:00,31.5,32.1,31.4,32,31.4,31.9,82,2.4388,77000
27/02/2014 00:00,32.6,33.1,31.6,32.1,31.9,32.3,197,7.4111,231000
26/02/2014 00:00,32.4,32.8,32.2,32.5,32.3,32.5,75,4.2265,130000
25/02/2014 00:00,32.7,33.3,32.5,32.5,32.5,32.6,177,6.1557,187000
24/02/2014 00:00,33,33.4,32.5,33.4,32.6,33.2,132,6.7289,205500
23/02/2014 00:00,33,35.5,32.7,35.5,33.2,34.6,189,6.8717,202000
20/02/2014 00:00,34.6,35.2,34.3,35.2,34.6,34.2,418,19.577,562000
19/02/2014 00:00,34.6,34.8,32.4,32.9,34.2,32.2,369,18.5533,551500
18/02/2014 00:00,32.8,33.3,31.9,32.4,32.2,32.8,117,5.5383,171500
17/02/2014 00:00,32.5,33.8,32.5,33,32.8,33.3,44,1.951,59000
16/02/2014 00:00,33.9,34,32.6,34,33.3,33.6,117,4.1572,125000
13/02/2014 00:00,33.5,34,33.2,33.3,33.6,33.3,98,5.4161,161000
12/02/2014 00:00,33.8,35,33,33.5,33.3,33,165,10.7595,319000
11/02/2014 00:00,32.5,33.7,32.2,33.6,33,33.8,167,9.5635,286500
10/02/2014 00:00,33.4,35.5,33.3,35.5,33.8,34.7,417,24.5255,713000
09/02/2014 00:00,35,35.7,33.6,35.4,34.7,34.9,560,32.0568,923500
06/02/2014 00:00,34.5,35.8,34.1,34.5,34.9,34.1,502,43.2163,1243000
05/02/2014 00:00,33.9,35.5,33.7,34.9,34.1,34.6,565,44.0175,1268500
04/02/2014 00:00,34.7,35.4,33.9,34.7,34.6,34.3,747,68.4956,1982000
03/02/2014 00:00,34.7,34.8,32.2,32.5,34.3,32.3,1195,101.1597,3009500
02/02/2014 00:00,32.3,32.6,30.9,30.9,32.3,30.9,900,51.153,1600500
30/01/2014 00:00,31,31.4,30.1,30.9,30.9,30.9,775,46.2471,1510000
29/01/2014 00:00,31.2,31.3,30.1,30.1,30.9,30.1,622,31.6215,1020000
28/01/2014 00:00,30.3,30.3,28.9,29.2,30.1,29.1,554,33.2306,1130000
27/01/2014 00:00,29,29.5,29,29.3,29.1,29.2,355,16.3014,560000
26/01/2014 00:00,29.2,30.1,29.1,29.9,29.2,29.3,372,14.7227,495500
23/01/2014 00:00,29.3,29.8,28.9,29.8,29.3,29.3,196,7.981,272500
22/01/2014 00:00,29.5,29.7,28.8,29.5,29.3,29.8,332,16.9054,580500
21/01/2014 00:00,29.4,30,28.9,29.8,29.8,29.6,281,12.4003,420500
20/01/2014 00:00,29.9,30,29,29,29.6,28.4,389,15.5494,524000
19/01/2014 00:00,28.1,29.1,28.1,28.9,28.4,29,198,9.8643,344000
16/01/2014 00:00,29.1,29.7,28.9,29.7,29,29.4,170,6.5148,223500
15/01/2014 00:00,29.2,30.2,29.1,29.8,29.4,29.1,213,8.7984,296000
13/01/2014 00:00,29.5,29.6,28.7,29.5,29.1,28.9,163,7.375,253500
12/01/2014 00:00,28.8,30,28.8,30,28.9,29.4,202,10.7756,370500
09/01/2014 00:00,29.3,30.4,29.3,30.4,29.4,30.1,108,4.0833,138000
08/01/2014 00:00,30,30.4,29,29,30.1,28.9,214,5.4455,181500
07/01/2014 00:00,29.3,29.5,28.4,28.4,28.9,28.9,180,5.9296,205500
06/01/2014 00:00,28.9,29.4,28.9,29.3,28.9,29.3,54,1.5065,52000
02/01/2014 00:00,29.2,30.7,29,30.7,29.3,30.3,206,8.7423,296500
01/01/2014 00:00,30.8,30.9,29.9,30.5,30.3,30.4,166,8.0861,266000
30/12/2013 00:00,30.8,31.3,30,31.2,30.4,30.7,292,14.1093,464500
29/12/2013 00:00,30.9,31.3,30.1,31,30.7,30.9,136,4.2127,137000
26/12/2013 00:00,30.6,31.7,30.1,31.5,30.9,31.4,292,14.284,462000
24/12/2013 00:00,31.5,32.7,31.2,32.7,31.4,32.3,294,11.0175,347000
23/12/2013 00:00,32.8,33.6,31.5,33,32.3,32.8,403,17.6909,541500
22/12/2013 00:00,33,33,31.2,32.3,32.8,31.7,591,41.6824,1303500
19/12/2013 00:00,31.5,32.2,29.8,30.5,31.7,31.4,405,16.7623,543000
18/12/2013 00:00,31.6,33,30.9,32,31.4,32.4,432,17.4265,546500
17/12/2013 00:00,32.6,33.1,30.9,30.9,32.4,30.1,771,47.4721,1454500
15/12/2013 00:00,30.2,30.4,28.6,28.8,30.1,28.1,607,26.3095,882000
12/12/2013 00:00,28.1,30,27.8,30,28.1,29.5,249,9.0184,311500
11/12/2013 00:00,29.4,30,28.1,28.2,29.5,27.6,603,29.448,1004500
10/12/2013 00:00,28,28.1,26.9,27.1,27.6,26.6,383,15.803,572500
09/12/2013 00:00,26.8,27.3,26.1,26.3,26.6,26.2,237,11.7021,435000
08/12/2013 00:00,26.1,26.4,25.8,26.2,26.2,25.9,146,6.3685,243500
05/12/2013 00:00,26,26.6,25.6,25.6,25.9,26.2,84,3.1376,120500
04/12/2013 00:00,26.3,26.5,25.6,26.1,26.2,26,64,2.0058,77000
03/12/2013 00:00,26.1,26.2,25.5,25.6,26,25.4,104,4.4284,171000
02/12/2013 00:00,25.3,26,25.3,25.7,25.4,25.6,94,2.4364,95000
01/12/2013 00:00,26,26.2,25.3,26,25.6,26,113,3.4176,132500
28/11/2013 00:00,26.3,26.3,25.1,25.9,26,25.5,183,7.258,281500
27/11/2013 00:00,25.8,26,25.2,26,25.5,25.7,112,3.8611,150500
26/11/2013 00:00,26.3,27,25.5,26.5,25.7,26.5,224,7.1193,269500
25/11/2013 00:00,26.5,26.9,25.8,26.6,26.5,26,271,9.9988,377500
24/11/2013 00:00,26.6,27.1,25.7,27.1,26,26.7,206,10.5083,399500
21/11/2013 00:00,26.7,27.7,26.4,27.4,26.7,27.4,334,14.5837,535000
20/11/2013 00:00,27.3,28.2,27.1,28,27.4,27.8,302,17.5231,630000
19/11/2013 00:00,27.9,28.2,27.3,27.4,27.8,27.4,359,16.3607,589000
18/11/2013 00:00,27.8,27.9,26.8,27.6,27.4,28,473,32.5103,1188000
14/11/2013 00:00,27.8,29,27.8,28,28,28,412,17.8609,628500
13/11/2013 00:00,28,28.2,27.3,27.5,28,27.7,203,9.4619,340500
12/11/2013 00:00,27.9,28.1,27,27.5,27.7,27.9,184,5.9433,214000
11/11/2013 00:00,28.2,28.5,27.4,27.4,27.9,27.7,257,15.7139,559500
10/11/2013 00:00,27.8,28.9,27.2,27.7,27.7,27.3,226,11.4722,412500
07/11/2013 00:00,27.5,28.1,26.8,28.1,27.3,27.1,364,16.8806,620500
06/11/2013 00:00,27,28.1,27,28,27.1,27.8,202,9.6533,350500
05/11/2013 00:00,27.7,28.5,27.4,28.5,27.8,27.4,266,13.4498,479000
04/11/2013 00:00,27.4,28,26.7,26.9,27.4,26,371,14.8699,542500
03/11/2013 00:00,26,26,24.1,24.1,26,23.7,284,11.0037,432500
31/10/2013 00:00,24.1,24.4,23.3,23.5,23.7,23.8,136,4.5249,190000
30/10/2013 00:00,23.5,24.6,23.5,24.5,23.8,24.6,126,3.4933,145500
29/10/2013 00:00,24.8,25.2,24.1,24.5,24.6,25.2,127,5.2238,212500
28/10/2013 00:00,25.5,26.3,24,24.1,25.2,24.1,248,8.5738,336500
27/10/2013 00:00,24.4,26.6,23.6,26.6,24.1,25.6,206,6.9494,282500
24/10/2013 00:00,25.9,26.7,25.1,26,25.6,26.7,131,3.656,142500
23/10/2013 00:00,27,27.4,26.5,27.3,26.7,27.3,173,8.2122,306000
22/10/2013 00:00,27.5,27.8,26.6,26.6,27.3,26.2,258,10.0261,369500
21/10/2013 00:00,26.5,26.5,24,24.4,26.2,25.2,120,3.609,142000
20/10/2013 00:00,25.1,26,25,26,25.2,27.1,98,2.8785,113500
10/10/2013 00:00,27,27.9,26.7,27.2,27.1,26.2,286,8.2294,302500
09/10/2013 00:00,26.7,28,25.9,28,26.2,26.9,156,4.6884,175000
08/10/2013 00:00,27,27.6,25.8,27,26.9,26,346,13.238,499500
07/10/2013 00:00,26,27.1,25.8,27.1,26,26.4,141,6.0678,231000
06/10/2013 00:00,26.1,27.3,25.9,27.3,26.4,27.6,137,4.6389,175500
03/10/2013 00:00,27.4,28.6,27.3,28.6,27.6,27.8,233,8.4623,306000
02/10/2013 00:00,27.8,29.1,27.2,27.8,27.8,27.3,425,15.5706,549500
01/10/2013 00:00,26.9,28,26.8,27.7,27.3,27.1,309,10.6211,385500
30/09/2013 00:00,27.1,28.4,27,28.3,27.1,28.1,380,16.2296,590000
29/09/2013 00:00,28.1,29.8,27.9,28.8,28.1,29.1,679,27.2029,951000
26/09/2013 00:00,29.1,29.9,27.7,28.4,29.1,28.3,992,42.4531,1460500
25/09/2013 00:00,28.6,29.3,27.7,28.5,28.3,29.1,746,28.1687,990500
24/09/2013 00:00,28.8,30.3,27.9,29.8,29.1,29.4,742,39.5731,1363500
23/09/2013 00:00,29.6,29.8,27,27,29.4,27.1,1029,49.3984,1738000
22/09/2013 00:00,27.5,28.3,26.8,27,27.1,26.6,726,29.4325,1072500
19/09/2013 00:00,26.9,26.9,25.5,25.5,26.6,25.7,745,36.3393,1380000
18/09/2013 00:00,25.7,26.9,25.5,26.5,25.7,26.5,835,36.6607,1400500
17/09/2013 00:00,26.6,26.7,24.7,24.8,26.5,24.4,1077,49.1423,1876000
16/09/2013 00:00,24.6,25.3,24.2,24.9,24.4,24.7,304,10.4459,425000
15/09/2013 00:00,24.7,24.8,23.6,23.8,24.7,22.6,583,28.7475,1167500
12/09/2013 00:00,23.4,23.4,22.4,22.6,22.6,22.6,200,5.7905,256000
11/09/2013 00:00,22.5,23.4,22.4,23.2,22.6,23.2,162,4.8066,210500
10/09/2013 00:00,23.2,24,23.1,23.4,23.2,23.4,230,7.785,330500
09/09/2013 00:00,23.5,23.7,22.5,23.3,23.4,22.8,141,4.3908,190500
08/09/2013 00:00,22.9,23.7,22.7,23.7,22.8,23.1,72,1.4845,64500
05/09/2013 00:00,23,23.9,22.9,23.8,23.1,23.3,165,5.057,217000
04/09/2013 00:00,23.4,24.4,23.1,24,23.3,23.7,296,9.8474,413000
03/09/2013 00:00,23.7,24.3,23.6,23.8,23.7,23.8,223,6.5832,275500
02/09/2013 00:00,23.6,25.2,23.6,24.5,23.8,24.5,330,11.9931,488000
01/09/2013 00:00,24.7,24.8,22.8,23.1,24.5,22.8,627,24.0522,992500
29/08/2013 00:00,22.9,23.1,22.6,22.8,22.8,23,243,5.7754,252500
27/08/2013 00:00,23.1,23.4,22.4,22.8,23,22.8,322,8.8005,380500
26/08/2013 00:00,23.2,23.2,21.7,21.7,22.8,21.4,424,11.9057,526000
25/08/2013 00:00,21.1,22.4,21.1,22.2,21.4,21.3,137,3.4465,158500
22/08/2013 00:00,21.4,21.7,21,21,21.3,20.8,124,2.9977,140500
21/08/2013 00:00,20.7,21.8,20.7,21.3,20.8,21.3,134,3.1306,148500
20/08/2013 00:00,21.4,21.9,21.1,21.1,21.3,21.3,101,2.2162,102500
19/08/2013 00:00,21.2,21.8,21.1,21.5,21.3,21.7,121,2.5679,119500
18/08/2013 00:00,21.6,21.9,21.1,21.5,21.7,20.9,80,2.0749,96500
14/08/2013 00:00,21,21.4,20.3,20.3,20.9,20.6,71,1.4531,70000
13/08/2013 00:00,20.8,20.9,20.3,20.3,20.6,20.4,49,0.795,38500
12/08/2013 00:00,20.3,20.6,20.1,20.1,20.4,19.9,38,0.834,41000
05/08/2013 00:00,20.1,20.1,19.9,20,19.9,19.8,26,0.9182,46000
04/08/2013 00:00,20.2,20.2,19,20,19.8,19.9,32,0.5904,30000
01/08/2013 00:00,20,20.3,19.9,19.9,19.9,20.1,46,0.9506,47500
31/07/2013 00:00,20.2,20.6,19.9,19.9,20.1,19.9,71,1.1304,56000
30/07/2013 00:00,20,20.3,19.8,20.3,19.9,20.1,51,1.1442,57000
29/07/2013 00:00,20.1,20.5,20.1,20.3,20.1,19.9,49,0.7503,37000
28/07/2013 00:00,20,20.7,19.8,20.1,19.9,20.2,43,0.8807,44000
25/07/2013 00:00,20.3,21,20.1,21,20.2,20.8,82,1.9247,95000
24/07/2013 00:00,20.6,21.5,20,20,20.8,20,58,1.4068,67500
23/07/2013 00:00,20.1,20.8,20,20.8,20,20.9,52,1.0091,50000
22/07/2013 00:00,20.8,21.8,20.8,21.8,20.9,21.2,77,1.8563,88000
21/07/2013 00:00,21,21.9,21,21.8,21.2,21.7,112,2.4583,114500
18/07/2013 00:00,21.9,22,21.3,21.4,21.7,21.6,112,3.083,141500
17/07/2013 00:00,21.5,21.8,21.5,21.8,21.6,21.8,75,1.6141,74500
16/07/2013 00:00,21.6,22.5,21.6,22.4,21.8,22,167,4.1163,188000
15/07/2013 00:00,22.1,22.3,21.8,21.9,22,21.6,100,2.5537,116000
14/07/2013 00:00,21.5,23,21.3,22.3,21.6,22.5,135,4.0604,185000
11/07/2013 00:00,22.7,23.8,22.4,23.5,22.5,23.3,143,6.0578,264500
10/07/2013 00:00,23.2,24.3,23.2,23.9,23.3,23.8,237,8.3367,354000
09/07/2013 00:00,24.3,24.5,23.4,24.4,23.8,23.6,445,12.1463,503000
08/07/2013 00:00,23.7,24.2,23.3,24.2,23.6,23.6,304,11.0853,468000
07/07/2013 00:00,23.5,24.5,23.4,24,23.6,23.5,455,14.0193,585500
04/07/2013 00:00,23.7,23.8,22.1,22.1,23.5,22,494,14.0398,607000
03/07/2013 00:00,22.3,22.5,21.6,22.3,22,21.6,205,5.4568,249000
02/07/2013 00:00,21.6,21.9,21,21,21.6,20.9,66,1.1026,51000
30/06/2013 00:00,21.4,21.4,20.7,20.8,20.9,20.9,127,2.4786,118500
27/06/2013 00:00,21,21.8,20.8,21.1,20.9,21,81,2.0291,96000
26/06/2013 00:00,21,22,21,22,21,20.9,79,1.843,86500
24/06/2013 00:00,20.8,21.7,20.8,21.7,20.9,21.2,92,2.3061,109500
23/06/2013 00:00,21.5,22.1,21,22.1,21.2,22.1,178,4.7008,217500
20/06/2013 00:00,22.3,22.7,22,22.5,22.1,22.7,183,4.8439,217000
19/06/2013 00:00,22.6,23.4,22.6,23.4,22.7,22.6,190,4.5817,199000
18/06/2013 00:00,22.8,22.9,22.5,22.8,22.6,22.8,178,5.6017,247500
17/06/2013 00:00,23,23.8,22.5,23.8,22.8,23.4,345,10.8111,465500
16/06/2013 00:00,23.2,23.5,22.5,22.5,23.4,22.3,296,9.3137,404500
13/06/2013 00:00,22.5,23,22.2,22.6,22.3,22.9,199,6.3269,280500
12/06/2013 00:00,23.1,23.3,21.9,21.9,22.9,21.7,455,14.2349,624500
11/06/2013 00:00,21.6,22.8,21.6,22.5,21.7,22.1,192,5.1862,234000
10/06/2013 00:00,21.9,22.6,21.3,21.7,22.1,21.2,197,5.1351,233000
09/06/2013 00:00,21.6,22.1,21,21.8,21.2,22.1,121,2.9729,138500
06/06/2013 00:00,22,23,22,22.7,22.1,22.5,177,6.0135,269500
05/06/2013 00:00,22.9,23.3,22.5,22.5,22.5,22.5,241,7.1146,311000
04/06/2013 00:00,22.5,23.2,22.3,23,22.5,22.7,266,9.3447,408500
03/06/2013 00:00,22.9,23.3,22.4,23.1,22.7,22.9,237,8.4147,369000
02/06/2013 00:00,23,23.3,22.1,22.9,22.9,22,392,12.8536,557500
30/05/2013 00:00,22,22.7,21.9,22.1,22,22,140,3.1088,140500
29/05/2013 00:00,22,22.1,21.5,21.5,22,21.2,134,4.7103,215500
28/05/2013 00:00,21,21.7,20.9,21.6,21.2,21.2,144,3.5102,165000
27/05/2013 00:00,21.4,21.5,21.2,21.3,21.2,20.7,68,1.7283,81000
26/05/2013 00:00,20.7,21.7,20.6,21.7,20.7,21.7,88,1.6138,76000
22/05/2013 00:00,21.7,22.8,21.4,22.5,21.7,22.6,149,4.4057,198000
21/05/2013 00:00,22.6,23.8,22.4,22.4,22.6,22.2,366,10.7818,468000
20/05/2013 00:00,22,23.4,22,22.7,22.2,23.2,199,5.8198,257000
19/05/2013 00:00,23.3,23.4,22.5,22.9,23.2,22.4,238,7.8367,340000
16/05/2013 00:00,22.5,22.6,21.5,21.5,22.4,21.6,182,5.5719,252000
15/05/2013 00:00,21.5,22.3,21.5,22.1,21.6,22.2,131,3.3972,155000
14/05/2013 00:00,22.1,22.5,21.5,21.8,22.2,21.5,155,4.9322,223000
13/05/2013 00:00,21.5,21.6,20.9,21,21.5,21,160,4.3274,203000
12/05/2013 00:00,21.1,21.3,20.8,20.9,21,20.2,136,3.2288,153000
09/05/2013 00:00,20.4,20.9,19.9,20.9,20.2,20,45,0.9192,45500
08/05/2013 00:00,20.1,21,20,20.7,20,20.5,71,1.925,95000
07/05/2013 00:00,20.5,21,20.4,20.5,20.5,20.4,59,1.4746,71500
06/05/2013 00:00,20.4,21.5,20.3,20.3,20.4,20.7,87,1.6422,79000
05/05/2013 00:00,20.7,21.4,20.7,21.4,20.7,20.4,66,1.0845,52000
02/05/2013 00:00,20.4,20.8,20.3,20.3,20.4,20.3,58,1.393,68000
30/04/2013 00:00,20.3,20.9,19.5,19.8,20.3,20,89,2.6209,130500
29/04/2013 00:00,19.9,20.2,19.7,19.9,20,20,62,2.7325,137000
28/04/2013 00:00,20.2,20.2,19.6,19.7,20,20,100,2.9627,148500
25/04/2013 00:00,20.1,20.3,20,20.3,20,20.3,48,1.0069,50000
24/04/2013 00:00,20.4,21,20.2,20.3,20.3,20.1,193,4.6798,229000
23/04/2013 00:00,20.1,20.4,20.1,20.2,20.1,19.9,92,1.7092,84500
22/04/2013 00:00,20.5,20.6,19.6,20.4,19.9,20.1,103,2.6777,133500
21/04/2013 00:00,20.4,21.1,20,21.1,20.1,21.1,62,1.6111,79000
18/04/2013 00:00,21.1,22.1,20.3,20.6,21.1,20.1,240,9.8998,458500
17/04/2013 00:00,20.4,20.7,19,19.7,20.1,19.3,146,3.5218,175500
16/04/2013 00:00,19.5,20.8,19.2,20.6,19.3,20.6,97,2.1532,109000
15/04/2013 00:00,20.5,21.3,19.2,19.2,20.6,19.5,140,3.5243,168500
11/04/2013 00:00,19.6,19.9,18.6,19.2,19.5,18.9,91,1.7709,91000
10/04/2013 00:00,19,19.6,18.8,19.1,18.9,18.7,96,1.981,103500
09/04/2013 00:00,18.7,19,18.5,18.6,18.7,18,77,1.431,76500
08/04/2013 00:00,18.1,18.2,17.9,17.9,18,17.8,48,0.9357,52000
07/04/2013 00:00,17.8,18,17,17.1,17.8,17.7,70,0.9284,52500
04/04/2013 00:00,17.7,17.7,16.6,16.6,17.7,17.6,92,1.7226,98000
03/04/2013 00:00,17.6,18,17.4,17.8,17.6,16.9,51,0.9892,56000
02/04/2013 00:00,17.5,17.5,16.7,17,16.9,16.8,28,0.3466,20500
01/04/2013 00:00,16.8,17.1,16.7,17,16.8,17.4,64,0.8887,52500
31/03/2013 00:00,17.5,18,17.4,18,17.4,18.3,41,0.609,34500
28/03/2013 00:00,18.2,18.5,17.9,18,18.3,17.5,36,0.5033,27500
27/03/2013 00:00,17.7,18.1,17,18.1,17.5,17.9,20,0.3339,19000
25/03/2013 00:00,17.9,18.3,17.9,18.2,17.9,18.2,62,1.289,71500
24/03/2013 00:00,18.3,18.9,18.1,18.9,18.2,18.7,41,0.7271,39500
20/03/2013 00:00,18.8,19,18.7,18.8,18.7,18.7,24,0.5153,27500
19/03/2013 00:00,18.8,19.4,18.7,19,18.7,18.7,55,1.268,67000
18/03/2013 00:00,19,19.1,18.6,19.1,18.7,18.9,128,2.4332,129000
14/03/2013 00:00,19.1,19.5,18.6,19.5,18.9,19.1,61,0.9056,48000
13/03/2013 00:00,19.3,19.5,19,19.2,19.1,18.7,76,3.8194,198500
12/03/2013 00:00,18.7,19.2,18.7,19,18.7,18.8,108,3.3992,179500
11/03/2013 00:00,18.9,19.3,18.1,18.6,18.8,18.8,96,2.1449,115500
10/03/2013 00:00,18.8,19.8,18.7,19.8,18.8,19.6,71,1.7312,91000
07/03/2013 00:00,19.5,20,19.1,19.2,19.6,19.8,47,0.8496,43500
06/03/2013 00:00,19.8,20.3,19.8,20.1,19.8,20,69,2.1027,105000
05/03/2013 00:00,20.2,22.1,20,22.1,20,20.7,125,3.9312,192500
04/03/2013 00:00,20.8,21.5,20.5,21.1,20.7,19.6,158,3.437,162000
03/03/2013 00:00,19.4,20.1,19.4,20.1,19.6,21.5,80,1.2012,61000
28/02/2013 00:00,21.4,21.9,21.1,21.3,21.5,21.2,83,2.5217,118000
27/02/2013 00:00,21.4,22.8,21,22.8,21.2,22.5,147,4.7813,219500
26/02/2013 00:00,22.6,22.7,22,22.5,22.5,21.8,93,3.0022,133500
25/02/2013 00:00,21.8,22.8,21.7,22.5,21.8,22.1,101,3.1251,141000
24/02/2013 00:00,22.1,23.3,22.1,23.2,22.1,23,136,4.6334,207500
20/02/2013 00:00,22.9,23.8,22.8,23.1,23,23.3,265,9.2107,395500
19/02/2013 00:00,23.4,23.8,23,23.2,23.3,23.3,275,11.1685,474500
18/02/2013 00:00,23.4,23.6,22.8,22.8,23.3,22.6,287,11.0466,474000
17/02/2013 00:00,22.8,22.9,22.3,22.8,22.6,22.3,291,11.4195,506500
14/02/2013 00:00,22.7,22.7,21.6,21.6,22.3,21.6,214,10.9251,493000
13/02/2013 00:00,21.9,21.9,21.2,21.3,21.6,21.5,72,1.9867,92000
12/02/2013 00:00,21.5,22.3,21.4,22.3,21.5,21.9,172,4.9734,228500
11/02/2013 00:00,22,22.2,21.2,21.2,21.9,21.2,159,5.8405,267000
10/02/2013 00:00,21.2,21.8,21.1,21.2,21.2,21.1,113,3.4111,160000
07/02/2013 00:00,21.2,21.5,21,21.4,21.1,21.2,104,5.1951,245500
06/02/2013 00:00,21.4,21.6,21.1,21.6,21.2,21.6,72,1.9095,89500
05/02/2013 00:00,21.6,21.7,21.1,21.4,21.6,21.4,79,2.1247,99000
04/02/2013 00:00,21.7,22.2,21.3,22,21.4,22.2,80,1.7445,81000
03/02/2013 00:00,22.3,22.5,21.2,21.3,22.2,21.5,201,5.5159,251000
31/01/2013 00:00,21.6,21.6,20,20.9,21.5,19.7,370,16.6904,781000
30/01/2013 00:00,19.6,20,19.3,19.8,19.7,19.6,85,2.0856,106500
29/01/2013 00:00,19.4,19.9,19,19,19.6,18.9,84,1.7132,88000
28/01/2013 00:00,19.1,19.3,18.7,19.1,18.9,19.1,32,0.5118,27000
27/01/2013 00:00,19.5,19.6,19,19.5,19.1,19.1,56,1.3571,70000
24/01/2013 00:00,19.2,19.3,18.8,18.8,19.1,18.9,70,1.2425,65000
23/01/2013 00:00,18.9,19,18.7,18.8,18.9,19,35,0.6991,37000
22/01/2013 00:00,19,19.6,18.5,19.6,19,18.4,63,1.47,77500
21/01/2013 00:00,18.5,18.6,18.4,18.6,18.4,18.4,5,0.0553,3000
20/01/2013 00:00,18.4,18.8,18.4,18.8,18.4,18.7,34,0.397,21500
17/01/2013 00:00,18.9,18.9,18.5,18.6,18.7,18.4,27,0.5499,29500
16/01/2013 00:00,18.7,18.7,18.2,18.2,18.4,18.3,28,0.404,22000
15/01/2013 00:00,18.7,18.7,18.1,18.2,18.3,18.5,26,0.3391,18500
14/01/2013 00:00,18.5,18.5,18.5,18.5,18.5,18.6,5,0.148,8000
13/01/2013 00:00,18.5,18.7,18.5,18.5,18.6,18.5,11,0.3165,17000
10/01/2013 00:00,18.8,18.8,18.5,18.5,18.5,18.4,8,0.1114,6000
09/01/2013 00:00,18.4,18.9,18.4,18.7,18.4,18.7,47,1.1408,61500
08/01/2013 00:00,18.6,19,18.6,19,18.7,18.6,11,0.1498,8000
07/01/2013 00:00,18.7,19.6,18.6,19.6,18.6,18.7,27,0.4674,25000
06/01/2013 00:00,18.7,19.4,18.7,18.9,18.7,18.9,39,0.4714,25000
03/01/2013 00:00,18.8,19.1,18.8,18.8,18.9,18.7,13,0.1515,8000
02/01/2013 00:00,18.8,19,18.7,19,18.7,19,25,0.4133,22000
01/01/2013 00:00,18.8,19.1,18.8,19.1,19,19.1,15,0.1996,10500
