Date,Last Traded Price,High,Low,Opening Price,Closing Price,Yesterday Closing,Trade,Value MN,Volume
01/01/2013,36.7,37.4,36.5,36.9,36.5,36.7,440,9.6114,260750
02/01/2013,35.9,36.6,35.8,36.4,35.8,36.5,559,13.2682,367250
03/01/2013,35.7,36.2,35.4,36,35.7,35.8,538,11.9821,335000
06/01/2013,35,35.9,35,35.3,35.1,35.7,497,10.9037,308750
07/01/2013,34.3,35.1,34,35.1,34.1,35.1,469,10.3433,299750
08/01/2013,34.1,34.9,34,34.6,34.2,34.1,593,14.7226,427250
09/01/2013,33.8,34.7,33.7,34.5,33.8,34.2,512,12.006,351250
10/01/2013,34.9,34.9,33.8,33.9,34.6,33.8,569,13.6399,397500
13/01/2013,36.2,36.6,34.8,35,36,34.6,1384,35.0278,973000
14/01/2013,35.5,36.4,35.5,36.1,35.5,36,508,12.3405,344750
15/01/2013,35,35.7,35,35.7,35.1,35.5,423,10.9695,311500
16/01/2013,34.6,35.1,34.5,35.1,34.6,35.1,649,16.4852,473000
17/01/2013,34.9,35.5,34.7,34.7,34.9,34.6,534,15.4084,438500
20/01/2013,34.7,35.5,34.5,34.8,34.5,34.9,232,5.2572,151500
21/01/2013,34.5,34.8,34.3,34.8,34.4,34.5,376,8.7712,254250
22/01/2013,34.3,34.7,34.1,34.1,34.3,34.4,393,10.2408,298500
23/01/2013,34.5,35.1,34.3,34.5,34.6,34.3,474,13.3968,385500
24/01/2013,35.3,35.6,34.8,35,35.2,34.6,693,18.0808,511500
27/01/2013,34.6,35.5,34.4,35.4,34.5,35.2,547,16.2254,464250
28/01/2013,33.9,34.3,33.7,34.3,33.8,34.5,668,17.6892,521250
29/01/2013,34.7,34.9,33.7,33.9,34.5,33.8,745,22.4145,650750
30/01/2013,32,35.2,31.8,34.9,33.5,34.5,1380,39.2048,1151500
03/02/2013,33.3,33.7,32.5,33,33.2,33.5,1364,40.3139,1210250
04/02/2013,32.8,33.8,32.5,33.7,32.7,33.2,674,19.686,595750
05/02/2013,32.5,33,32.2,32.8,32.4,32.7,633,14.6352,450250
06/02/2013,32.6,33.2,32.4,33,32.4,32.4,592,16.0516,490500
07/02/2013,32.2,32.6,32,32.6,32,32.4,684,14.5503,451750
10/02/2013,34.6,34.8,32.4,32.6,34.4,32,1165,35.705,1065000
11/02/2013,36.8,37.5,35,35.1,36.6,34.4,2174,70.879,1936750
12/02/2013,35.4,37,35.1,37,35.2,36.6,1248,33.1462,920500
13/02/2013,37.6,37.6,34.9,35,36.9,35.2,1508,48.8146,1349250
14/02/2013,39.5,39.9,37.6,37.6,39.5,36.9,2127,86.9313,2232500
17/02/2013,38.4,40,38.2,39.7,38.4,39.5,1427,47.0228,1208500
18/02/2013,37.3,39.2,37.3,38.2,37.7,38.4,1193,44.3756,1154500
19/02/2013,37,40.9,36.5,40.9,36.8,37.7,1151,36.9669,984250
20/02/2013,35.5,37.9,35.4,37.3,35.8,36.8,1024,30.18,824250
24/02/2013,34,36.7,33.8,35.7,34.2,35.8,809,23.7175,673000
25/02/2013,33.6,35.5,33.5,34.8,33.6,34.2,854,21.1359,617250
26/02/2013,35.1,35.7,33.7,34.4,35.1,33.6,735,19.778,572000
27/02/2013,34.1,35.8,33.8,35.5,34,35.1,835,26.6018,768250
28/02/2013,34.2,34.8,33.5,33.6,34.2,34,425,11.6965,342000
03/03/2013,31.1,33.5,30.9,33.5,31.1,34.2,645,14.4803,452750
04/03/2013,32.6,33,30.3,30.3,32.6,31.1,640,13.6294,419500
05/03/2013,31.5,33,31.3,33,31.6,32.6,689,15.0209,470250
06/03/2013,31.2,32.1,31,32.1,31.3,31.6,462,10.147,322000
07/03/2013,30.2,31.5,29.9,31.5,30.5,31.3,535,10.6852,350750
10/03/2013,29.7,31.5,29.5,30.2,29.6,30.5,548,13.4953,448250
11/03/2013,28.2,30,27.9,30,28.5,29.6,718,16.5629,579250
12/03/2013,28,28.8,27.1,27.1,28.2,28.5,454,9.3018,331000
13/03/2013,29.5,30,27.3,27.3,29.3,28.2,641,15.5272,528000
14/03/2013,29,30.4,28.9,29.5,29.1,29.3,711,17.5656,594250
18/03/2013,29.4,29.4,28.4,28.6,29.1,29.1,410,9.4472,326250
19/03/2013,29.4,29.7,28.7,28.8,29.2,29.1,542,11.1972,381250
20/03/2013,28.6,29.6,28.5,28.9,28.5,29.2,352,7.1432,247750
24/03/2013,27.4,28.8,27.2,28.1,27.3,28.5,426,9.6448,347500
25/03/2013,26.8,27.8,26.4,27.7,26.6,27.3,468,9.9335,368250
27/03/2013,25.1,26.7,24.8,25.2,25,26.6,526,10.756,424250
28/03/2013,25.9,26,25,25.1,25.8,25,505,9.7318,381250
31/03/2013,25,26,25,26,25.1,25.8,378,7.2341,285250
01/04/2013,23.3,24.5,22.9,24.2,23,25.1,477,10.6956,453000
02/04/2013,23.9,24,23,23.5,23.8,23,389,7.6511,324500
03/04/2013,24.4,24.8,24.1,24.4,24.2,23.8,422,7.7195,316000
04/04/2013,23.8,24.3,23.4,24.3,23.7,24.2,342,7.4085,311750
07/04/2013,23.9,24,23.7,23.7,23.8,23.7,355,6.765,283500
08/04/2013,24.4,24.4,23.1,23.1,24.2,23.8,411,8.112,339250
09/04/2013,26.6,26.6,23.6,23.6,26.6,24.2,879,22.6276,868000
10/04/2013,28.5,29.2,28.3,28.4,28.6,26.6,1617,45.7904,1582000
11/04/2013,31.4,31.4,28.1,28.4,31.4,28.6,1967,64.0104,2100250
15/04/2013,32.8,34.3,31.7,32,32.7,31.4,1584,50.8624,1525000
16/04/2013,30.6,33.3,30.5,31.6,30.6,32.7,1780,49.9083,1592000
17/04/2013,32.9,33.2,29.5,30.5,32.9,30.6,2155,69.8661,2220250
18/04/2013,33.5,35.4,32.9,33.5,33.4,32.9,1976,65.848,1933750
21/04/2013,32.6,33.8,32.5,33.8,32.6,33.4,1355,45.3856,1374250
22/04/2013,31.7,32.7,31.2,31.5,31.6,32.6,1136,28.5704,896250
23/04/2013,31.8,32.8,31.2,31.2,31.6,31.6,999,27.5333,856250
24/04/2013,31.9,32.4,30.8,31.6,31.5,31.6,1338,37.7843,1204500
25/04/2013,31.5,32.6,31.4,32,31.5,31.5,663,17.4427,547250
28/04/2013,29.5,31.3,29.5,31.2,29.8,31.5,1079,24.7568,817750
29/04/2013,31.2,31.7,28.8,29,31.3,29.8,1096,27.7586,918000
30/04/2013,29.6,32,29.6,31.5,30,31.3,836,20.9368,678250
02/05/2013,30.4,30.9,29.8,30.4,30.3,30,805,22.5024,740250
05/05/2013,29.8,31.1,29.6,30.3,29.9,30.3,696,18.139,599000
06/05/2013,29.5,30.4,29.3,30.4,29.4,29.9,465,10.0202,338750
07/05/2013,30.6,30.9,29.5,29.5,30.5,29.4,817,20.8621,686000
08/05/2013,31.1,32.4,30.7,31,31.1,30.5,1805,50.2469,1589500
09/05/2013,32.8,32.8,31,31.5,32.5,31.1,1602,45.9416,1431750
12/05/2013,33.3,34,32.5,32.5,33.3,32.5,1492,45.6414,1359750
13/05/2013,33.8,34,32.6,33.9,33.8,33.3,2046,67.132,2014750
14/05/2013,34.2,35.9,34,34.6,34.4,33.8,2286,87.5118,2511000
15/05/2013,33.8,35,33.5,34.9,33.6,34.4,1671,54.873,1606250
16/05/2013,34.6,34.7,33.1,33.2,34.5,33.6,1622,60.7199,1767500
19/05/2013,35.1,35.9,34.8,35,35.3,34.5,1932,71.1194,2011000
20/05/2013,34.9,35.7,34.7,35.6,34.9,35.3,1821,76.0855,2168750
21/05/2013,38.2,38.3,35,35,38.1,34.9,3549,151.4686,4049500
22/05/2013,35.6,38.5,35.4,38.5,35.7,38.1,2075,78.53,2125000
26/05/2013,35.5,36.9,35.3,36,35.4,35.7,1548,53.9361,1499500
27/05/2013,36.8,37.1,35.3,35.9,36.5,35.4,1490,65.0216,1773500
28/05/2013,37,37.7,36.4,37.1,36.7,36.5,1527,59.7069,1619250
29/05/2013,36.9,37.8,36.7,37,37,36.7,1609,67.2362,1798250
30/05/2013,37.1,37.9,36.8,37.6,36.9,37,2050,92.2189,2477000
02/06/2013,39.4,40.3,37.6,37.8,39.6,36.9,2679,125.6366,3198250
03/06/2013,39.2,40.7,38.4,40,39.1,39.6,2093,86.5768,2212750
04/06/2013,40,41.6,38.5,39.4,40.3,39.1,2747,123.4253,3089250
05/06/2013,40,41.4,39.1,39.8,40,40.3,2131,92.5325,2286500
06/06/2013,38.1,40.9,37.8,40.5,38.4,40,2364,95.1825,2409000
09/06/2013,37.5,39.5,37,39,37.3,38.4,1988,68.1313,1785750
10/06/2013,41,41,37,37.1,40.9,37.3,2344,96.1211,2399000
11/06/2013,42.4,43,41.2,41.4,42.3,40.9,2828,123.026,2912250
12/06/2013,44.3,45.3,42.3,43,44.2,42.3,3256,150.5784,3400250
13/06/2013,43.8,45.2,43.5,45,43.7,44.2,2684,114.2035,2575500
16/06/2013,46.6,46.9,43.8,44.3,46.2,43.7,2294,103.4673,2273250
17/06/2013,45,47.9,44.7,46.9,44.9,46.2,2881,129.1967,2804750
18/06/2013,45,45.5,43.2,45.5,44.7,44.9,2791,123.0465,2771750
19/06/2013,44.4,47.7,44.1,45.1,44.8,44.7,2570,130.86,2829750
20/06/2013,44.4,45.5,43.4,44.9,43.7,44.8,1704,71.4435,1604500
23/06/2013,41.6,44.9,41.5,44.9,42,43.7,1432,51.6105,1195250
24/06/2013,42,43,40.8,42,41.8,42,1213,43.9827,1055750
26/06/2013,42.1,44.1,42.1,42.1,42.5,41.8,1349,41.7183,968500
27/06/2013,42.4,43.7,41.4,43.7,41.8,42.5,1104,39.173,928250
30/06/2013,40.7,41.9,40.2,41.1,40.6,41.8,1095,34.6546,847250
02/07/2013,43,43.9,42,42,43,40.6,1144,39.4855,913750
03/07/2013,42.9,44,42,43.8,42.2,43,1453,54.1581,1261500
04/07/2013,43,43.5,42.3,42.8,42.7,42.2,1685,69.8915,1636000
07/07/2013,44.8,45.8,43.6,43.8,45,42.7,2414,101.4233,2255750
08/07/2013,46,46.2,44.7,45.2,45.9,45,2223,99.5468,2184750
09/07/2013,47.1,49.4,46.1,46.5,47.4,45.9,3465,183.7786,3797250
10/07/2013,44.8,48,44.8,48,45,47.4,2278,101.1377,2185750
11/07/2013,44.2,45.6,43.2,45.3,43.4,45,1170,45.0174,1018750
14/07/2013,41.5,44.8,40.8,44.5,42.1,43.4,1091,39.0689,914500
15/07/2013,43.2,43.7,41.5,43,42.6,42.1,1071,40.5679,954500
16/07/2013,41.9,44.4,41.8,42.9,42.3,42.6,1212,44.7308,1033000
17/07/2013,41.7,42.8,41.5,42.6,41.6,42.3,1293,52.5012,1253000
18/07/2013,41.9,42.9,41.3,42.9,41.5,41.6,934,32.5085,775750
21/07/2013,38.9,42.5,38.1,42.5,38.7,41.5,993,32.2897,805500
22/07/2013,38.9,40.6,38,39.6,38.6,38.7,818,25.0493,639500
23/07/2013,36.3,39.7,36.2,39.7,36.7,38.6,507,14.1346,376000
24/07/2013,40.3,40.3,36.2,36.7,40,36.7,965,28.5776,737250
25/07/2013,37.7,41.4,37.5,41.3,37.8,40,710,19.053,488250
28/07/2013,37,38.5,36.5,37.1,36.8,37.8,526,13.9439,375750
29/07/2013,38.6,38.6,36.9,37.1,38.4,36.8,643,18.284,479750
30/07/2013,37.1,38.8,37,38.4,37.2,38.4,554,13.6366,362500
31/07/2013,36.7,37.8,36.6,36.9,36.8,37.2,416,12.6263,341750
01/08/2013,36.5,37.4,36.3,37.3,36.6,36.8,425,12.4735,339000
04/08/2013,36,36.4,35.2,36.4,35.9,36.6,317,7.3882,206250
05/08/2013,36.3,36.8,36,36,36.5,35.9,292,7.2184,198750
12/08/2013,37,37.1,36.3,36.5,36.9,36.5,262,6.1894,168000
13/08/2013,38.1,38.3,37,37,37.8,36.9,483,12.7696,337250
14/08/2013,39.6,39.7,37.6,37.8,39.4,37.8,1014,33.1925,859000
18/08/2013,42.3,42.3,39.6,39.6,42,39.4,1355,48.3343,1164000
19/08/2013,41,42.2,40.8,42.2,41.2,42,874,28.8209,695250
20/08/2013,40.2,42,40,41,40.3,41.2,1156,44.0726,1074750
21/08/2013,39.9,41.4,39.5,40.4,39.6,40.3,928,31.6568,786500
22/08/2013,40.8,41.2,39.9,40.9,40.7,39.6,1065,36.7123,903750
25/08/2013,43,43.6,41.5,41.8,43,40.7,2128,84.7667,1985250
26/08/2013,41.6,44.6,41.6,43.5,42,43,1502,53.9167,1243000
27/08/2013,41.6,43.5,41.5,42.3,41.5,42,1041,36.1966,854250
29/08/2013,41.5,41.9,40.7,41.5,40.9,41.5,900,34.0202,826000
01/09/2013,41.3,42.8,41,41.1,41.2,40.9,945,32.8352,786250
02/09/2013,42.3,43.3,41.8,41.9,42.1,41.2,1739,72.2033,1699250
03/09/2013,42.5,43,41.9,43,42,42.1,979,41.2919,975500
04/09/2013,43.3,43.8,42.5,43,43.1,42,1710,70.016,1616500
05/09/2013,42.4,43.8,41.8,43.5,41.9,43.1,1012,45.6485,1073250
08/09/2013,40.7,42.3,40.6,42.3,41,41.9,788,29.8946,722750
09/09/2013,41.5,41.6,40.6,41.3,41.1,41,744,28.3889,692250
10/09/2013,40.7,42.2,40.6,41.4,40.9,41.1,877,32.1409,776500
11/09/2013,40.1,41.5,40,41.5,40.2,40.9,897,27.8076,684750
12/09/2013,40.3,40.7,39.5,40.2,39.6,40.2,937,31.5041,788500
15/09/2013,41.8,42.2,40.4,40.4,41.7,39.6,1256,45.1137,1085500
16/09/2013,41.5,42.8,41.1,42.2,41.3,41.7,971,34.7513,830750
17/09/2013,42,42.4,40.9,41.1,41.4,41.3,1224,45.7308,1095000
18/09/2013,40.9,42.4,40.7,42.2,40.7,41.4,1101,38.551,926750
19/09/2013,40.6,41.4,39.9,40.9,40.3,40.7,860,29.7756,734750
22/09/2013,38.3,40.4,38.1,40.3,38.2,40.3,1404,45.9067,1187500
23/09/2013,38,38.4,36.5,38.4,37.4,38.2,1184,39.54,1064750
24/09/2013,37,38.4,36.5,36.5,36.9,37.4,618,19.4956,521250
25/09/2013,36.2,37.7,36,37.7,36.3,36.9,551,16.2494,444000
26/09/2013,36.7,36.7,36.1,36.5,36.4,36.3,496,15.1471,416500
29/09/2013,35.9,37,35.8,36.3,36.1,36.4,461,13.6496,375250
30/09/2013,34,36.4,33.8,36.4,34.3,36.1,526,14.4071,413750
01/10/2013,33.2,34.5,33,34.5,33.1,34.3,496,14.6881,437250
02/10/2013,36.4,36.4,32.5,33.5,36.4,33.1,602,19.0197,547750
03/10/2013,36.5,38.9,36,38,36.3,36.4,864,26.9134,715500
06/10/2013,34,36.9,33.9,36.9,33.9,36.3,406,10.7605,312750
07/10/2013,33,34.2,32,32.1,33,33.9,564,14.8103,443000
08/10/2013,31.5,33.5,31.4,33,31.6,33,479,13.2269,411750
09/10/2013,32.5,32.9,30.7,31.6,32.1,31.6,292,7.1787,224750
10/10/2013,32.3,34.9,32,34.9,32.4,32.1,283,6.6946,207000
20/10/2013,30.8,32.1,30.8,32,30.9,32.4,254,6.9762,224250
21/10/2013,30.7,30.8,29.2,30,30.4,30.9,330,6.9854,234250
22/10/2013,31,31.5,30.5,30.5,30.9,30.4,292,7.5249,243000
23/10/2013,30.9,31.4,30.2,31.4,30.5,30.9,360,8.5877,278500
24/10/2013,29.3,30.1,29.3,29.9,29.4,30.5,295,6.668,225000
27/10/2013,30.5,30.9,29,29,30.5,29.4,226,4.6074,152750
28/10/2013,30.8,31.9,30.7,30.9,30.8,30.5,427,11.7576,375000
29/10/2013,30.7,31,29.7,30.8,30.5,30.8,322,6.1651,202250
30/10/2013,31.8,32,30.6,30.7,31.4,30.5,477,11.6387,372000
31/10/2013,31.6,32.6,31.5,31.8,31.7,31.4,440,10.3128,322000
03/11/2013,32,32.9,30,30,31.9,31.7,357,10.1861,318000
04/11/2013,33.3,33.4,32.3,32.4,33.1,31.9,627,19.7989,601000
05/11/2013,32.8,33.5,31.8,33.5,32.2,33.1,530,14.7011,453750
06/11/2013,31.2,32.2,31,32,31.2,32.2,706,21.7192,692500
10/11/2013,28.5,29.8,28.5,29.8,28.5,31.2,739,20.49,711000
11/11/2013,29,29,28.3,28.3,28.5,28.5,402,11.5875,404000
12/11/2013,28.8,29.2,28.7,29,28.8,28.5,319,8.8761,307000
13/11/2013,31,31.4,29,29,31.1,28.8,843,27.8976,906750
14/11/2013,30.5,31.6,30,31.4,30.3,31.1,661,23.535,763750
17/11/2013,31.6,32,30.1,30.5,31.2,30.3,559,17.5784,569500
18/11/2013,32.2,32.9,31.5,32.9,32.5,31.2,890,28.8082,893500
19/11/2013,32.7,32.8,32,32.5,32.3,32.5,839,25.1413,776750
20/11/2013,33.3,33.5,32.1,32.5,33.1,32.3,1025,34.6236,1046500
21/11/2013,36.4,36.4,32.7,33.5,36.3,33.1,2553,119.4776,3394000
24/11/2013,36.9,39.1,36.9,36.9,37.4,36.3,1912,72.6979,1914000
25/11/2013,38.2,39.7,37.1,37.9,38.7,37.4,2132,96.2749,2516000
26/11/2013,36.6,39.2,36,39,36.9,38.7,2147,86.8551,2275000
27/11/2013,35.8,37.8,35.7,37.3,35.9,36.9,1243,36.7368,1006750
28/11/2013,34.8,36.6,34.7,36.5,34.9,35.9,1096,33.7741,955000
01/12/2013,33,35,33,35,33.3,34.9,878,21.9586,647750
02/12/2013,34.8,34.8,33.4,33.8,34.4,33.3,749,20.2764,594000
03/12/2013,36.3,36.9,34.9,35.2,36.5,34.4,1031,35.3267,985250
04/12/2013,35.5,37.1,35.5,37,35.6,36.5,938,30.0516,835000
05/12/2013,35.4,36.4,35,35.8,35.2,35.6,745,23.608,666750
08/12/2013,36.1,36.2,35.4,35.9,35.9,35.2,737,24.2409,676000
09/12/2013,36,37.6,35.9,36.4,36,35.9,1123,36.6572,1000750
10/12/2013,37.4,38.4,35.2,35.2,37.4,36,1774,83.1976,2217750
11/12/2013,39.9,40,37.5,38,39.7,37.4,3360,154.8358,3933000
12/12/2013,38.1,39.9,37.7,39.1,38.3,39.7,1393,48.4095,1251250
15/12/2013,38.5,39.5,38,38.1,38.6,38.3,1108,44.2527,1143250
17/12/2013,40.3,41.9,38.8,39,40.2,38.6,2559,122.8563,3028500
18/12/2013,38.4,41.2,38.2,40.2,38.6,40.2,1295,42.3563,1076750
19/12/2013,38.9,39.3,37.8,39,38.9,38.6,969,35.2148,911250
22/12/2013,38,40.4,37.8,39.3,38,38.9,1411,53.4295,1383500
23/12/2013,37.5,38.5,37,38.1,37.2,38,1030,33.4016,886000
24/12/2013,37.1,37.7,36.2,37.5,36.5,37.2,683,23.9424,653500
26/12/2013,36.2,37,36,36.9,36.2,36.5,535,17.2331,473500
29/12/2013,35.6,36.4,35.4,35.9,35.6,36.2,422,12.1532,339750
30/12/2013,35.8,36.8,35.8,36,35.9,35.6,415,11.2339,309500
01/01/2014,35.9,36.8,35.8,36.3,35.9,35.9,389,16.602,458500
02/01/2014,35.9,36.3,35.8,36,35.9,35.9,465,14.546,404250
06/01/2014,35.1,36.4,35.1,36.4,35.4,35.9,438,13.0186,364500
07/01/2014,36.2,36.4,35.5,35.5,36,35.4,588,18.4295,513500
08/01/2014,36.8,36.8,36.3,36.7,36.5,36,498,16.3844,448500
09/01/2014,36.9,37.3,36.4,36.9,36.6,36.5,579,18.5207,504500
12/01/2014,36.6,37.4,36.5,37,36.6,36.6,803,26.298,711250
13/01/2014,37.4,37.4,36.5,36.6,37,36.6,725,28.0806,762250
15/01/2014,37.9,39,37.2,37.2,38.1,37,1505,57.9503,1507750
16/01/2014,37.8,38.5,37.3,38.5,37.5,38.1,758,26.0167,690500
19/01/2014,36.7,37.7,36.5,37.7,36.6,37.5,737,27.9173,759250
20/01/2014,36.4,36.9,36.3,36.3,36.4,36.6,530,18.7223,512750
21/01/2014,36.7,36.9,36,36,36.4,36.4,540,17.2589,473500
22/01/2014,36.9,37.5,36.6,36.8,36.8,36.4,874,36.3357,981750
23/01/2014,37.7,38.4,37,37,37.8,36.8,1343,64.6486,1711750
26/01/2014,37.7,38.7,37.2,37.8,37.4,37.8,945,47.4458,1250000
27/01/2014,37,37.7,36.8,37.3,36.9,37.4,662,26.2076,703500
28/01/2014,36.8,37.2,36.7,37,36.7,36.9,418,14.5432,394750
29/01/2014,39.6,39.7,36.8,36.8,39.3,36.7,2887,153.8719,3969250
30/01/2014,41.2,41.9,39.4,39.4,41,39.3,3435,201.9178,4963000
02/02/2014,40.4,42,39.9,41.9,40.5,41,1871,107.823,2626000
03/02/2014,43.1,43.2,40.7,41,42.9,40.5,2661,179.1466,4258750
04/02/2014,42.6,43.5,41.6,43,42.1,42.9,1480,82.3403,1937500
05/02/2014,41.3,42.8,41.1,42.4,41.4,42.1,1142,51.2181,1220750
06/02/2014,43.3,43.8,41.3,41.6,43,41.4,1939,105.6134,2469500
09/02/2014,41.2,44,41.1,43.4,41.6,43,1364,80.8713,1905250
10/02/2014,40.9,42.3,40.8,42,41.1,41.6,1028,51.8597,1244500
11/02/2014,40.5,41.6,40.2,41.3,40.4,41.1,877,46.0178,1128250
12/02/2014,39.3,41.5,39.3,41.5,39.7,40.4,1084,56.8859,1414500
13/02/2014,40,40.7,39.1,40.3,39.3,39.7,1017,50.9004,1275000
16/02/2014,39.3,40.8,39,40,39.1,39.3,474,17.8976,453000
17/02/2014,39.8,40.3,39.1,39.7,39.4,39.1,481,20.8012,524000
18/02/2014,39.8,40.4,39.7,39.7,39.9,39.4,717,31.5508,787500
19/02/2014,40.3,41.3,40.2,40.5,40.7,39.9,761,36.6655,898750
20/02/2014,41.4,42.2,40.8,41,41.2,40.7,1251,65.7746,1587250
23/02/2014,39.7,41.9,39.7,41.5,39.9,41.2,819,34.0465,841500
24/02/2014,40.1,40.3,39.3,40.1,40,39.9,626,22.8505,572750
25/02/2014,40.1,41.2,40,40.4,40.1,40,723,31.0816,766000
26/02/2014,39.8,41.1,39.5,41.1,39.6,40.1,627,20.699,519000
27/02/2014,38.8,40.1,38.5,40,38.8,39.6,958,39.998,1019500
02/03/2014,37.9,39.6,37.7,39,37.8,38.8,653,27.8976,729000
03/03/2014,37.6,38.4,36.8,38.1,37.1,37.8,751,29.7941,794750
04/03/2014,39.2,40.3,37.6,37.6,39.7,37.1,1234,53.5694,1369500
05/03/2014,38.8,40.4,38.8,40,38.9,39.7,502,24.6456,629500
06/03/2014,38.5,39.3,38.2,39,38.4,38.9,474,17.48,454000
09/03/2014,38.3,39.3,37.8,39.3,37.9,38.4,502,25.891,679000
10/03/2014,38.7,38.9,38,38.4,38.4,37.9,497,18.5925,481750
11/03/2014,39,39.2,38.3,38.7,38.5,38.4,535,25.9682,670250
12/03/2014,38.4,39.4,38.3,38.6,38.5,38.5,446,20.461,528250
13/03/2014,38.7,38.9,38,38.6,38.2,38.5,409,14.9759,392000
16/03/2014,38.2,38.9,37.9,38.9,38.3,38.2,402,17.5551,459000
18/03/2014,38.4,38.8,38,38.5,38.2,38.3,480,15.7933,410500
19/03/2014,37.7,38.1,37.4,37.8,37.5,38.2,395,13.0485,346000
20/03/2014,38.5,38.5,37.7,37.9,38.1,37.5,409,13.5832,357000
23/03/2014,38.3,38.6,38,38.2,38.1,38.1,269,8.5497,223500
24/03/2014,37.7,38.2,37.5,38.1,37.6,38.1,385,13.338,353750
25/03/2014,37.4,38.1,37.4,38,37.6,37.6,302,9.6043,254250
27/03/2014,37.3,37.8,37,37.5,37.2,37.6,432,16.0629,431000
30/03/2014,37.4,37.9,37.1,37.4,37.5,37.2,350,11.8838,317000
31/03/2014,37,37.8,36.9,37.6,37,37.5,365,10.9225,293250
01/04/2014,37.4,37.6,37,37.1,37.1,37,285,7.7966,209500
02/04/2014,37.9,38.3,37.3,37.5,37.8,37.1,570,18.3428,484250
03/04/2014,37.9,38.2,37.4,38.2,37.5,37.8,471,27.4493,727500
06/04/2014,37.6,38.5,37.4,38.2,37.6,37.5,450,19.2229,509250
07/04/2014,36.6,37.7,36.4,37.5,36.5,37.6,557,23.925,647750
08/04/2014,36.2,36.8,35.6,36.6,35.9,36.5,534,17.2727,479500
09/04/2014,35.5,36.4,35.2,36,35.3,35.9,419,11.9552,336000
10/04/2014,35.2,35.8,34.9,35.5,35.1,35.3,393,16.7433,475250
13/04/2014,35.7,35.7,34.6,35,34.7,35.1,232,11.7467,337250
15/04/2014,34.3,34.9,33.8,34.8,34.1,34.7,327,10.2265,299000
16/04/2014,33.7,34.4,33.6,34,33.7,34.1,395,12.7701,376500
17/04/2014,35.1,35.5,33.8,33.8,35.1,33.7,543,20.314,580000
20/04/2014,36.5,37.4,35,35.1,36.6,35.1,864,33.4373,914500
21/04/2014,35.6,37,35.2,36.5,35.4,36.6,467,16.1742,453500
22/04/2014,36.1,36.3,35.3,35.5,36,35.4,364,12.1428,340000
23/04/2014,35.8,36.2,35.4,36,35.6,36,303,10.8673,303750
24/04/2014,35.7,36.4,35.4,35.6,35.6,35.6,573,26.3279,737750
27/04/2014,36.1,36.6,35.7,36,35.9,35.6,430,13.9241,386250
28/04/2014,34.8,36.7,34.5,36.6,34.6,35.9,645,28.6909,819750
29/04/2014,31.2,34.9,31.2,34.9,31.2,34.6,1110,44.5789,1412500
30/04/2014,30,30.2,29,29.1,29.8,31.2,659,23.4098,787500
04/05/2014,28.4,30.2,28.2,29.8,28.5,29.8,696,21.5995,751500
04/05/2014,28.4,30.2,28.2,29.8,28.5,29.8,696,21.5995,751500
05/05/2014,29.8,29.8,28.3,28.5,29.3,28.5,513,13.6043,470750
06/05/2014,30.4,30.6,29.3,29.4,30.4,29.3,645,16.5515,550250
07/05/2014,30,30.8,29.7,30.8,29.7,30.4,600,14.7958,490500
08/05/2014,29.5,30.1,29.2,29.8,29.3,29.7,580,15.5728,527000
11/05/2014,31,31.7,29.2,29.2,30.6,29.3,710,21.3972,704000
12/05/2014,30.5,31.2,30.2,30.6,30.4,30.6,478,12.7283,416750
14/05/2014,29.6,30.5,29.4,30.2,29.5,30.4,385,10.5945,355750
15/05/2014,29,29.9,28.7,29.2,28.9,29.5,600,15.4443,532500
18/05/2014,28.9,29.5,28.8,29.3,29,28.9,290,7.0384,242000
19/05/2014,28.8,29.2,28.7,29.1,28.7,29,222,6.0637,210000
20/05/2014,28.6,29.2,28.4,28.8,28.7,28.7,246,6.7579,235750
21/05/2014,29.2,29.5,28.9,28.9,29,28.7,320,8.7929,302000
22/05/2014,28.8,29.6,28.7,29.4,28.7,29,320,6.9253,238500
25/05/2014,28.8,28.9,28.6,28.8,28.7,28.7,207,6.1647,214750
26/05/2014,29,29.2,28.8,29,28.8,28.7,245,7.9835,276250
27/05/2014,29,29.7,26.3,26.3,29,28.8,478,9.6093,328500
28/05/2014,28.9,29.5,28.8,29.4,28.9,29,265,7.1953,247500
29/05/2014,29.3,29.7,28.9,29.7,29.1,28.9,380,10.2337,351000
01/06/2014,28.8,29.7,28.8,29.7,28.8,29.1,326,9.892,341750
02/06/2014,28.3,29.3,28.2,28.9,28.4,28.8,404,10.5188,365750
03/06/2014,27.9,28.5,27.8,28.4,28,28.4,397,10.786,382750
04/06/2014,27.4,28.4,27.4,28.4,27.5,28,424,10.0087,359500
05/06/2014,27.7,28.5,27.3,28.5,27.3,27.5,341,9.5448,344750
08/06/2014,26.7,27.3,26.3,27.3,26.6,27.3,456,11.7827,442000
09/06/2014,27.6,28,26.8,26.8,27.5,26.6,400,12.1361,439250
10/06/2014,28.8,28.9,27.5,27.7,28.7,27.5,707,15.7557,556000
11/06/2014,28.4,29,28.1,28.8,28.3,28.7,354,8.7776,308250
12/06/2014,29.4,29.5,28.1,28.8,29.2,28.3,851,24.302,836500
15/06/2014,28.3,29.4,28.1,29.4,28.1,29.2,299,9.5524,334000
16/06/2014,27.8,28.7,27.5,27.8,27.5,28.1,273,6.4955,234750
17/06/2014,27.1,27.6,26.8,27.5,26.9,27.5,323,7.8278,289250
18/06/2014,27,27.4,26.9,27,26.9,26.9,224,5.4647,202000
19/06/2014,27.2,27.5,27,27,27.1,26.9,146,2.8421,105000
22/06/2014,26.8,27.1,26.7,27,26.9,27.1,217,4.9884,185750
23/06/2014,27,27.5,26.7,27,27,26.9,307,7.6622,284250
24/06/2014,27,27.2,26.9,27,27,27,202,5.2762,195250
25/06/2014,27.6,27.8,26.9,27,27.4,27,319,8.0809,296250
26/06/2014,28,28.3,27.4,27.5,27.8,27.4,564,13.36,480250
29/06/2014,28.5,28.7,28.1,28.4,28.4,27.8,463,11.0156,387250
30/06/2014,28.2,29.1,28,29,28.1,28.4,292,7.2556,256250
02/07/2014,27.9,28,27.6,28,27.6,28.1,228,7.0513,254000
03/07/2014,28,28.3,27.7,27.8,27.9,27.6,222,6.1644,220750
06/07/2014,28,28.7,27.7,28.2,27.8,27.9,309,10.0801,358000
07/07/2014,27.6,28,27.5,27.9,27.5,27.8,183,4.6724,168750
08/07/2014,27.4,27.6,27.3,27.6,27.3,27.5,161,3.8095,139000
09/07/2014,27.2,27.5,27.2,27.5,27.2,27.3,140,3.9799,146000
10/07/2014,27.2,27.4,27.1,27.2,27.2,27.2,110,2.4091,88500
13/07/2014,26.9,27.3,26.7,26.7,26.8,27.2,190,5.4318,202500
14/07/2014,27.2,27.3,26.9,27,27.1,26.8,130,3.8215,141000
15/07/2014,27,27.3,26.8,26.8,27,27.1,182,6.5648,242500
16/07/2014,27.1,27.3,26.9,26.9,26.9,27,140,3.4106,126250
17/07/2014,27,27.2,26.6,27.2,26.9,26.9,239,8.5289,317500
20/07/2014,26.8,27.5,26.7,27.5,26.9,26.9,211,6.174,228750
21/07/2014,26.8,27.2,26.7,27.1,26.8,26.9,270,8.0918,300750
22/07/2014,27.5,27.7,26.9,26.9,27.2,26.8,243,8.2811,302500
23/07/2014,27.2,27.5,27,27.3,27,27.2,254,6.6276,244250
24/07/2014,27.3,27.3,26.9,27,27.2,27,199,6.6312,244250
03/08/2014,27.3,27.4,26,26,27.3,27.2,268,9.3689,344750
04/08/2014,30,30,27.2,27.2,29.8,27.3,1332,43.1577,1493500
05/08/2014,30.8,31.9,29,29.1,30.8,29.8,1525,54.0126,1738000
06/08/2014,30.3,31.3,30,30.3,30.2,30.8,942,32.9468,1075750
07/08/2014,33.2,33.2,30.3,30.8,33,30.2,2095,98.0286,3057250
10/08/2014,32.5,34.7,32.5,34.5,32.7,33,1333,51.396,1542000
11/08/2014,31.6,32.7,31.4,31.5,31.7,32.7,1031,39.4777,1234250
12/08/2014,31.6,32.6,31.5,32,31.5,31.7,824,30.1837,947000
13/08/2014,32.2,32.7,31.4,31.9,31.9,31.5,572,25.0696,783500
14/08/2014,32.2,32.9,32,32.3,32.1,31.9,629,21.6964,669500
18/08/2014,33,34.5,32.7,32.7,33.3,32.1,1275,53.6084,1592500
19/08/2014,32.9,33.9,32.4,33.6,32.7,33.3,1022,36.9261,1121500
20/08/2014,33.7,34.9,33,33.2,33.9,32.7,1812,75.4352,2214000
21/08/2014,35.9,35.9,34.1,34.3,35.5,33.9,2195,105.5745,3010000
24/08/2014,37.6,38,35.9,35.9,37.6,35.5,2062,113.902,3081750
25/08/2014,36.2,38.5,36,37.9,36.4,37.6,2105,122.9753,3297750
26/08/2014,38.8,39.5,36.8,37,38.8,36.4,2242,139.0905,3626750
27/08/2014,37.1,39.2,36.9,39.2,0,38.8,1482,68.8789,1827000
28/08/2014,36.1,38.9,36,36.9,36.2,37,2120,114.4516,3086750
31/08/2014,35.4,37.5,35.1,37.5,35.7,36.2,949,41.7978,1150500
01/09/2014,36.9,37.6,35.8,36.2,36.6,35.7,1149,57.6352,1560500
02/09/2014,37.8,38.4,37.2,37.3,37.5,36.6,1614,98.7617,2614250
03/09/2014,37,38.4,36.4,37.6,36.7,37.5,1479,70.2831,1878250
04/09/2014,36.5,37.8,36.3,36.9,36.5,36.7,1211,60.173,1629750
07/09/2014,35.7,37.6,35.2,37,35.5,36.5,1051,53.1683,1462500
08/09/2014,34.9,36,34.1,36,34.2,35.5,1178,45.6277,1309500
09/09/2014,36.1,36.6,34.6,34.8,35.9,34.2,1018,54.7696,1528250
10/09/2014,36.2,37.5,36.1,36.1,36.3,35.9,1393,63.9123,1731000
11/09/2014,38.3,38.4,35.4,36.9,37.6,36.3,1826,117.9657,3183250
14/09/2014,39.7,40.9,37.7,38.8,40.1,37.6,3267,210.7108,5308750
15/09/2014,39,40.8,38.3,40.6,38.9,40.1,1558,90.6986,2320500
16/09/2014,38.9,39.8,37.4,39.6,38.7,38.9,1297,77.6678,2007000
17/09/2014,38.5,40,38.3,39.8,38.7,38.7,1493,103.3751,2640750
18/09/2014,37.3,39.2,37.2,39.2,37.4,38.7,1660,100.2201,2644750
21/09/2014,37.4,38.7,36.9,38.7,37.1,37.4,1168,49.8326,1328750
22/09/2014,36.9,38.6,36.8,37.3,37,37.1,1108,55.7242,1478750
23/09/2014,36.7,37.7,36.5,37.2,36.6,37,795,42.6801,1162500
24/09/2014,37.4,37.8,36.3,36.3,37.1,36.6,885,44.7208,1200000
25/09/2014,37.5,38.4,37,37.7,37.4,37.1,1194,69.0841,1828250
28/09/2014,36.7,38.2,36.6,38,36.7,37.4,916,43.6314,1169750
29/09/2014,35.8,38,35.7,37.8,35.8,36.7,828,38.3392,1061750
30/09/2014,37.1,37.2,35.9,36.1,36.8,35.8,535,21.5398,587250
01/10/2014,37.1,37.9,36.4,37,36.7,36.8,739,37.5673,1009750
02/10/2014,37,37,36.1,36.6,36.4,36.7,734,33.7855,928250
12/10/2014,36.4,36.9,35.9,36.3,36,36.4,762,37.7914,1046250
13/10/2014,35,36.8,34.7,36.6,35,36,1303,49.414,1400500
14/10/2014,34.8,35.7,34.8,35.2,34.9,35,725,32.5002,924750
15/10/2014,35.5,36.3,35.1,35.1,35.4,34.9,724,33.7953,948000
16/10/2014,34.9,35.5,34.8,35.4,34.8,35.4,435,14.6202,417250
19/10/2014,34.4,35.8,34.4,35.8,34.4,34.8,389,20.0237,576500
20/10/2014,33.8,35,33.8,35,33.9,34.4,382,12.5401,367500
21/10/2014,35.2,35.2,33.9,33.9,34.9,33.9,394,13.5132,388500
22/10/2014,33.8,35.1,33.8,35,33.9,34.9,378,10.5254,308250
23/10/2014,34.5,34.6,32.1,33,34,33.9,674,33.6066,999250
26/10/2014,33.7,34.6,33.4,34.4,33.6,34,351,13.3987,394500
27/10/2014,34.3,34.3,33.2,33.5,33.9,33.6,217,7.6739,227750
28/10/2014,35.6,35.7,34,34,35.4,33.9,1169,45.6397,1303000
29/10/2014,36.8,36.8,35.2,35.7,36.4,35.4,951,43.7675,1213000
30/10/2014,37.2,37.8,35.8,35.8,37,36.4,1275,76.246,2055250
02/11/2014,36.4,37.6,35.5,37.1,36.1,37,690,44.9299,1230250
03/11/2014,35.7,36.6,35.5,35.5,35.7,36.1,527,31.1794,865750
05/11/2014,36.7,36.7,35.6,36,36.3,35.7,563,33.3025,924000
06/11/2014,37,37.5,36.3,36.3,36.8,36.3,797,39.3514,1062250
09/11/2014,37.9,38.5,36.7,36.8,38.2,36.8,1435,93.9198,2489250
10/11/2014,37.5,38,36.7,38,37,38.2,796,54.4919,1456250
11/11/2014,38.7,38.8,36.8,37.9,38.3,37,932,71.935,1901500
13/11/2014,39.4,42,38.3,38.9,39.8,38.3,3026,216.996,5389500
16/11/2014,38.7,41.5,38.4,41.5,38.6,39.8,880,43.8403,1122000
17/11/2014,36.5,38.9,36.2,38.3,36.5,38.6,1118,61.8645,1664000
18/11/2014,36.1,37.2,35.9,36.5,36,36.5,611,28.0746,772500
19/11/2014,37.7,38.2,36.5,36.5,37.8,36,742,40.028,1067000
20/11/2014,37,38.2,36.6,37.7,37.1,37.8,533,21.7649,583750
23/11/2014,36.2,36.9,35.7,36.9,35.8,37.1,300,15.0117,414750
24/11/2014,36,36.8,35.6,35.6,35.7,35.8,362,10.3183,288000
25/11/2014,35.6,36.8,35.1,36.4,35.3,35.7,262,11.1449,311250
26/11/2014,34.9,35.6,34.3,35.5,34.5,35.3,218,7.2413,208250
27/11/2014,35.1,35.5,34.4,35,34.6,34.5,228,7.6515,219250
30/11/2014,35.9,36.5,34.9,35,35.6,34.6,513,19.8277,552250
01/12/2014,36.3,36.8,35.9,36.3,36,35.6,430,19.8194,546750
02/12/2014,36.1,37,35.8,35.8,36.1,36,320,17.7138,486250
03/12/2014,36.5,36.9,36.2,36.6,36.7,36.1,422,20.939,572750
04/12/2014,36,36.6,35.9,36.6,36,36.7,353,17.8288,493000
07/12/2014,35,36.4,35,36.3,35.2,36,324,14.7653,414750
08/12/2014,35.3,36,35.3,35.6,35.4,35.2,240,12.551,353500
09/12/2014,36.5,36.8,35.3,35.6,36.4,35.4,388,21.0225,579750
10/12/2014,36.5,37.5,36.4,36.8,36.5,36.4,464,23.9517,646750
11/12/2014,37.3,37.3,36.3,36.3,37.2,36.5,219,4.465,120895
14/12/2014,36.3,37.7,36.3,37.4,36.8,37.2,518,19.13,514787
15/12/2014,37.1,37.4,36.5,36.5,37.1,36.8,337,16.864,454767
17/12/2014,38.3,38.5,37,37.2,38.1,37.1,863,48.449,1278055
18/12/2014,38.1,38.7,37.7,38.3,38.1,38.1,456,18.931,494743
21/12/2014,39,39.4,37.8,38.4,39,38.1,837,39.023,1001827
22/12/2014,37.5,39.3,37.1,39.3,37.4,39,510,29.228,768970
23/12/2014,37.2,38,37,37.2,37.1,37.4,339,16.471,440645
24/12/2014,37,37.9,36.8,37.9,36.9,37.1,296,11.668,314823
28/12/2014,37.2,37.2,36.4,36.8,36.8,36.9,242,12.252,333890
29/12/2014,36.9,37.4,36.2,37.4,36.7,36.8,392,13.42,366010
30/12/2014,36,37,36,37,36.2,36.7,338,20.385,559792
01/01/2015,37.5,38,36.5,36.7,37.6,36.2,433,20.936,560965
05/01/2015,36.7,37.5,36.6,37.5,36.8,37.6,192,5.434,147076
06/01/2015,37.4,38,36.2,36.4,37.5,36.8,418,22.981,610090
07/01/2015,37.5,38.1,37,37.7,37.1,37.5,375,17.031,453852
08/01/2015,38.3,38.4,37.3,37.8,38.1,37.1,583,30.886,816713
11/01/2015,38.5,39.5,38.4,38.5,38.8,38.1,924,49.118,1262545
12/01/2015,39.9,40.4,39,39,39.8,38.8,1313,89.588,2256441
13/01/2015,39.1,40.1,38.8,39.9,39.2,39.8,766,53.152,1345027
14/01/2015,37.7,39.5,37.7,39.5,38,39.2,805,44.74,1159279
15/01/2015,38.4,39.5,38.1,38.1,38.6,38,667,39.337,1012239
18/01/2015,37.8,38.8,37.8,38.2,37.9,38.6,463,31.043,815783
19/01/2015,38,38.2,37,37.7,37.5,37.9,316,15.905,423139
20/01/2015,37.2,38.5,37,38,37.4,37.5,349,25.328,675304
21/01/2015,36.8,37.3,36.1,37.1,36.7,37.4,340,14.691,399135
22/01/2015,37.7,37.7,36.5,36.9,37.2,36.7,407,11.759,316880
25/01/2015,35.9,37.2,35.9,36.8,36.1,37.2,269,10.14,278055
26/01/2015,36.5,37,36,36.6,36.8,36.1,213,8.005,219994
27/01/2015,37.5,37.5,36.4,36.6,37.4,36.8,359,15.337,412925
28/01/2015,37.4,38.5,36.9,37.8,37.2,37.4,1600,98.304,2599824
29/01/2015,37.8,37.9,36.8,37.7,37.8,37.2,647,45.18,1203132
01/02/2015,37.2,38.1,36.9,37.4,37.1,37.8,838,75.656,2027988
02/02/2015,38.2,38.7,36.6,37,38,37.1,747,39.735,1049276
03/02/2015,38.9,39.2,37.8,37.9,38.9,38,1224,87.069,2240473
04/02/2015,39,39.8,38.3,38.9,39.2,38.9,1089,71.179,1813022
05/02/2015,39,39.2,38.7,39.1,39.1,39.2,532,35.697,915910
08/02/2015,38.9,39.6,38.8,39,38.9,39.1,725,51.166,1306953
09/02/2015,38.1,39.5,37.9,39.5,38.1,38.9,869,52.969,1375425
10/02/2015,39,39,38.1,38.6,38.8,38.1,615,33.146,861252
11/02/2015,39.4,40.4,38.4,38.8,39.5,38.8,1825,134.656,3424986
12/02/2015,40.8,41.8,39.6,39.9,40.9,39.5,2264,140.487,3425719
15/02/2015,40.2,41.2,40,41.2,40.2,40.9,1226,59.083,1461749
16/02/2015,40.6,41,40,40.4,40.6,40.2,1519,81.071,1996833
17/02/2015,41.9,42.6,40.6,40.8,41.7,40.6,2215,126.845,3038629
18/02/2015,41.2,42.5,40.9,41.6,41.2,41.7,1215,54.325,1305966
19/02/2015,40.4,42.6,39.5,42.6,40.1,41.2,1551,78.714,1949334
22/02/2015,41.1,41.3,39.7,40.7,41.1,40.1,1052,57.143,1406998
23/02/2015,39.9,41.4,39.8,41.4,40,41.1,1200,60.08,1486239
24/02/2015,39.6,40.8,39.5,40,39.7,40,922,52.829,1320309
25/02/2015,38.3,40.1,38.2,40.1,38.5,39.7,1325,73.096,1874364
26/02/2015,39,39.4,38.2,39,38.8,38.5,720,28.957,747738
01/03/2015,38.1,39.4,38.1,39.1,38.3,38.8,1032,43.476,1128634
02/03/2015,37.8,38.8,37.5,38.2,37.7,38.3,719,32.295,850527
03/03/2015,37.6,37.8,37,37.6,37.4,37.7,842,19.088,513200
04/03/2015,38.1,38.3,37.3,37.3,37.9,37.4,524,20.294,536963
05/03/2015,37.3,38.3,37.2,37.8,37.4,37.9,479,18.87,503776
08/03/2015,37.4,37.6,37,37.4,37.4,37.4,465,24.733,663074
09/03/2015,37.6,38.4,37.5,37.8,37.7,37.4,694,28.082,742083
10/03/2015,38.1,38.7,38,38,38.2,37.7,651,23.088,603242
11/03/2015,37.5,38.5,37.2,38.5,37.4,38.2,544,22.191,587219
12/03/2015,37,37.7,36.9,37.5,37.1,37.4,799,37.084,997041
15/03/2015,36.6,37.7,36.4,37.7,36.7,37.1,536,19.817,538387
16/03/2015,36.1,37,36,36.9,36.1,36.7,472,15.997,440425
18/03/2015,36.4,36.8,35.5,35.8,36.5,36.1,458,15.321,423761
19/03/2015,36.6,37,36.3,36.8,36.7,36.5,371,18.594,507677
22/03/2015,37.6,38.2,36.8,36.9,37.9,36.7,742,26.494,707496
23/03/2015,37,38.1,36.9,38.1,37,37.9,461,15.14,406189
24/03/2015,36.7,37.4,36.5,37.3,36.6,37,377,14.595,395360
25/03/2015,36.7,37.2,36.3,37.2,36.6,36.6,502,26.837,732244
29/03/2015,37.5,37.8,37.3,37.3,37.5,36.6,750,35.654,950574
30/03/2015,37.6,38.3,37.2,37.6,37.5,37.5,917,35.092,928272
31/03/2015,38.4,38.6,37.4,37.4,38.5,37.5,897,47.588,1248090
01/04/2015,37.4,38.7,37.1,38.6,37.3,38.5,780,34.126,904946
02/04/2015,36.9,37.6,36.8,37.5,36.9,37.3,421,12.886,347592
05/04/2015,36.6,37.1,35.9,37,36.1,36.9,880,26.279,723769
06/04/2015,35.7,37,35.6,36.3,35.8,36.1,587,24.687,684661
07/04/2015,34.5,35.7,34.5,35.7,34.8,35.8,721,23.513,674415
08/04/2015,34.1,35.2,33.9,35,34.4,34.8,775,23.628,687298
09/04/2015,34.2,35.4,33.9,34.6,34,34.4,808,26.157,762109
12/04/2015,33.3,34.9,33,34.7,33.2,34,628,20.388,610151
13/04/2015,33.6,34,33,33.7,33.5,33.2,855,26.479,790459
15/04/2015,34.8,35.7,33.8,34,34.9,33.5,1099,38.514,1112095
16/04/2015,34.3,35.5,33.7,35.3,34,34.9,1005,31.853,926001
19/04/2015,35.1,35.6,34,34.3,35,34,1257,40.434,1159076
20/04/2015,34.1,35.8,34,35.1,34.4,35,1027,34.176,978333
21/04/2015,35.3,35.5,34,34.3,35.1,34.4,1150,38.295,1096112
22/04/2015,34.4,35.5,34.3,35.4,34.6,35.1,757,31.234,892904
23/04/2015,33.9,34.6,33.7,34.5,33.8,34.6,637,22.378,655545
26/04/2015,32,34.2,32,33.6,32.6,33.8,497,13.435,406857
27/04/2015,32.4,33.2,32,33.2,32.4,32.6,396,13.451,414602
29/04/2015,29.2,32,29.2,32,29.3,32.4,809,17.5,583263
30/04/2015,27.1,29.8,26.9,29.8,27.3,29.3,589,12.508,453293
04/05/2015,27,28,26.8,27.8,27.1,27.3,479,9.72,353836
05/05/2015,27.5,27.9,27.2,27.9,27.5,27.1,490,8.983,325875
06/05/2015,28.5,29,27.6,27.8,28.5,27.5,565,10.934,385589
07/05/2015,29.7,30.1,28.4,28.9,29.5,28.5,710,20.589,700214
10/05/2015,32.4,32.4,30,30,32.4,29.5,811,32.511,1010239
11/05/2015,32.6,35.2,32.2,32.7,32.7,32.4,1164,33.829,1019537
12/05/2015,31.8,32.6,31.1,32.6,31.5,32.7,869,18.875,593097
13/05/2015,33.1,33.2,31.8,32.2,32.8,31.5,722,28.922,882079
14/05/2015,33,34.8,32.7,34,33,32.8,931,29.987,899150
17/05/2015,32.9,33.9,32.8,33.9,33,33,527,14.806,445845
18/05/2015,33.1,34.1,33,33.5,33.2,33,1055,44.507,1330719
19/05/2015,33.9,34.5,33.2,33.5,33.4,33.2,1028,39.069,1158967
20/05/2015,35,35.6,33.7,34.4,34.8,33.4,1689,71.516,2066826
21/05/2015,34.3,35.6,34,34.6,34.1,34.8,984,34.481,993778
24/05/2015,34.8,35,34.3,35,34.5,34.1,498,18.981,547239
25/05/2015,35,35.2,34.5,35,34.9,34.5,998,38.688,1108949
26/05/2015,35.5,36.6,35.4,35.4,35.6,34.9,1750,77.959,2162309
27/05/2015,35.7,36.3,34.9,36.3,35.7,35.6,991,51.052,1438673
28/05/2015,38.1,38.7,35.7,35.7,37.8,35.7,2502,114.404,3070553
31/05/2015,37.8,38.5,37.2,38.2,37.3,37.8,1293,48.655,1287517
01/06/2015,36.5,38.6,36.5,37.7,36.7,37.3,1304,59.631,1584135
02/06/2015,35.9,37.6,35.2,37.4,35.5,36.7,1150,39.65,1096307
04/06/2015,37.7,37.9,35.2,36,37.1,35.5,800,31.178,851689
07/06/2015,36,38.5,35.5,38,35.8,37.1,1121,53.784,1470174
08/06/2015,34.3,36.1,34,36,34.4,35.8,1036,30.768,883080
09/06/2015,33.9,35.3,33.7,35.3,33.9,34.4,550,17.249,503985
10/06/2015,33.5,34.9,33.4,34,33.7,33.9,555,18.105,531083
11/06/2015,33.4,34.3,32.8,34,33,33.7,580,15.053,453376
14/06/2015,32.4,33.1,32.3,32.7,32.7,33,426,15.68,480162
15/06/2015,32.7,33.2,32.1,32.7,32.7,32.7,404,8.665,264494
16/06/2015,33,33.4,32.5,33.3,33.1,32.7,448,20.065,610889
17/06/2015,33.6,34.1,33,33,33.8,33.1,483,21.325,635829
18/06/2015,33.5,34.5,33.4,34.2,33.6,33.8,466,21.406,632986
21/06/2015,33.3,33.8,33,33.6,33.2,33.6,292,14.517,433067
22/06/2015,33,33.6,32.9,33.2,33.1,33.2,332,14.2,427250
23/06/2015,32.6,33.3,32.5,33.2,32.7,33.1,354,10.114,309060
24/06/2015,32.8,32.8,32.3,32.5,32.5,32.7,341,8.855,272206
25/06/2015,32.4,32.7,32.2,32.3,32.5,32.5,177,5.386,165991
28/06/2015,32.6,33.1,32.5,32.7,32.7,32.5,310,7.654,233317
29/06/2015,33.1,33.1,32.7,32.8,32.9,32.7,322,8.666,263443
30/06/2015,33.4,33.5,33.1,33.2,33.2,32.9,348,10.345,310221
02/07/2015,33.2,33.6,33.1,33.4,33.3,33.2,361,10.37,310920
05/07/2015,33,33.8,32.9,33.5,33,33.3,267,7.689,230782
06/07/2015,32.5,33.4,32.4,33.3,32.6,33,386,10.073,307458
07/07/2015,33.6,33.8,32.8,32.9,33.4,32.6,500,16.661,497729
08/07/2015,34.4,34.9,33.7,33.8,34.3,33.4,925,29.446,857680
09/07/2015,34,34.8,33.9,34.5,34,34.3,356,11.301,331043
12/07/2015,33.6,34.3,33.5,34.1,33.7,34,290,11.298,334950
13/07/2015,33.5,33.6,33.2,33.6,33.4,33.7,209,8.773,262754
14/07/2015,33.9,33.9,33.4,33.7,33.7,33.4,353,9.229,274671
21/07/2015,34,34.4,33.6,34.4,33.9,33.7,252,8.403,247765
22/07/2015,33.8,34.2,33.5,34.2,33.8,33.9,508,18.652,551718
23/07/2015,33.8,34.3,33.6,33.9,33.7,33.8,534,24.566,724349
26/07/2015,33.8,34.1,33.6,34,33.8,33.7,419,15.15,447883
27/07/2015,33.4,33.8,33.3,33.7,33.4,33.8,364,15.018,448226
28/07/2015,33.6,33.8,33.4,33.5,33.5,33.4,424,16.559,492766
29/07/2015,33.7,34.6,33.4,34.6,33.7,33.5,382,14.379,426592
30/07/2015,33.6,33.9,33.3,33.7,33.6,33.7,528,15.526,462678
02/08/2015,33.8,34.1,33.5,34.1,33.6,33.6,355,15.563,462112
03/08/2015,33.9,34,33.5,33.9,33.9,33.6,522,14.716,434559
04/08/2015,34.6,34.9,34.1,34.1,34.6,33.9,1018,39.153,1131780
05/08/2015,34,34.8,33.8,34.8,33.9,34.6,540,21.154,617267
06/08/2015,33.8,34.3,33.7,33.8,33.8,33.9,462,16.651,491897
09/08/2015,33.8,34,33.5,33.8,33.6,33.8,386,14.889,442341
10/08/2015,33.4,33.8,33.3,33.6,33.4,33.6,330,12.201,363984
11/08/2015,33,33.8,32.9,33.8,33,33.4,431,13.695,411792
12/08/2015,33.3,33.9,33,33.9,33.1,33,279,9.354,282133
13/08/2015,33,33.5,32.8,33.1,32.9,33.1,381,11.995,362850
16/08/2015,32.9,33.3,32.6,32.7,32.9,32.9,286,9.487,288080
17/08/2015,32.9,33,32.7,33,32.8,32.9,237,6.715,204545
18/08/2015,33,33.2,32.5,32.9,32.9,32.8,306,7.194,219714
19/08/2015,33,33.7,32.7,33.5,32.9,32.9,169,5.037,153073
20/08/2015,33.2,33.5,32.9,33.1,33.3,32.9,283,7.888,236953
23/08/2015,33,33.5,33,33.5,33.1,33.3,179,5.267,158700
24/08/2015,32.7,33.3,32.7,33,32.8,33.1,195,7.641,232398
25/08/2015,32.9,33.3,32.5,33.2,33,32.8,419,11.21,338925
26/08/2015,32.8,33.2,32.8,33,32.9,33,130,3.329,101100
27/08/2015,32.9,33.1,32.6,33.1,32.7,32.9,105,2.498,76095
30/08/2015,32.5,32.8,32.4,32.8,32.5,32.7,169,4.262,130965
31/08/2015,32.6,32.6,32.2,32.5,32.3,32.5,185,5.655,175250
01/09/2015,31.4,32.2,31.3,32.1,31.5,32.3,298,11.304,356311
02/09/2015,31.8,32.3,31.7,32.3,31.8,31.5,212,5.312,166346
03/09/2015,32.2,32.2,31.3,31.8,31.8,31.8,275,6.718,212457
06/09/2015,32.7,32.7,32.1,32.1,32.5,31.8,286,6.775,209181
07/09/2015,32.3,32.7,32,32.5,32.2,32.5,305,6.715,207908
08/09/2015,32,32.4,31.8,32.2,31.9,32.2,322,5.589,174592
09/09/2015,31.7,32.1,31.7,31.9,31.8,31.9,257,5.169,161977
10/09/2015,32.1,33.5,31.9,32.4,32,31.8,226,5.223,162295
13/09/2015,31.4,32.2,31.4,32,31.6,32,271,4.402,138394
14/09/2015,31.9,32.2,31.7,31.8,31.9,31.6,112,2.786,87405
15/09/2015,31.8,32,31.8,31.8,31.9,31.9,152,5.828,182836
16/09/2015,31.7,32,31.7,31.8,31.7,31.9,150,3.892,122431
17/09/2015,32,32.1,31.8,31.8,31.8,31.7,164,3.81,119571
20/09/2015,31.8,32.2,31.8,31.9,31.9,31.8,79,2.161,67635
21/09/2015,32,32,31.7,31.9,31.8,31.9,91,1.435,45119
22/09/2015,31.9,32.2,31.8,32,31.9,31.8,141,4.285,134221
28/09/2015,31.9,32,31.8,31.8,31.9,31.9,115,3.42,107409
29/09/2015,32,32,31.7,32,31.8,31.9,125,4.006,125910
30/09/2015,31.8,31.9,31.6,31.9,31.8,31.8,153,5.166,162921
01/10/2015,32.7,32.8,31.6,31.7,32.6,31.8,359,8.243,256112
04/10/2015,32.2,33,32.1,33,32.2,32.6,216,5.109,157532
05/10/2015,31.7,32,31.5,31.7,31.8,32.2,140,3.241,101981
06/10/2015,31.7,32.2,31.7,32.2,31.8,31.8,118,2.646,83157
07/10/2015,31.7,31.8,31.5,31.7,31.6,31.8,142,3.635,114860
08/10/2015,31.3,31.7,31.2,31.5,31.3,31.6,160,2.816,89811
11/10/2015,30.5,31.1,30.1,30.5,30.3,31.3,200,2.69,88318
12/10/2015,30.6,30.8,30.3,30.5,30.6,30.3,100,1.52,49851
13/10/2015,29.5,30.8,29.5,30.8,30.1,30.6,146,3.326,109674
14/10/2015,29.4,29.9,29.4,29.6,29.5,30.1,153,2.721,92040
15/10/2015,29.5,30,29.3,29.4,29.5,29.5,82,1.32,44560
18/10/2015,28.7,29.5,28.5,29,28.6,29.5,104,1.248,43290
19/10/2015,28.2,29,28.1,28.9,28.3,28.6,160,3.696,129973
20/10/2015,28.9,29,27.9,27.9,28.9,28.3,260,4.354,151873
21/10/2015,30.8,30.8,28.9,29.1,30.2,28.9,266,3.803,128421
25/10/2015,30.7,31.2,30.3,30.6,30.7,30.2,251,5.876,191721
26/10/2015,29.2,30.3,28.9,30.3,29.1,30.7,264,5.673,194198
27/10/2015,28.2,29,27.9,29,28.3,29.1,234,3.714,131743
28/10/2015,28,28.2,27.6,28.2,27.9,28.3,111,1.54,55191
29/10/2015,28.1,28.3,27.8,27.9,28.2,27.9,182,2.527,90036
01/11/2015,26,28,26,27.6,27.2,28.2,144,3.587,130758
02/11/2015,26.9,27,26.3,26.3,26.8,27.2,119,1.928,72280
03/11/2015,28.1,28.4,26.8,26.8,28.1,26.8,210,3.649,131592
04/11/2015,27.6,28.1,27.2,28.1,27.5,28.1,141,2.552,92824
05/11/2015,27.6,27.8,27.3,27.7,27.4,27.5,114,2.712,98773
08/11/2015,26.7,27.4,26.7,27.3,26.8,27.4,114,1.64,60705
09/11/2015,26.3,26.8,26.2,26.7,26.4,26.8,172,4.025,152365
10/11/2015,26.6,27.7,26.4,26.8,26.5,26.4,101,1.794,67260
11/11/2015,26.4,26.7,26,26.5,26.2,26.5,138,2.334,88635
12/11/2015,26.7,26.8,26.1,26.8,26.4,26.2,122,1.852,70545
15/11/2015,26.2,26.4,26,26.4,26.1,26.4,161,2.608,99435
17/11/2015,27,27.4,25.6,26,27,26.1,323,7.183,269273
18/11/2015,27,27.1,26.6,27,26.8,27,126,2.311,85920
19/11/2015,27.3,27.3,26.7,26.8,26.9,26.8,171,3.319,122938
22/11/2015,27.6,27.6,27,27.5,27.2,26.9,204,3.287,120443
23/11/2015,27.7,28,27.2,27.2,27.6,27.2,288,6.687,242121
24/11/2015,27.3,27.6,27.2,27.5,27.2,27.6,109,1.679,61465
25/11/2015,26.8,27.8,26.8,27.5,26.9,27.2,107,1.454,53708
26/11/2015,25.3,26.1,24.8,26.1,25.2,26.9,520,7.592,300998
29/11/2015,25,25.6,25,25,25.1,25.2,225,4.894,194292
30/11/2015,25.6,25.8,25,25.1,25.5,25.1,288,5.578,219659
01/12/2015,25.6,26.3,25.5,25.5,25.7,25.5,214,3.693,142450
02/12/2015,25.7,26.3,25.7,26,25.7,25.7,249,4.838,186570
03/12/2015,26,26.1,25.5,26,25.8,25.7,212,3.849,149689
06/12/2015,27.4,27.4,26.1,26.3,27.3,25.8,474,10.514,390541
07/12/2015,26.5,27.7,26,27.7,26.4,27.3,328,7.856,299025
08/12/2015,26.2,27.9,25.9,26.7,26,26.4,383,11.543,438473
09/12/2015,26,26.6,25.7,26.6,25.9,26,280,6,231029
10/12/2015,26,26.8,25.8,26.5,25.9,25.9,347,7.333,280532
13/12/2015,25.6,26.5,25.6,26.5,25.8,25.9,174,3.143,121272
14/12/2015,25.4,26.2,25.4,26.2,25.6,25.8,223,4.663,182276
15/12/2015,25.7,25.8,25,25.8,25.4,25.6,206,5.526,219491
17/12/2015,25.2,25.8,25,25.8,25.1,25.4,162,2.097,83250
20/12/2015,24.9,25.7,24.8,25.7,25,25.1,185,3.971,158792
21/12/2015,25.5,25.5,25.2,25.4,25.4,25,122,2.262,89098
22/12/2015,25.5,25.8,25.3,25.7,25.7,25.4,219,3.361,131200
23/12/2015,25.1,26,25.1,26,25.3,25.7,189,4.704,185455
24/12/2015,25.5,25.6,25.2,25.5,25.4,25.3,127,2.847,112137
27/12/2015,25.5,25.8,25.5,25.8,25.6,25.4,190,2.841,111037
28/12/2015,25.6,25.7,25.4,25.7,25.5,25.6,139,2.443,95676
29/12/2015,25.3,25.8,25,25.8,25.2,25.5,275,7.032,277755
30/12/2015,25.2,25.4,25.1,25.1,25.2,25.2,166,3.016,119492
31/12/2015,25.2,25.5,25.2,25.5,25.3,25.2,182,4.2,165866
02/01/2016,22.8,23.5,22.3,23.2,23,23.6,364,5.755,251545
03/01/2016,20.4,21.7,20.4,21.7,21.1,21.6,204,2.797,131852
06/01/2016,24.2,24.5,23.9,23.9,24.2,23.5,284,6.183,256085
08/01/2016,24.4,24.4,22.8,22.8,24.3,22.8,1051,29.145,1219864
09/01/2016,23.3,23.5,23.2,23.3,23.3,23.3,171,5.018,214728
11/01/2016,23.6,24.8,23.4,24.8,23.6,24.7,491,13.483,563807
12/01/2016,32.4,33.2,30.5,30.5,32.7,30.4,1975,126.394,3924993
13/01/2016,27.5,27.9,27.2,27.4,27.7,27,479,13.26,480557
14/01/2016,26.7,27.8,26.7,27.5,26.9,27.7,441,9.069,333715
16/01/2016,27.3,28.1,27.2,27.9,27.4,27.8,325,7.584,274846
17/01/2016,26.3,27.3,26.3,26.8,26.4,26.9,254,5.151,193942
18/01/2016,27.8,28,26.5,27,27.8,26.4,571,15.949,584488
20/01/2016,27.1,27.4,26.7,27.4,26.9,27.4,276,7.484,276756
21/01/2016,26.9,27.2,26.7,27.1,26.8,26.9,181,3.98,147980
24/01/2016,27.3,27.5,26.5,27.1,27.4,26.8,321,5.691,208985
25/01/2016,27.4,28.4,27.4,27.6,27.5,27.4,505,10.947,392028
26/01/2016,26.9,27.6,26.8,27.5,27,27.5,244,5.942,219355
27/01/2016,26.6,27.3,26.3,26.3,26.6,27,179,3.557,133529
28/01/2016,26.2,26.9,26,26.9,26.2,26.6,230,4.757,181144
31/01/2016,23.6,26,23.6,26,23.6,26.2,519,9.592,400947
02/02/2016,22.9,23.5,22.6,23.3,22.8,23,320,6.389,277266
03/02/2016,21.4,21.7,21,21.1,21.4,21.1,152,2.452,114680
05/02/2016,22.4,22.9,22,22.9,22.2,22.7,187,4.704,210339
06/02/2016,24.1,24.2,23.9,24.1,24,24.2,257,6.062,251959
08/02/2016,24.1,25,23.9,24.3,24.1,24.3,621,19.246,783845
10/02/2016,24.3,24.5,24,24,24.1,23.8,335,8.594,355194
11/02/2016,23.7,24.6,23.5,24,23.8,23.6,429,13.24,550678
14/02/2016,23.2,23.5,22.9,23.1,23,23.1,108,1.954,84487
15/02/2016,22.8,23.2,22.8,22.9,22.9,23,104,1.309,57122
17/02/2016,22.8,22.9,22.4,22.8,22.8,22.6,230,3.691,163761
18/02/2016,22.6,22.9,22.6,22.8,22.8,22.8,101,1.201,52689
22/02/2016,22.5,22.8,22.4,22.7,22.6,22.8,118,1.412,62573
23/02/2016,22.5,22.6,22.4,22.5,22.5,22.6,111,1.888,83982
24/02/2016,22.1,22.6,22.1,22.6,22.3,22.5,171,3.393,151233
25/02/2016,22.1,22.5,22.1,22.2,22.1,22.3,176,2.373,107023
28/02/2016,21.8,22.3,21.7,22.3,21.8,22.1,177,2.111,96030
29/02/2016,21.7,21.8,21.5,21.8,21.6,21.8,126,1.608,74541
01/03/2016,25.5,25.5,25.2,25.5,25.3,25.3,183,3.86,152571
02/03/2016,22.8,23.2,22.3,23.1,22.7,22.8,220,4.376,193197
03/03/2016,21.4,21.7,21.4,21.5,21.4,21.4,93,1.446,67389
04/03/2016,24.7,24.7,22.2,22.2,24.7,22.5,1047,23.798,977982
05/03/2016,23.5,23.8,22.4,22.4,23.6,22.2,337,5.99,257961
08/03/2016,24.1,24.5,23.7,23.8,23.9,24.1,445,16.889,702015
10/03/2016,24,24.3,23.8,24.2,23.9,24.1,186,4.963,206605
11/03/2016,24.4,24.5,23.5,23.5,24.4,23.8,241,8.65,356489
13/03/2016,22.5,23.1,22.4,23.1,22.5,22.9,166,2.895,127783
14/03/2016,22.7,22.7,22.4,22.5,22.6,22.5,84,1.64,72836
15/03/2016,22.5,23,22.4,22.4,22.6,22.6,121,1.954,85885
16/03/2016,22.7,23,22.5,22.5,22.7,22.6,67,1.269,55955
20/03/2016,22,22.8,22,22.8,22.3,22.7,131,1.995,89087
21/03/2016,22.3,22.7,22.3,22.3,22.4,22.3,77,1.062,47332
22/03/2016,22.2,22.5,22.1,22.5,22.1,22.4,102,2.353,105899
23/03/2016,22.2,22.5,22,22,22.2,22.1,111,1.59,72075
24/03/2016,22.2,22.3,21.9,22.3,22,22.2,91,0.991,44938
27/03/2016,22,22.2,22,22,22.1,22,57,0.76,34436
28/03/2016,21.9,22.2,21.7,22,21.7,22.1,105,1.046,47810
29/03/2016,21.7,22,21.6,22,21.9,21.7,103,1.085,49796
30/03/2016,22.6,22.6,21.8,21.8,22.5,21.9,116,2.012,90140
31/03/2016,22.6,22.6,22.2,22.4,22.5,22.5,124,1.472,65661
01/04/2016,27.7,27.7,25.6,25.6,27.3,25.3,1122,24.281,910012
02/04/2016,22.9,23,22.6,22.7,22.7,22.7,193,3.695,162328
04/04/2016,24.8,25.5,24.1,24.7,24.9,24.7,588,10.642,429079
05/04/2016,22.9,23.6,22.8,23.6,22.9,23.6,182,4.632,200205
08/04/2016,23.9,24.2,23.5,24,23.9,23.9,297,9.76,410109
09/04/2016,23.4,23.4,23.2,23.2,23.3,23.3,132,4.048,173610
10/04/2016,23.6,24,23.5,24,23.6,23.9,270,7.589,321053
12/04/2016,33.4,34.4,32.1,32.7,32.9,32.7,1670,116.347,3477322
13/04/2016,22.8,23.2,22.4,23,23,22.7,180,4.069,177853
17/04/2016,23.3,23.5,22.8,22.9,23.1,23,159,3.144,135459
18/04/2016,22.9,23.3,22.9,22.9,23,23.1,97,1.602,69543
19/04/2016,22.5,23.2,22.5,23.2,22.6,23,181,3.624,159196
20/04/2016,22.3,22.8,22.2,22.5,22.4,22.6,117,1.988,88290
21/04/2016,22,22.6,21.9,22.3,22,22.4,187,2.907,131111
24/04/2016,22.3,22.7,21.8,22.1,21.9,22,172,2.805,127017
25/04/2016,21.9,22.5,21.7,22.5,21.8,21.9,135,2.093,95723
26/04/2016,22.2,22.3,21.8,21.8,22.1,21.8,82,1.394,63147
27/04/2016,22.2,23,21.8,22,22.3,22.1,169,2.894,129248
28/04/2016,22.5,23.6,22.5,22.9,22.7,22.3,327,5.943,259013
01/05/2016,27,27.5,26.6,27.5,27,27.3,384,8.247,306506
04/05/2016,23.9,24.5,23.8,24.3,23.9,24.9,288,5.683,236604
05/05/2016,22.5,23.1,22.5,23,22.6,22.9,240,4.768,210187
06/05/2016,23.2,24.1,23.1,24.1,23.2,24,271,6.178,263323
09/05/2016,23.4,23.7,23.3,23.4,23.5,23.3,232,5.596,238035
10/05/2016,24.3,24.6,23.6,23.6,24.2,23.6,595,18.385,760779
12/05/2016,34.3,34.6,33,33,34.3,32.9,1316,105.422,3103883
15/05/2016,22.1,22.4,22,22.3,22.1,22.5,86,1.598,72238
16/05/2016,22.3,22.6,22.2,22.2,22.3,22.1,99,2.025,90825
17/05/2016,22.5,22.6,22.3,22.5,22.4,22.3,55,0.917,40830
18/05/2016,23.3,23.4,22.6,22.6,23.3,22.4,400,7.568,329630
19/05/2016,23.6,24,23.4,23.4,23.4,23.3,383,7.767,328168
22/05/2016,24,24,23.1,23.5,23.7,23.4,303,7.601,322312
24/05/2016,24.3,24.6,23.7,23.7,24.2,23.7,420,9.683,398872
25/05/2016,23.7,24.4,23.4,24.2,23.5,24.2,233,4.339,182390
26/05/2016,23.8,24.1,23.2,23.2,23.9,23.5,248,7.069,297149
29/05/2016,24.7,24.9,24,24.1,24.5,23.9,591,15.96,651563
30/05/2016,23.8,25,23.7,24.9,23.9,24.5,374,9.182,377529
31/05/2016,23.6,24,23.5,24,23.5,23.9,254,5.497,232183
01/06/2016,27.4,27.5,26.8,26.9,27.4,27,506,13.684,502465
03/06/2016,21.5,21.6,21.3,21.3,21.5,21.4,98,1.18,55086
04/06/2016,24.8,25.4,23.3,23.3,24.6,23.9,569,11.683,473988
06/06/2016,23.1,23.5,22.9,23.2,23.2,23.2,150,3.239,140528
09/06/2016,23.5,24.2,23.5,23.5,23.6,23.5,469,14.947,625280
10/06/2016,24.1,24.4,23.8,24.4,24,24.2,297,6.435,268112
11/06/2016,24.1,24.5,23.9,24.3,24.1,24.4,456,18.481,765518
12/06/2016,34,35.2,33.8,34.3,34,34.3,1116,78.33,2279034
13/06/2016,23,23.4,22.8,23,22.9,22.8,85,2.959,128567
14/06/2016,23,23.2,22.8,22.9,23.1,22.9,115,2.674,116174
15/06/2016,23.1,23.5,23,23.2,23.3,23.1,222,5.748,246665
16/06/2016,23,23.3,23,23.3,23,23.3,114,2.848,123226
19/06/2016,22.9,23,22.6,23,22.7,23,133,2.962,130293
20/06/2016,22.6,22.8,22.5,22.8,22.5,22.7,110,1.652,73104
21/06/2016,22.7,22.9,22.7,22.7,22.7,22.5,41,0.79,34691
21/06/2016,22.7,23,22.5,22.8,22.6,22.9,214,2.696,118875
22/06/2016,22.9,23.1,22.8,22.8,22.9,22.7,166,3.305,143609
23/06/2016,23.1,23.3,22.9,23.1,23,22.9,99,2.3,99701
25/06/2016,23.3,23.5,22.7,22.7,23.3,23,185,5.038,216256
26/06/2016,23.5,23.6,23.1,23.5,23.4,23.3,188,4.569,195345
28/06/2016,23,23.7,23,23.7,23.2,23.4,218,5.29,227145
29/06/2016,23.3,23.4,22.9,23,23.2,23.2,167,3.34,144427
30/06/2016,23.4,23.7,23.1,23.7,23.4,23.2,132,3.602,155043
01/07/2016,27.2,27.6,26.8,27,27.1,27.4,350,8.022,296459
02/07/2016,22.7,23.2,22.7,23,22.8,22.7,178,1.892,82815
03/07/2016,23.3,23.5,21.5,21.6,23.3,21.5,382,5.255,232223
04/07/2016,24.8,25.9,24.4,25,24.6,24.6,567,13.227,525529
06/07/2016,22.8,23.2,22.7,23,22.8,23.2,151,3.477,151640
08/07/2016,23.2,24,23.2,24,23.3,23.9,158,5.652,240880
09/07/2016,23.6,23.9,23.5,23.9,23.6,23.6,112,3.641,154333
12/07/2016,34.4,35.8,33.8,34.3,34.5,34,1538,116.582,3331303
13/07/2016,23.1,23.4,23,23.4,23,23.2,150,4.243,184054
14/07/2016,23,23.1,22.9,22.9,23,23,80,1.545,67144
16/07/2016,23.2,23.5,23,23.1,23.2,23,168,4.024,173605
17/07/2016,22.9,23.2,22.9,23.2,23,23.2,117,2.446,106396
18/07/2016,22.8,23,22.8,23,22.9,23,122,2.231,97436
19/07/2016,22.9,23.2,22.9,23,23,22.9,107,2.122,92259
20/07/2016,22.9,23.2,22.6,23.1,22.7,23,154,3.548,155635
21/07/2016,23,23.1,22.6,22.8,22.9,22.7,117,2.364,103762
24/07/2016,22.9,22.9,22.7,22.8,22.8,22.9,93,1.516,66512
25/07/2016,22.8,23,22.6,22.6,22.8,22.8,69,1.81,79281
26/07/2016,22.7,23.1,22.7,22.8,22.8,22.8,126,3.169,138819
27/07/2016,22.7,23,22.6,23,22.7,22.8,136,3.203,140827
28/07/2016,23,23,22.6,22.9,22.8,22.7,107,3.22,141696
31/07/2016,22.9,23,22.7,22.8,22.8,22.8,112,2.517,110463
02/08/2016,22.7,23,22.7,22.8,22.8,22.8,136,1.653,72322
03/08/2016,23.6,24,23.1,23.6,23.8,23.3,523,10.985,465323
05/08/2016,23,23.1,22.4,22.6,22.9,22.6,149,2.568,112360
06/08/2016,22.8,23.5,22.6,23.5,22.9,22.8,99,1.628,70589
08/08/2016,23.3,23.9,23.3,23.5,23.4,23.3,277,8.527,361422
09/08/2016,23.4,23.6,23.2,23.6,23.3,23.6,163,5.008,214165
11/08/2016,23.6,24,23.2,23.8,23.5,24.1,483,15.431,655143
12/08/2016,34.7,35.5,33.9,35,34.6,34.5,1101,83.084,2411929
14/08/2016,23.2,23.7,23,23.7,23.2,23.2,218,4.66,201067
16/08/2016,23,23.5,22.8,23.3,22.9,23.2,332,8.549,372013
17/08/2016,23.2,23.4,22.9,23,23.1,22.9,115,2.792,120567
18/08/2016,23.2,23.4,23.1,23.3,23.3,23.1,184,5.272,226962
21/08/2016,23.1,23.2,22.8,22.9,22.9,22.9,131,3.261,142423
21/08/2016,23.3,23.6,23.1,23.4,23.2,23.3,174,4.261,182938
22/08/2016,23.1,23.3,23.1,23.2,23.1,23.2,125,3.559,153626
23/08/2016,22.8,23.3,22.8,23.2,22.9,23.1,235,5.867,255363
28/08/2016,22.8,23,22.7,22.9,22.8,22.9,133,3.049,133449
29/08/2016,22.7,23,22.7,22.8,22.8,22.8,142,3.263,143062
30/08/2016,23.1,23.4,22.9,22.9,23,22.8,251,6.694,288992
31/08/2016,23.3,23.6,23.1,23.1,23.3,23,374,9.295,397714
02/09/2016,23.1,23.2,22.7,22.8,23.1,22.8,128,1.987,86454
03/09/2016,23,23.8,22.9,23.8,23,23.8,204,3.297,141790
05/09/2016,22.6,22.7,22.5,22.7,22.5,22.9,109,1.714,75828
06/09/2016,23.2,23.3,22.7,23.1,22.8,22.9,238,4.932,215377
08/09/2016,23.2,23.6,23,23.4,23.1,23.4,293,8.393,361664
10/09/2016,23.5,24.1,23.5,24.1,23.6,24,298,9.584,403967
11/09/2016,24.6,24.9,23.4,23.6,24.6,23.5,601,20.929,864731
18/09/2016,23.1,23.5,23.1,23.3,23.2,23.3,132,3.778,161793
19/09/2016,23,23.3,22.8,23.2,22.9,23.2,325,11.328,492713
20/09/2016,23.1,23.4,22.9,22.9,23.1,22.9,251,7.887,340220
21/09/2016,23,23.3,23,23.2,23,23.1,208,5.212,225794
22/09/2016,23.2,23.2,22.9,23,23,23,155,3.627,157472
24/09/2016,23.8,23.8,23,23.1,23.5,23,293,9.624,412870
25/09/2016,23.2,23.8,23.2,23.7,23.4,23.5,233,7.098,301593
26/09/2016,23.4,23.7,23.3,23.3,23.5,23.4,176,4.412,188010
27/09/2016,23.9,24.4,23.7,23.7,23.9,23.5,673,20.273,841689
28/09/2016,23.8,24.1,23.7,24.1,23.8,23.9,293,8.409,351964
29/09/2016,23.7,23.9,23.6,23.7,23.8,23.8,248,9.015,379602
01/10/2016,26.8,27.5,26.8,27.3,26.9,27.1,390,10.678,394606
02/10/2016,23.6,23.7,23.2,23.2,23.5,23.1,206,3.753,160344
03/10/2016,22.9,23.3,22.8,23,22.9,23,150,2.547,111035
04/10/2016,23.3,24.6,23,24.4,23.4,24.6,412,8.834,369977
05/10/2016,22.4,22.6,22.2,22.5,22.3,22.5,141,2.415,108070
07/10/2016,23.1,23.2,22.8,23.2,23,23.4,88,1.318,57307
08/10/2016,22.9,23.3,22.8,23.3,22.9,23.1,317,7.982,347528
10/10/2016,23.2,23.5,23.2,23.5,23.3,23.6,261,6.159,263908
11/10/2016,25.7,25.9,24.6,24.6,25.5,24.6,849,30.973,1229605
13/10/2016,24.5,24.5,23,23.5,24.3,23.3,610,30.967,1291085
16/10/2016,24.6,25.3,24.2,24.3,24.6,24.3,872,31.636,1271924
17/10/2016,26.4,26.5,24.6,24.7,26.3,24.6,1379,59.145,2317290
18/10/2016,26.4,27,25.9,26.4,26.7,26.3,1134,51.134,1947683
19/10/2016,26,26.6,25.5,26.5,25.8,26.7,733,31.357,1205075
20/10/2016,26.6,26.6,25.5,25.9,26.5,25.8,924,39.12,1490513
23/10/2016,26.8,27.8,26.5,26.5,27,26.5,955,40.361,1484606
24/10/2016,25.8,27,25.8,26.8,25.9,27,753,29.405,1119333
25/10/2016,26.6,27.1,25.9,25.9,26.6,25.9,786,32.097,1206728
26/10/2016,25.8,26.9,25.6,26.6,25.9,26.6,406,14.243,545809
27/10/2016,24.8,26.2,24.8,25.8,25,25.9,391,13.875,547479
30/10/2016,24.6,25.3,24.5,24.7,24.8,25,250,9.971,400195
31/10/2016,24.8,25.2,24.5,24.7,24.7,24.8,259,8.202,330216
01/11/2016,26.5,26.9,26.4,26.8,26.5,26.9,233,3.819,143531
02/11/2016,23.2,23.5,23,23.5,23.1,23.5,136,1.848,79755
04/11/2016,22.9,23.9,22.8,23.8,22.9,23.4,261,6.108,262855
05/11/2016,22.3,22.4,22.1,22.3,22.2,22.3,120,2.12,95377
07/11/2016,23,23.5,22.9,23.2,23.1,23,150,5.635,244579
08/11/2016,23.1,23.8,22.8,22.8,23.2,22.9,227,5.788,248504
12/11/2016,33,35,32.7,35,32.9,34.6,974,46.79,1385288
13/11/2016,26.9,27,25.5,25.5,26.7,25.5,1088,50.679,1922777
14/11/2016,25.8,27.3,25.7,27,26,26.7,664,22.662,866101
15/11/2016,26.5,27.2,26,26,26.5,26,1091,53.167,1986996
16/11/2016,25.7,26.6,25.7,26.6,25.9,26.5,511,19.277,738453
17/11/2016,25.8,26.5,25.5,25.9,25.7,25.9,553,18.431,711540
20/11/2016,26.6,26.6,25.7,26,26.2,25.7,420,17.679,679448
21/11/2016,28.6,28.8,26.5,26.6,28.5,26.2,1934,102.534,3686258
22/11/2016,28.5,29.1,27.8,28.6,28.5,28.5,789,37.52,1320980
23/11/2016,28.5,29.4,27.7,28.6,28.7,28.5,1113,66.239,2326315
24/11/2016,28.9,30.2,28.7,29,29.2,28.7,1127,58.843,1997966
27/11/2016,28.3,29.5,28.2,29.3,28.5,29.2,627,28.659,1001803
28/11/2016,28.4,29.5,27.8,28.5,28,28.5,1150,66.161,2328273
29/11/2016,27.7,28.6,27.6,28.3,27.7,28,618,29.602,1057468
30/11/2016,30.4,30.4,28,28,30.4,27.7,1326,84.924,2889726
01/12/2016,27.2,27.3,26.4,26.8,27,26.5,374,11.052,410044
04/12/2016,22.8,23.6,22.5,23.1,22.7,22.9,180,3.569,155507
05/12/2016,22.5,22.5,22.2,22.3,22.5,22.2,69,0.931,41550
06/12/2016,22.8,23.3,22.7,23.3,22.8,22.8,121,2.498,109174
07/12/2016,23.3,23.5,22.9,23.5,23.2,23.1,206,4.81,208574
12/12/2016,32.5,33.1,31.8,33,32.1,32.9,1015,47.437,1463224
14/12/2016,32.3,33.7,32.2,32.3,32.4,32.1,1103,66.433,2017965
15/12/2016,31.2,33.5,31,32.6,31.3,32.4,1092,55.393,1729477
18/12/2016,33.4,33.4,30.9,31.8,33,31.3,1069,55.596,1728236
19/12/2016,32.6,33.9,32.3,33.4,32.5,33,799,38.379,1161669
20/12/2016,33.5,34.6,32.7,32.7,33.5,32.5,1584,107.254,3166660
21/12/2016,35.5,35.6,33.8,33.9,35.4,33.5,2013,130.538,3756783
22/12/2016,36,36.5,35.5,35.8,36,35.4,1758,142.727,3968827
26/12/2016,34.3,36.3,34.1,36.1,34.5,36,1791,116.347,3293902
27/12/2016,33.8,35.1,33.8,34.2,34,34.5,1068,67.094,1951717
28/12/2016,34.1,35.2,33.7,34,34.3,34,922,57.983,1680136
29/12/2016,33.6,34.5,33.6,34.4,33.7,34.3,787,41.746,1228174
01/01/2017,34.5,34.5,33.6,33.7,34.1,33.7,596,29.34,860928
02/01/2017,32.9,33.9,32,33.5,32.5,33,607,28.377,856849
03/01/2017,33.6,33.7,33.2,33.2,33.4,33.2,404,16.668,498600
03/01/2017,32.5,33.4,32.1,32.7,32.6,32.7,752,32.245,982576
06/01/2017,38.1,39,38,38.1,38.3,38.1,439,15.858,412105
08/01/2017,39.9,40.8,39.7,39.8,40,39.7,626,30.209,753705
11/01/2017,32.8,33.9,32.8,33.8,33,33.4,226,8.587,258616
15/01/2017,34.7,34.8,33.7,34.3,34.3,34,672,36.387,1065226
16/01/2017,34.4,35.2,34.1,35,34.3,34.3,563,30.138,877394
17/01/2017,34.2,35.1,33.5,33.5,34.7,34.3,917,64.193,1877375
18/01/2017,34.9,37.1,34.2,34.9,35.9,34.7,2443,165.251,4633017
19/01/2017,36.8,36.9,35.6,36,36.5,35.9,1754,116.913,3208907
22/01/2017,39,39,36.9,36.9,38.8,36.5,2448,185.22,4846996
23/01/2017,38.9,40.4,38.2,39.4,38.6,38.8,2168,208.204,5277833
24/01/2017,36.7,39.1,36.3,39,36.8,38.6,1153,89.416,2381400
25/01/2017,35.6,38.5,34.9,37.1,35.5,36.8,1133,78.886,2152983
26/01/2017,33.3,36,32,35.6,33.3,35.5,2063,151.79,4559844
29/01/2017,32.5,33.9,32.5,33.8,32.7,33.3,672,40.242,1225425
31/01/2017,33.1,33.5,32.5,33,33,32.6,554,20.976,633047
01/02/2017,33.5,35,33.4,34.2,33.8,34.1,970,50.099,1466530
02/02/2017,32,33.2,32,32.6,32.1,32.5,417,13.1,405983
03/02/2017,33.3,33.6,32.9,33.3,33.2,33.4,226,9.533,287954
04/02/2017,32.9,33.3,32.9,33,33,33.1,165,7.848,237642
05/02/2017,36.2,37.5,35.7,37,36.1,36.6,1286,102.423,2787338
07/02/2017,41.8,41.8,40.7,41.6,41.4,41.5,1042,88.593,2150705
08/02/2017,40,40.7,39.8,40.1,40,40,557,32.471,808260
10/02/2017,36.8,40.3,36.1,39,37.5,38.9,1340,75.719,1933080
11/02/2017,33.4,34,33.2,33.3,33.4,33,265,9.418,281356
13/02/2017,32.7,33.4,32.2,33.1,32.5,33,568,24.85,759938
14/02/2017,32.7,33,32.4,33,32.5,32.5,614,21.118,648568
15/02/2017,32.8,33.4,32.6,33,32.8,32.5,561,22.915,695805
16/02/2017,32.9,32.9,32.6,32.7,32.7,32.8,370,13.836,422568
19/02/2017,32.6,33.2,32.6,32.8,32.7,32.7,459,18.971,577007
20/02/2017,32.6,33,32.6,32.7,32.7,32.7,359,12.598,384147
22/02/2017,33.8,33.8,32.5,32.9,33.6,32.7,705,31.372,947466
25/02/2017,33.7,34.2,33.2,33.9,33.7,33.6,634,31.258,927139
26/02/2017,34,34.2,33.6,33.8,33.9,33.7,760,34.318,1009983
27/02/2017,33.4,34.2,33.3,34.2,33.4,33.9,527,21.398,636233
28/02/2017,33.2,33.6,33.1,33.2,33.2,33.4,414,16.248,488757
01/03/2017,33.8,34.2,33.5,34,33.7,33.8,678,32.196,952508
04/03/2017,33,33.3,32.8,32.9,32.9,33,256,10.801,328129
05/03/2017,38.8,38.8,35.9,36.1,38.6,36.1,1898,135.671,3612187
07/03/2017,41.8,42.9,41.5,41.6,42,41.4,1665,119.668,2828380
08/03/2017,39.8,40.6,39.4,40,39.6,40,539,29.044,727576
10/03/2017,37.1,38,36.6,37.8,36.8,37.5,617,21.54,582046
12/03/2017,31.8,31.9,31.6,31.9,31.7,31.6,105,4.014,126603
13/03/2017,32.9,33.1,32.9,33,32.9,33,195,11.189,339822
13/03/2017,33.4,33.5,33,33.2,33.3,33.2,297,15.35,462734
14/03/2017,33,33.4,32.9,33.4,32.9,33.3,277,9.026,273443
15/03/2017,33,33,32.8,33,32.8,32.9,200,8.075,246002
16/03/2017,33,33.1,32.8,32.9,33,32.8,169,5.564,168933
20/03/2017,33.1,33.2,32.9,33,33,32.9,238,13.784,417636
21/03/2017,33.4,33.4,32.8,33.1,33.1,33,258,12.639,383043
22/03/2017,33.2,33.5,33,33.1,33.1,33.1,190,9.488,286100
23/03/2017,34.4,34.7,33.4,33.4,34.5,33.1,1667,93.062,2713856
27/03/2017,34.2,34.6,34,34.6,34,34.5,556,24.856,726191
28/03/2017,33.5,34.4,33.4,34.2,33.5,34,399,21.38,635298
29/03/2017,33.3,33.9,33.2,33.5,33.4,33.5,347,17.522,522295
30/03/2017,33,33.7,33,33.7,33.1,33.4,270,18.783,566784
01/04/2017,35.2,36,33.8,34,35.2,33.7,1617,93.735,2662706
04/04/2017,33.2,33.2,32.9,33.1,33,32.9,232,7.946,240966
05/04/2017,38.6,39.2,37.5,38.6,38.1,38.6,939,64.76,1687136
06/04/2017,36.9,38.2,36.9,38.1,37.1,38.3,330,15.239,408136
07/04/2017,41.5,42.4,41.1,42.2,41.3,42,1759,104.113,2502229
09/04/2017,38.6,39.1,38.6,38.9,38.8,38.5,210,8.5,219372
10/04/2017,37.7,39.1,36.9,37.5,37.8,36.8,872,35.153,922313
12/04/2017,33.7,33.7,31.8,31.8,33.5,31.7,854,25.136,764562
13/04/2017,32.6,32.7,32.2,32.6,32.4,32.3,158,5.476,169130
16/04/2017,33.8,33.8,32.4,32.6,33.6,32.4,571,22.801,684511
17/04/2017,33.1,34,33.1,33.9,33.1,33.6,487,18.367,546209
18/04/2017,33.9,34.4,33.1,33.3,33.9,33.1,879,40.447,1189147
19/04/2017,34.2,34.4,33.7,33.9,34,33.9,522,23.967,705438
20/04/2017,33.1,34,32.8,34,32.9,34,277,15.269,457647
23/04/2017,32.3,32.9,32.2,32.8,32.3,32.9,242,10.57,326133
24/04/2017,32.6,32.6,31.7,32,32.5,32.3,139,5.344,165806
25/04/2017,32.4,33,32.4,32.9,32.4,32.5,110,5.392,165785
26/04/2017,35,35,32.2,32.4,34.2,32.4,611,31.113,914189
27/04/2017,35,35.2,34,34.6,34.9,34.2,1149,87.573,2523876
30/04/2017,36.9,37,34,35,36.6,34.9,1624,135.764,3761316
01/05/2017,38.5,38.9,37.6,38.6,38.1,38.2,354,15.78,411418
01/05/2017,34.5,35.7,34,35.7,34.2,35.2,1101,75.611,2177068
02/05/2017,31.5,32.8,31.1,32.3,31.7,32.1,490,20.883,655530
03/05/2017,32.7,33.3,32.7,33.3,32.8,33.2,257,9.076,276337
04/05/2017,32.8,33.4,32.8,33.2,32.8,33,231,8.571,259794
06/05/2017,37,37.7,36.7,37.2,37.1,37.1,360,20.106,541535
07/05/2017,41.2,41.9,41,41.4,41.3,41.3,1270,78.745,1901811
09/05/2017,38.5,39,38.5,38.9,38.5,38.8,220,9.153,236992
10/05/2017,36.8,38.9,36.8,37.9,37,37.8,734,32.461,861231
11/05/2017,33.2,33.7,33.1,33.5,33.2,33.4,237,9.635,288627
12/05/2017,33.4,33.6,32.7,33.6,33.2,33.5,320,10.91,329545
14/05/2017,38.3,38.9,37.8,38,38.3,37.8,795,58.185,1516658
15/05/2017,38.4,38.5,37.6,38.5,38.1,38.3,447,28.898,757904
16/05/2017,38,38.5,37.4,38.2,38,38.1,346,31.839,837968
17/05/2017,38.7,38.8,37.7,38.2,38.7,38,618,66.329,1724865
20/05/2017,38.8,39.7,38.5,39,39,38.7,1085,89.557,2281327
21/05/2017,38.5,39.6,38.3,39.3,38.8,39,419,22.327,575684
22/05/2017,39.5,40.1,38.8,39.2,39.5,38.8,912,83.927,2121871
23/05/2017,39.8,40,38.8,39.7,39.7,39.5,599,45.844,1158865
24/05/2017,40.5,40.8,39.3,39.3,40.2,39.7,939,62.426,1549029
25/05/2017,39.5,40.6,39,40.4,39.4,40.2,685,54.867,1389278
28/05/2017,39.5,40.8,39.3,39.5,39.4,39.4,800,97.906,2429561
29/05/2017,38,40,37.9,39.6,38.1,39.4,899,82.746,2103098
30/05/2017,38.8,38.8,37,38.2,38.2,38.1,332,12.649,335058
02/06/2017,31.6,32.5,31.6,32,31.9,31.7,356,16.463,514225
03/06/2017,33.3,33.4,32.8,32.8,33,32.8,291,12.03,363915
04/06/2017,32.6,33,32.4,32.8,32.6,32.8,203,7.598,233360
06/06/2017,36.6,37.5,36.5,37.3,36.6,37.1,485,20.877,564639
07/06/2017,41.3,42.5,41.1,42,41.3,41.3,986,85.945,2075421
08/06/2017,39,40,38.9,39.9,39.1,39.6,354,14.055,357605
09/06/2017,38.6,39,38.5,38.7,38.5,38.5,316,9.542,247128
11/06/2017,33.1,33.3,32.8,33,33,33.2,184,6.734,204110
12/06/2017,33.3,33.6,32.9,33.4,33.1,33.2,472,15.005,450598
13/06/2017,38.5,38.9,38.1,38.7,38.4,38.5,414,25.676,669129
14/06/2017,38.9,39.3,38.5,38.8,39.1,38.4,1161,104.403,2678218
15/06/2017,40.1,40.5,39,39.1,40.2,39.1,1128,75.541,1887521
18/06/2017,39.5,40.3,39.2,40.3,39.4,40.2,565,38.793,980982
19/06/2017,40.6,40.8,38.8,39.4,40.3,39.4,903,69.446,1739782
20/06/2017,41.3,42.2,40.5,40.5,41.5,40.3,1481,140.419,3365491
21/06/2017,42.9,43.1,41,41.3,43,41.5,1368,134.793,3199584
22/06/2017,42.4,43.7,42.3,42.8,42.5,43,1650,150.201,3495285
28/06/2017,41.5,42.6,41.3,42.5,41.7,42.5,1065,70.656,1679302
29/06/2017,41.5,42.3,41.3,42,41.5,41.7,740,49.043,1177208
02/07/2017,31.7,32.1,31.1,31.7,31.4,31.9,373,12.396,394379
03/07/2017,33.5,34,33.4,33.4,33.5,33,542,25.79,765082
05/07/2017,37.8,39,36.5,38.3,37.6,38.1,1222,107.667,2813254
06/07/2017,36.7,37.3,36.2,36.6,36.5,36.6,496,25.753,703446
08/07/2017,39.4,39.9,39.2,39.2,39.6,39.1,379,18.92,478519
09/07/2017,38.7,39.3,38.3,38.8,38.5,38.5,287,11.735,304249
11/07/2017,33,33.2,32.6,32.9,32.8,33,175,5.513,167637
12/07/2017,34.5,34.5,33.1,33.5,34.2,33.1,792,25.665,760338
13/07/2017,41,41.3,39.4,39.9,40.7,39.9,1232,69.944,1730121
16/07/2017,40.7,41.4,40.5,41,41,40.7,756,33.194,810014
18/07/2017,39.4,40.5,39.4,40.2,39.8,39.9,666,44.582,1115355
18/07/2017,39.6,41,39.6,41,39.9,41,701,30.524,759371
19/07/2017,38.6,40,38.6,39.7,38.9,39.8,533,16.902,430159
20/07/2017,38.8,39.3,38.5,39.3,38.7,38.9,414,13.297,342898
23/07/2017,37.9,39,37.9,39,38.1,38.7,525,18.663,487063
24/07/2017,38.7,38.8,38.1,38.2,38.4,38.1,319,13.888,362087
25/07/2017,39.1,39.2,38.5,38.5,38.9,38.4,435,13.599,349307
26/07/2017,39,39.4,38.7,39,39,38.9,367,13.726,352078
27/07/2017,39,39.5,38.8,39.3,39.3,39,403,19.421,495174
30/07/2017,39.3,39.9,39.2,39.2,39.3,39.3,491,18.846,477217
31/07/2017,39.6,40.2,39,39.9,39.7,39.3,692,32.032,804765
01/08/2017,33.7,34.7,33.5,34.4,33.7,34.2,543,22.417,658755
02/08/2017,33.3,33.9,32,32,33.2,31.4,763,32.008,968939
03/08/2017,33.3,33.9,33,33.6,33.1,33.5,294,11.131,333959
05/08/2017,36.8,38,36.5,37.7,36.8,37.6,704,47.608,1285079
06/08/2017,37.5,38.3,36.7,36.9,38,36.5,785,39.082,1039567
08/08/2017,39,40.3,39,39.6,39.4,39.6,650,39.074,981784
10/08/2017,36.2,37.3,36.1,36.9,36.3,37,693,35.038,958417
11/08/2017,32.5,33,32.3,33,32.6,32.8,218,7.205,220602
13/08/2017,37.9,39,37.7,39,37.9,38.5,505,15.994,420424
16/08/2017,37.1,38.1,37,38,37.1,37.9,356,16.246,435130
17/08/2017,37.2,37.8,36.7,37.4,37.3,37.1,356,13.334,356697
20/08/2017,37.8,38,37.1,37.4,37.6,37.3,272,9.432,251315
21/08/2017,38.5,38.5,37.7,37.9,38.3,37.6,452,16.94,444642
22/08/2017,39.3,39.9,38.5,38.5,39.5,38.3,746,31.154,788834
23/08/2017,38.5,40.4,38.5,39.8,38.7,39.5,634,25.503,645636
24/08/2017,39,39.6,38.7,38.9,39,38.7,416,20.695,528704
27/08/2017,38.6,39.6,38.5,39.1,38.6,39,282,15.342,394987
28/08/2017,38.9,39.2,38.5,38.6,38.5,38.6,304,10.584,273877
29/08/2017,38.7,39.3,38.6,39,38.7,38.5,345,14.688,378975
30/08/2017,38.4,39.4,38.2,39.1,38.5,38.7,397,18.521,478910
31/08/2017,38.6,39,38.4,38.5,38.5,38.5,208,4.326,112295
01/09/2017,34.8,34.8,33.1,33.8,34.7,33.7,712,45.255,1324670
02/09/2017,33,34,32.1,33.5,33,33.2,495,19.648,592830
03/09/2017,33.7,33.7,33.2,33.2,33.6,33.1,324,16.318,487162
04/09/2017,32.6,32.8,31.7,32.6,32.3,32.6,300,9.801,305627
05/09/2017,38,38.3,36.6,36.6,37.7,36.8,712,67.688,1796320
07/09/2017,40.9,41.8,40.4,41.7,40.6,41.3,1270,76.323,1859714
08/09/2017,38.9,39.7,38.8,39.4,38.9,39.4,503,16.402,418912
10/09/2017,35.8,36.5,35.7,36.4,35.9,36.3,443,15.376,427705
13/09/2017,37.3,38.5,37.3,38,37.6,38,221,8.36,221237
14/09/2017,37.6,38,37.5,37.9,37.6,37.6,177,6.374,169125
17/09/2017,38,38.5,37.7,37.8,38,37.6,255,7.855,206240
18/09/2017,37.5,38.3,37.5,38.2,37.7,38,250,10.5,277607
19/09/2017,37.1,38,37.1,37.8,37.2,37.7,218,7.702,205855
20/09/2017,36.8,37.8,36.7,37.3,37,37.2,175,6.059,162902
21/09/2017,36.7,37.4,36,37.1,36.1,37,224,7.951,218324
24/09/2017,38.6,38.9,36,36.3,38.5,36.1,498,19.648,517177
25/09/2017,37.7,39,37.4,38.9,37.7,38.5,261,11.523,302574
26/09/2017,39.9,40.5,37.9,38,39.8,37.7,1663,78.35,1978718
27/09/2017,39.7,40.6,38.7,40,39.8,39.8,878,38.235,961824
28/09/2017,38.6,40.4,38.6,40,38.9,39.8,648,24.986,631924
01/10/2017,34.9,35.9,34.5,34.8,34.7,34.7,1083,65.339,1861223
04/10/2017,32.2,32.6,31.9,32.6,32.1,32.3,145,4.59,143014
07/10/2017,40.2,41.1,40.2,40.7,40.4,40.6,1079,59.659,1468011
08/10/2017,38.4,39.2,38.4,38.6,38.5,38.9,565,18.53,478325
09/10/2017,38,38.7,37.8,38.6,38,38.5,314,7.718,201655
10/10/2017,35.3,36.6,35.3,35.9,35.5,35.9,481,16.204,452998
12/10/2017,33.6,34.8,33.6,34.4,33.9,34.2,543,14.323,417537
15/10/2017,32.5,34.1,32.3,34.1,32.4,33.4,279,5.686,173797
16/10/2017,32.7,33.1,32,32.4,32.6,32.4,375,12.719,389258
17/10/2017,34.2,34.5,32.2,32.7,34,32.6,470,15.884,467965
18/10/2017,34.7,36,34.3,34.4,34.5,34,411,16.729,478572
19/10/2017,34,34.8,33.8,34.6,34,34.5,364,14.478,424315
22/10/2017,33.9,34.5,33.7,34.4,33.8,34,205,4.509,132759
23/10/2017,33.5,34.5,33.5,33.7,33.7,33.8,423,12.084,355015
24/10/2017,32.3,33.7,32.3,33.7,32.5,33.7,314,7.477,227651
25/10/2017,32.3,33,32.2,32.2,32.5,32.5,209,6.796,208679
26/10/2017,32.3,32.6,32.3,32.6,32.4,32.5,304,10.706,329653
29/10/2017,31.7,32.9,31.6,32.4,31.7,32.4,240,5.782,180909
30/10/2017,32,32.5,31.7,32,32.1,31.7,242,7.039,219295
31/10/2017,33.4,33.6,32,32.1,33.4,32.1,505,18.99,571536
01/11/2017,34.1,35.1,33.5,35,33.8,34.7,935,45.349,1325221
04/11/2017,32.1,32.4,31.9,32.2,32.1,32.1,141,3.24,100908
05/11/2017,37.6,38.5,37.5,37.7,37.8,37.7,597,48.108,1263559
06/11/2017,38.2,39.5,38.2,38.3,38.4,38,979,58.998,1520416
07/11/2017,40.1,41.4,40.1,40.6,40.6,40.4,1202,60.604,1481083
09/11/2017,38,38.4,37.8,38,37.9,38,202,5.799,152715
10/11/2017,34.3,36,33.8,35.8,34,35.5,508,14.392,415759
12/11/2017,33.4,34.4,33,34.4,33.2,33.9,292,11.14,335058
13/11/2017,31.1,31.2,30.2,31,30.9,31.1,235,6.303,205740
14/11/2017,31,31,30.4,30.7,30.7,30.9,198,5.621,182941
15/11/2017,31.9,32.7,31,31.2,32.1,30.7,349,12.339,385419
16/11/2017,31.8,32.8,31.8,32.6,31.9,32.1,216,8.797,272905
19/11/2017,31.8,32.1,31.6,32.1,31.8,31.9,121,3.139,98657
20/11/2017,31.6,32.4,31.5,32,31.6,31.8,305,14.658,457493
21/11/2017,31.8,32.5,31.5,31.5,31.8,31.6,262,11.258,351950
22/11/2017,32.4,32.7,32,32,32.1,31.8,299,11.996,371151
23/11/2017,32,32.5,31.8,32.1,32,32.1,211,6.956,216881
26/11/2017,32,32.4,31.9,32,32.1,32,212,6.199,192933
27/11/2017,31.8,32.3,31.8,32.1,31.9,32.1,162,4.493,140571
28/11/2017,31.9,32,31.5,31.9,31.6,31.9,224,5.063,159850
29/11/2017,31.5,31.9,31.4,31.7,31.5,31.6,239,5.803,184214
30/11/2017,31.5,31.9,31.4,31.5,31.6,31.5,197,6.505,205589
01/12/2017,33.8,34.5,33.7,33.9,34,33.8,588,29.77,873845
